Version 4
SHEET 1 3412 1596
WIRE 2336 -688 2240 -688
WIRE 2432 -688 2400 -688
WIRE 2240 -608 2240 -688
WIRE 2304 -608 2240 -608
WIRE 2432 -608 2432 -688
WIRE 2432 -608 2384 -608
WIRE 2240 -496 2240 -608
WIRE 2304 -496 2240 -496
WIRE 2432 -480 2432 -608
WIRE 2432 -480 2368 -480
WIRE 2304 -464 2288 -464
WIRE 2240 -448 2240 -496
WIRE 2240 -432 2240 -448
WIRE 2320 -400 2240 -448
WIRE 2464 -400 2320 -400
WIRE 2736 -384 2640 -384
WIRE 2832 -384 2800 -384
WIRE 2832 -368 2832 -384
WIRE 2864 -368 2832 -368
WIRE 3056 -368 2944 -368
WIRE 2240 -304 2240 -352
WIRE 2256 -304 2240 -304
WIRE 2336 -304 2320 -304
WIRE 2448 -304 2416 -304
WIRE 2640 -304 2640 -384
WIRE 2704 -304 2640 -304
WIRE 2832 -304 2832 -368
WIRE 2832 -304 2784 -304
WIRE 3056 -304 3056 -368
WIRE 2240 -272 2240 -304
WIRE 2832 -240 2832 -304
WIRE 2944 -240 2832 -240
WIRE 2944 -224 2944 -240
WIRE 2640 -192 2640 -304
WIRE 2704 -192 2640 -192
WIRE 1264 -176 1088 -176
WIRE 2832 -176 2832 -240
WIRE 2832 -176 2768 -176
WIRE 2640 -160 2640 -192
WIRE 2704 -160 2688 -160
WIRE 2640 -144 2640 -160
WIRE 2240 -128 2240 -192
WIRE 1216 -112 1200 -112
WIRE 2944 -112 2944 -144
WIRE 1088 -96 1088 -176
WIRE 1088 -96 544 -96
WIRE 2736 -96 2640 -160
WIRE 2768 -96 2736 -96
WIRE 2896 -96 2768 -96
WIRE 1216 -80 1216 -112
WIRE 1216 -80 1200 -80
WIRE 1216 -64 1216 -80
WIRE 1264 -64 1216 -64
WIRE 1472 -64 1456 -64
WIRE 1600 -64 1584 -64
WIRE 1728 -64 1680 -64
WIRE 1904 -64 1840 -64
WIRE 1680 -32 1680 -64
WIRE 2240 -32 2240 -48
WIRE 2240 -32 2160 -32
WIRE 2160 -16 2160 -32
WIRE 2160 -16 2032 -16
WIRE 2192 -16 2160 -16
WIRE 2560 -16 2464 -16
WIRE 2032 0 2032 -16
WIRE 2464 0 2464 -16
WIRE 128 16 0 16
WIRE 624 16 592 16
WIRE 0 32 0 16
WIRE 544 48 544 -96
WIRE 624 48 544 48
WIRE 1456 48 1456 32
WIRE 1680 48 1680 32
WIRE 624 80 608 80
WIRE 976 96 880 96
WIRE 624 112 608 112
WIRE 976 128 896 128
WIRE 2192 128 2032 128
WIRE 2560 128 2464 128
WIRE 624 144 608 144
WIRE 1216 144 1216 -64
WIRE 1216 144 1200 144
WIRE 1264 144 1216 144
WIRE 2032 144 2032 128
WIRE 2464 144 2464 128
WIRE 976 160 912 160
WIRE 32 176 -80 176
WIRE -80 192 -80 176
WIRE 1088 208 1088 160
WIRE 1088 208 928 208
WIRE 1376 208 1344 208
WIRE 624 240 608 240
WIRE 880 240 880 96
WIRE 880 240 848 240
WIRE 1344 240 1344 208
WIRE 1376 240 1344 240
WIRE 1648 240 1600 240
WIRE 1344 256 1344 240
WIRE 1872 256 1840 256
WIRE 608 272 608 240
WIRE 624 272 608 272
WIRE 896 272 896 128
WIRE 896 272 848 272
WIRE 944 272 896 272
WIRE 2192 272 2032 272
WIRE 1488 288 1488 256
WIRE 1488 288 1472 288
WIRE 2032 288 2032 272
WIRE 32 304 -80 304
WIRE 608 304 608 272
WIRE 624 304 608 304
WIRE 928 304 928 208
WIRE 928 304 848 304
WIRE 944 304 928 304
WIRE -80 320 -80 304
WIRE 1872 320 1840 320
WIRE 608 336 608 304
WIRE 624 336 608 336
WIRE 912 336 912 160
WIRE 912 336 848 336
WIRE 928 336 912 336
WIRE 944 336 928 336
WIRE 1648 336 1616 336
WIRE 608 352 608 336
WIRE 928 368 928 336
WIRE 1056 368 928 368
WIRE 1072 368 1056 368
WIRE 1216 368 1184 368
WIRE 2192 400 2032 400
WIRE 1744 416 1744 400
WIRE 1744 416 1728 416
WIRE 2032 416 2032 400
WIRE 1056 432 1056 368
WIRE 1072 432 1056 432
WIRE 1184 432 1184 368
WIRE 608 672 592 672
WIRE 16 688 0 688
WIRE 816 688 800 688
WIRE 16 720 0 720
WIRE 608 720 592 720
WIRE 1232 720 1216 720
WIRE 16 752 -64 752
WIRE 1232 752 1216 752
WIRE 608 768 592 768
WIRE 16 784 0 784
WIRE 2480 784 2416 784
WIRE 2496 784 2480 784
WIRE 1856 800 1840 800
WIRE 16 816 0 816
WIRE 1232 816 1216 816
WIRE 1456 816 1424 816
WIRE 704 832 688 832
WIRE 1856 832 1840 832
WIRE 2496 832 2448 832
WIRE 1232 848 1216 848
WIRE 1456 848 1424 848
WIRE 1856 864 1840 864
WIRE 2736 864 2688 864
WIRE 1232 880 1216 880
WIRE 1456 880 1424 880
WIRE 2480 880 2480 784
WIRE 2496 880 2480 880
WIRE 1856 896 1840 896
WIRE 16 912 0 912
WIRE 416 912 240 912
WIRE 896 912 880 912
WIRE 1024 912 976 912
WIRE 1232 912 1024 912
WIRE 1856 928 1840 928
WIRE 0 944 0 912
WIRE 16 944 0 944
WIRE 416 944 240 944
WIRE 1232 944 1200 944
WIRE 1456 944 1424 944
WIRE 2592 944 2576 944
WIRE 0 976 0 944
WIRE 16 976 0 976
WIRE 416 976 240 976
WIRE 1232 976 1200 976
WIRE 1456 976 1424 976
WIRE 0 1008 0 976
WIRE 16 1008 0 1008
WIRE 1232 1008 1200 1008
WIRE 1456 1008 1424 1008
WIRE 0 1024 0 1008
WIRE 1024 1024 1024 912
WIRE 1856 1024 1840 1024
WIRE 2176 1024 2080 1024
WIRE 2304 1024 2176 1024
WIRE 1232 1040 1200 1040
WIRE 1456 1040 1424 1040
WIRE 1840 1056 1840 1024
WIRE 1856 1056 1840 1056
WIRE 2160 1056 2080 1056
WIRE 2304 1056 2160 1056
WIRE 1840 1088 1840 1056
WIRE 1856 1088 1840 1088
WIRE 2144 1088 2080 1088
WIRE 2304 1088 2144 1088
WIRE 1024 1104 1024 1088
WIRE 1840 1120 1840 1088
WIRE 1856 1120 1840 1120
WIRE 1840 1136 1840 1120
WIRE 1232 1152 1216 1152
WIRE 16 1168 0 1168
WIRE 2176 1168 2176 1024
WIRE 2336 1168 2176 1168
WIRE 1232 1184 1216 1184
WIRE 16 1200 0 1200
WIRE 2160 1200 2160 1056
WIRE 2336 1200 2160 1200
WIRE 2496 1200 2448 1200
WIRE 16 1232 0 1232
WIRE 2144 1232 2144 1088
WIRE 2336 1232 2144 1232
WIRE 1232 1248 1216 1248
WIRE 1456 1248 1424 1248
WIRE 16 1264 -64 1264
WIRE 1232 1280 1216 1280
WIRE 1456 1280 1424 1280
WIRE 16 1296 0 1296
WIRE 1232 1312 1216 1312
WIRE 1456 1312 1424 1312
WIRE 2192 1328 2176 1328
WIRE -176 1344 -176 1280
WIRE -176 1344 -208 1344
WIRE 1232 1344 1216 1344
WIRE 1456 1344 1424 1344
WIRE 2384 1344 2304 1344
WIRE 2192 1360 2176 1360
WIRE 1232 1376 1216 1376
WIRE 1568 1376 1424 1376
WIRE 16 1392 0 1392
WIRE 416 1392 240 1392
WIRE 1232 1408 1216 1408
WIRE 1472 1408 1424 1408
WIRE 0 1424 0 1392
WIRE 16 1424 0 1424
WIRE 416 1424 240 1424
WIRE 1232 1440 1200 1440
WIRE 1488 1440 1424 1440
WIRE 0 1456 0 1424
WIRE 16 1456 0 1456
WIRE 416 1456 240 1456
WIRE 1488 1472 1424 1472
WIRE 0 1488 0 1456
WIRE 16 1488 0 1488
WIRE 416 1488 240 1488
WIRE 0 1504 0 1488
WIRE 288 1536 240 1536
FLAG -80 112 0
FLAG -80 32 VCC
FLAG 0 112 0
FLAG 128 16 dotclock
FLAG 608 352 0
FLAG 592 16 _por
FLAG 608 80 vcc
FLAG 608 112 vcc
FLAG -80 272 0
FLAG 32 176 por
FLAG -80 400 0
FLAG 32 304 _por
FLAG 608 144 dotclock
FLAG 944 272 dot0
FLAG 944 304 dot1
FLAG 944 336 dot2
FLAG 2032 80 0
FLAG 2192 -16 dot
FLAG 1264 144 lastdot
FLAG 1216 368 clock
FLAG 1840 800 _por
FLAG 1840 864 vcc
FLAG 1840 928 clock
FLAG 2304 1024 line0
FLAG 2304 1056 line1
FLAG 2304 1088 line2
FLAG 2496 1200 _lastlinereq
FLAG 2032 224 0
FLAG 2192 128 line
FLAG 0 688 _por
FLAG 0 816 clock
FLAG 0 1024 0
FLAG 416 912 posreq0
FLAG 416 944 posreq1
FLAG 416 976 posreq2
FLAG 1264 -176 _lastdot
FLAG 2176 1328 _lastdot
FLAG 2176 1360 _lastlinereq
FLAG 2384 1344 nextposreq
FLAG -64 752 nextposreq
FLAG 0 1168 _por
FLAG 0 1296 clock
FLAG 416 1392 fieldreq0
FLAG 416 1424 fieldreq1
FLAG 416 1456 fieldreq2
FLAG 416 1488 fieldreq3
FLAG 1200 944 fieldreq0
FLAG 1200 976 fieldreq1
FLAG 1200 1008 fieldreq2
FLAG 1200 1040 fieldreq3
FLAG 1216 816 posreq0
FLAG 1216 848 posreq1
FLAG 1216 880 posreq2
FLAG 1456 816 pos0
FLAG 1456 848 pos1
FLAG 1456 880 pos2
FLAG 1456 944 field0
FLAG 1456 976 field1
FLAG 1456 1008 field2
FLAG 1456 1040 field3
FLAG 2032 368 0
FLAG 2192 272 pos
FLAG 2032 496 0
FLAG 2192 400 field
FLAG -288 1216 posreq0
FLAG -288 1248 posreq1
FLAG -288 1280 posreq2
FLAG 1216 1184 clock
FLAG 1216 1248 linereq0
FLAG 1216 1280 linereq1
FLAG 1216 1312 linereq2
FLAG -208 1344 _lastlinereq
FLAG 1904 -64 _interline_blank
FLAG 1872 256 run
FLAG 1872 320 done
FLAG 1744 176 VCC
FLAG 1648 288 clock
FLAG 288 1536 finishreq
FLAG 1728 416 _por
FLAG 0 1232 run
FLAG 0 784 run
FLAG 1840 896 run
FLAG 1840 832 run
FLAG 0 720 run
FLAG 0 1200 run
FLAG 1344 464 0
FLAG 1472 288 run
FLAG 1216 1376 run
FLAG 1568 1376 _startup_blank
FLAG 1344 256 vcc
FLAG 1216 1408 nextposreq
FLAG 1216 1152 VCC
FLAG 2464 80 0
FLAG 2560 -16 xout
FLAG 2464 224 0
FLAG 2560 128 yout
FLAG 592 720 clock
FLAG 592 672 nextposreq
FLAG 592 768 run
FLAG 704 608 VCC
FLAG 688 832 _por
FLAG 816 688 ready
FLAG 1472 1408 latchbus
FLAG 1216 752 latchbus
FLAG 1840 1136 0
FLAG 0 1504 vcc
FLAG 1424 912 finishreq1
FLAG 1216 1344 0
FLAG 880 912 finishreq
FLAG 2448 832 latchbus
FLAG 2576 944 run
FLAG 2592 720 VCC
FLAG 1216 720 run
FLAG 1024 1104 0
FLAG 2416 784 finishreq1
FLAG 2736 864 _finish
FLAG 1616 336 _finish
FLAG 1456 48 0
FLAG 1680 48 0
FLAG 2112 -144 0
FLAG 2112 -224 V+
FLAG 2176 -144 0
FLAG 2176 -224 V-
FLAG 2336 -512 V+
FLAG 2336 -448 V-
FLAG 2288 -464 0
FLAG 2336 -16 pos
FLAG 2736 -208 V+
FLAG 2736 -144 V-
FLAG 2688 -160 0
FLAG 2640 -64 line
FLAG 2768 -16 field2
FLAG 2944 -112 0
FLAG 3056 -224 0
FLAG 2448 -304 0
SYMBOL voltage -80 16 R0
WINDOW 123 0 0 Left 2
WINDOW 39 0 0 Left 2
SYMATTR InstName V1
SYMATTR Value 5
SYMBOL voltage 0 16 R0
WINDOW 123 0 0 Left 2
WINDOW 39 0 0 Left 2
SYMATTR InstName V2
SYMATTR Value PULSE(0 5 0 25n 25n {0.5/freq-25n} {1/freq})
SYMBOL Digital\\74HC\\74hc161 736 -64 R0
SYMATTR InstName U1
SYMBOL voltage -80 176 R0
WINDOW 123 0 0 Left 2
WINDOW 39 0 0 Left 2
SYMATTR InstName V3
SYMATTR Value PULSE(0 5 {10.25/freq})
SYMBOL voltage -80 304 R0
WINDOW 123 0 0 Left 2
WINDOW 39 0 0 Left 2
SYMATTR InstName V4
SYMATTR Value PULSE(0 5 {10.25/freq})
SYMBOL Digital\\74HC\\74hc10 1024 48 R0
SYMATTR InstName U2
SYMBOL Digital\\74HC\\74hc02 1136 80 R0
SYMATTR InstName U3
SYMBOL Digital\\74HC\\74hc02 1152 -160 M0
SYMATTR InstName U4
SYMBOL bv 2032 -16 R0
SYMATTR InstName B1
SYMATTR Value V=(V(dot0)+2*V(dot1)+4*V(dot2))/5
SYMBOL Digital\\74HC\\74hc14 1120 320 R0
SYMATTR InstName U5
SYMBOL Digital\\74HC\\74hc14 1120 384 R0
SYMATTR InstName U6
SYMBOL Digital\\74HC\\74hc161 1968 720 R0
SYMATTR InstName U7
SYMBOL Digital\\74HC\\74hc10 2384 1120 R0
SYMATTR InstName U8
SYMBOL bv 2032 128 R0
SYMATTR InstName B2
SYMATTR Value V=(V(line0)+2*V(line1)+4*V(line2))/5
SYMBOL Digital\\74HC\\74hc161 128 608 R0
SYMATTR InstName U9
SYMBOL Digital\\74HC\\74hc02 2240 1280 R0
SYMATTR InstName U10
SYMBOL Digital\\74HC\\74hc161 128 1088 R0
SYMATTR InstName U11
SYMBOL Digital\\74HC\\74hc273 1328 656 R0
SYMATTR InstName U12
SYMBOL bv 2032 272 R0
SYMATTR InstName B3
SYMATTR Value V=(V(pos0)+2*V(pos1)+4*V(pos2))/5
SYMBOL bv 2032 400 R0
SYMATTR InstName B4
SYMATTR Value V=(V(field0)+2*V(field1)+4*V(field2)+8*V(field3))/5
SYMBOL Digital\\74HC\\74hc10 -240 1168 R0
SYMATTR InstName U13
SYMBOL Digital\\74HC\\74hc02 -128 1200 R0
SYMATTR InstName U14
SYMBOL Digital\\74HC\\74hc273 1328 1088 R0
SYMATTR InstName U15
SYMBOL Digital\\74HC\\74hc14 1312 -112 R0
SYMATTR InstName U17
SYMBOL Digital\\74HC\\74hc109 1744 176 R0
SYMATTR InstName U18
SYMBOL voltage 1344 368 R0
WINDOW 123 0 0 Left 2
WINDOW 39 0 0 Left 2
SYMATTR InstName V5
SYMATTR Value PULSE(0 5 {30.25/freq} 25n 25n 20u 500u)
SYMBOL Digital\\74HC\\74hc02 1424 160 R0
SYMATTR InstName U19
SYMBOL Digital\\74HC\\74hc02 1536 176 R0
SYMATTR InstName U20
SYMBOL bv 2464 -16 R0
SYMATTR InstName B5
SYMATTR Value V=0.00225*V(dot)+0.016*V(pos)+0.21/5*(V(field0)+2*V(field1)+4*V(field2))
SYMBOL bv 2464 128 R0
SYMATTR InstName B6
SYMATTR Value V=.003*V(line)+0.54/5*V(field2)+0.03375/5*V(field1)
SYMBOL Digital\\74HC\\74hc109 704 608 R0
SYMATTR InstName U22
SYMBOL Digital\\74HC\\74hc109 2592 720 R0
SYMATTR InstName U23
SYMBOL res 992 896 R90
WINDOW 0 0 56 VBottom 2
WINDOW 3 32 56 VTop 2
SYMATTR InstName R1
SYMATTR Value 1k96
SYMBOL cap 1008 1024 R0
SYMATTR InstName C1
SYMATTR Value 33p
SYMBOL Digital\\74HC\\74hc14 1520 -112 R0
SYMATTR InstName U16
SYMBOL Digital\\74HC\\74hc14 1776 -112 R0
SYMATTR InstName U21
SYMBOL res 1472 -80 R90
WINDOW 0 0 56 VBottom 2
WINDOW 3 32 56 VTop 2
SYMATTR InstName R2
SYMATTR Value 1k96
SYMBOL cap 1440 -32 R0
SYMATTR InstName C2
SYMATTR Value 47p
SYMBOL res 1696 -80 R90
WINDOW 0 0 56 VBottom 2
WINDOW 3 32 56 VTop 2
SYMATTR InstName R3
SYMATTR Value 1k96
SYMBOL cap 1664 -32 R0
SYMATTR InstName C3
SYMATTR Value 47p
SYMBOL voltage 2112 -240 R0
WINDOW 123 0 0 Left 2
WINDOW 39 0 0 Left 2
SYMATTR InstName V6
SYMATTR Value 15
SYMBOL voltage 2176 -240 R0
WINDOW 123 0 0 Left 2
WINDOW 39 0 0 Left 2
SYMATTR InstName V7
SYMATTR Value -15
SYMBOL res 2224 -448 R0
SYMATTR InstName R4
SYMATTR Value 109k6
SYMBOL res 2400 -624 R90
WINDOW 0 0 56 VBottom 2
WINDOW 3 32 56 VTop 2
SYMATTR InstName R5
SYMATTR Value 2k62
SYMBOL cap 2400 -704 R90
WINDOW 0 0 32 VBottom 2
WINDOW 3 32 32 VTop 2
SYMATTR InstName C4
SYMATTR Value 2p2
SYMBOL res 2320 -112 R0
SYMATTR InstName R6
SYMATTR Value 15k6
SYMBOL res 2800 -320 R90
WINDOW 0 0 56 VBottom 2
WINDOW 3 32 56 VTop 2
SYMATTR InstName R7
SYMATTR Value 2k62
SYMBOL cap 2800 -400 R90
WINDOW 0 0 32 VBottom 2
WINDOW 3 32 32 VTop 2
SYMATTR InstName C5
SYMATTR Value 2p2
SYMBOL res 2624 -160 R0
SYMATTR InstName R8
SYMATTR Value 82k
SYMBOL res 2752 -112 R0
SYMATTR InstName R9
SYMATTR Value 2k
SYMBOL res 2928 -240 R0
SYMATTR InstName R10
SYMATTR Value 10k
SYMBOL Opamps\\NS\\LM7372 2336 -480 R0
SYMATTR InstName U24
SYMBOL Opamps\\NS\\LM7372 2736 -176 R0
SYMATTR InstName U25
SYMBOL res 2960 -384 R90
WINDOW 0 0 56 VBottom 2
WINDOW 3 32 56 VTop 2
SYMATTR InstName R11
SYMATTR Value 1k5
SYMBOL res 3040 -320 R0
SYMATTR InstName R12
SYMATTR Value 75
SYMBOL res 2224 -144 R0
SYMATTR InstName R13
SYMATTR Value 50
SYMBOL cap 2320 -320 R90
WINDOW 0 0 32 VBottom 2
WINDOW 3 32 32 VTop 2
SYMATTR InstName C6
SYMATTR Value 50p
SYMBOL ind 2224 -288 R0
SYMATTR InstName L1
SYMATTR Value 500n
SYMBOL res 2432 -320 R90
WINDOW 0 0 56 VBottom 2
WINDOW 3 32 56 VTop 2
SYMATTR InstName R14
SYMATTR Value 50
TEXT -88 -64 Left 2 ;Master clock and cycle control
TEXT 96 80 Left 2 !.param freq 4Meg
TEXT -104 448 Left 2 ;(Use original synchronous POR)
TEXT -88 -96 Left 2 !.tran 1
TEXT -80 568 Left 2 ;Bus request controller
TEXT 1800 632 Left 2 ;Display driver - runs one cycle after bus req ctrlr
TEXT 1360 496 Left 2 ;1ff sync
TEXT 1136 608 Left 2 ;"latchbus" latches bus data\nuse 74HC[T]273
TEXT 1800 -448 Left 2 !.lib NE5532.sub
TEXT 1784 -480 Left 2 !.lib LM7171.sub
