  0
SECTION
  2
HEADER
  9
$ACADVER
  1
AC1009
  9
$INSBASE
 10
0.0
 20
0.0
 30
0.0
  9
$EXTMIN
 10
0.0
 20
0.0
 30
0.0
  9
$EXTMAX
 10
0.0
 20
0.0
 30
0.0
  0
ENDSEC
  0
SECTION
  2
TABLES
  0
TABLE
  2
VPORT
 70
0
  0
ENDTAB
  0
TABLE
  2
LTYPE
 70
1
  0
LTYPE
  2
CONTINUOUS
 70
0
  3
Solid line
 72
65
 73
0
 40
0.0
  0
ENDTAB
  0
TABLE
  2
LAYER
 70
1
  0
LAYER
  2
0
 70
64
 62
7
  6
continuous
  0
ENDTAB
  0
TABLE
  2
STYLE
 70
1
  0
STYLE
  2
STANDARD
 70
0
 40
0
 41
1.0
 50
0.0
 71
0
 42
1
 3
ARIAL.TTF
 4

  0
ENDTAB
  0
TABLE
  2
VIEW
 70
0
  0
ENDTAB
  0
ENDSEC
  0
SECTION
  2
BLOCKS
  0
BLOCK
  8
0
  2
SKETCH002
 70
0
 10
0.0
 20
0.0
 30
0.0
  3
SKETCH002
  0
LINE
  8
0
 62
7
 10
59.0
 20
-60.999999999999986
 30
0.0
 11
-59.0
 21
-60.999999999999986
 31
0.0
  0
ARC
  8
0
 62
7
 10
-59.00000000000001
 20
-59.999999999999986
 30
0.0
 40
1.0000000000000024
 50
-180.0
 51
-89.99999999999959
  0
LINE
  8
0
 62
7
 10
-60.00000000000001
 20
-59.999999999999986
 30
0.0
 11
-60.00000000000001
 21
87.0000000000001
 31
0.0
  0
ARC
  8
0
 62
7
 10
-59.00000000000001
 20
87.0
 30
0.0
 40
0.9999999999999934
 50
90.0
 51
180.0
  0
LINE
  8
0
 62
7
 10
-59.00000000000001
 20
88.0
 30
0.0
 11
58.99999999999999
 21
88.0
 31
0.0
  0
ARC
  8
0
 62
7
 10
59.0
 20
87.0
 30
0.0
 40
0.9999999999999976
 50
0.0
 51
90.0
  0
LINE
  8
0
 62
7
 10
60.0
 20
87.00000000000011
 30
0.0
 11
60.0
 21
-60.0
 31
0.0
  0
ARC
  8
0
 62
7
 10
59.0
 20
-59.999999999999986
 30
0.0
 40
1.0000000000000027
 50
-90.0
 51
-0.0
  0
LINE
  8
0
 62
7
 10
41.0
 20
-52.49999999999999
 30
0.0
 11
-41.0
 21
-52.49999999999999
 31
0.0
  0
ARC
  8
0
 62
7
 10
-41.0
 20
-47.49999999999999
 30
0.0
 40
4.999999999999997
 50
-180.0
 51
-90.0
  0
LINE
  8
0
 62
7
 10
-46.0
 20
-47.49999999999999
 30
0.0
 11
-46.0
 21
47.50000000000001
 31
0.0
  0
ARC
  8
0
 62
7
 10
-40.99999999999999
 20
47.50000000000001
 30
0.0
 40
5.0000000000000036
 50
90.0
 51
-180.0
  0
LINE
  8
0
 62
7
 10
-40.99999999999999
 20
52.500000000000014
 30
0.0
 11
41.00000000000001
 21
52.500000000000014
 31
0.0
  0
ARC
  8
0
 62
7
 10
41.0
 20
47.50000000000001
 30
0.0
 40
5.000000000000003
 50
-0.0
 51
90.0
  0
LINE
  8
0
 62
7
 10
46.0
 20
47.50000000000001
 30
0.0
 11
46.0
 21
-47.49999999999999
 31
0.0
  0
ARC
  8
0
 62
7
 10
41.0
 20
-47.49999999999999
 30
0.0
 40
5.000000000000003
 50
-89.99999999999993
 51
-0.0
  0
CIRCLE
  8
0
 62
7
 10
-44.0
 20
56.75000000000001
 30
0.0
 40
2.25
  0
CIRCLE
  8
0
 62
7
 10
44.0
 20
56.75000000000001
 30
0.0
 40
2.25
  0
CIRCLE
  8
0
 62
7
 10
44.0
 20
-56.74999999999999
 30
0.0
 40
2.25
  0
CIRCLE
  8
0
 62
7
 10
-44.0
 20
-56.74999999999999
 30
0.0
 40
2.25
  0
CIRCLE
  8
0
 62
7
 10
-32.0
 20
77.0
 30
0.0
 40
3.65
  0
LINE
  8
0
 62
7
 10
-25.85000000000005
 20
75.99999999999991
 30
0.0
 11
-26.150000000000055
 21
75.99999999999991
 31
0.0
  0
ARC
  8
0
 62
7
 10
-26.150000000000055
 20
76.24999999999991
 30
0.0
 40
0.2500000000000001
 50
-180.0
 51
-90.0
  0
LINE
  8
0
 62
7
 10
-26.400000000000055
 20
76.24999999999991
 30
0.0
 11
-26.400000000000055
 21
77.74999999999991
 31
0.0
  0
ARC
  8
0
 62
7
 10
-26.150000000000055
 20
77.74999999999991
 30
0.0
 40
0.2500000000000016
 50
90.0
 51
-180.0
  0
LINE
  8
0
 62
7
 10
-26.150000000000055
 20
77.99999999999991
 30
0.0
 11
-25.850000000000055
 21
77.99999999999991
 31
0.0
  0
ARC
  8
0
 62
7
 10
-25.850000000000055
 20
77.74999999999991
 30
0.0
 40
0.24999999999999944
 50
-0.0
 51
90.0
  0
LINE
  8
0
 62
7
 10
-25.600000000000055
 20
77.74999999999991
 30
0.0
 11
-25.600000000000055
 21
76.24999999999991
 31
0.0
  0
ARC
  8
0
 62
7
 10
-25.85000000000005
 20
76.24999999999991
 30
0.0
 40
0.24999999999999817
 50
-90.0
 51
-0.0
  0
CIRCLE
  8
0
 62
7
 10
-18.0
 20
77.0
 30
0.0
 40
3.65
  0
LINE
  8
0
 62
7
 10
-11.850000000000005
 20
75.99999999999979
 30
0.0
 11
-12.149999999999991
 21
75.99999999999979
 31
0.0
  0
ARC
  8
0
 62
7
 10
-12.149999999999991
 20
76.24999999999979
 30
0.0
 40
0.25000000000000483
 50
-180.0
 51
-90.0
  0
LINE
  8
0
 62
7
 10
-12.399999999999997
 20
76.24999999999979
 30
0.0
 11
-12.399999999999997
 21
77.74999999999979
 31
0.0
  0
ARC
  8
0
 62
7
 10
-12.150000000000002
 20
77.74999999999979
 30
0.0
 40
0.24999999999999448
 50
90.0
 51
-180.0
  0
LINE
  8
0
 62
7
 10
-12.150000000000002
 20
77.99999999999979
 30
0.0
 11
-11.85
 21
77.99999999999979
 31
0.0
  0
ARC
  8
0
 62
7
 10
-11.85
 20
77.74999999999979
 30
0.0
 40
0.25000000000000155
 50
-0.0
 51
90.0
  0
LINE
  8
0
 62
7
 10
-11.599999999999998
 20
77.74999999999979
 30
0.0
 11
-11.599999999999998
 21
76.24999999999979
 31
0.0
  0
ARC
  8
0
 62
7
 10
-11.850000000000005
 20
76.24999999999979
 30
0.0
 40
0.25000000000000705
 50
-90.0
 51
-0.0
  0
CIRCLE
  8
0
 62
7
 10
-3.9999999999999996
 20
77.0
 30
0.0
 40
3.65
  0
LINE
  8
0
 62
7
 10
2.1499999999999986
 20
75.99999999999996
 30
0.0
 11
1.8499999999999936
 21
75.99999999999996
 31
0.0
  0
ARC
  8
0
 62
7
 10
1.8499999999999939
 20
76.24999999999996
 30
0.0
 40
0.24999999999999725
 50
-180.0
 51
-89.99999999999994
  0
LINE
  8
0
 62
7
 10
1.5999999999999965
 20
76.24999999999996
 30
0.0
 11
1.5999999999999965
 21
77.74999999999996
 31
0.0
  0
ARC
  8
0
 62
7
 10
1.8499999999999928
 20
77.74999999999996
 30
0.0
 40
0.2499999999999963
 50
90.0
 51
-180.0
  0
LINE
  8
0
 62
7
 10
1.8499999999999928
 20
77.99999999999996
 30
0.0
 11
2.15
 21
77.99999999999996
 31
0.0
  0
ARC
  8
0
 62
7
 10
2.1499999999999995
 20
77.74999999999996
 30
0.0
 40
0.2499999999999968
 50
-0.0
 51
90.0
  0
LINE
  8
0
 62
7
 10
2.3999999999999964
 20
77.74999999999996
 30
0.0
 11
2.3999999999999964
 21
76.24999999999996
 31
0.0
  0
ARC
  8
0
 62
7
 10
2.1499999999999986
 20
76.24999999999996
 30
0.0
 40
0.2499999999999981
 50
-90.0
 51
-0.0
  0
CIRCLE
  8
0
 62
7
 10
10.0
 20
77.0
 30
0.0
 40
3.65
  0
LINE
  8
0
 62
7
 10
16.149999999999938
 20
76.00000000000014
 30
0.0
 11
15.849999999999948
 21
76.00000000000014
 31
0.0
  0
ARC
  8
0
 62
7
 10
15.849999999999948
 20
76.25000000000014
 30
0.0
 40
0.2500000000000054
 50
-180.0
 51
-90.0
  0
LINE
  8
0
 62
7
 10
15.599999999999943
 20
76.25000000000014
 30
0.0
 11
15.599999999999943
 21
77.75000000000014
 31
0.0
  0
ARC
  8
0
 62
7
 10
15.849999999999937
 20
77.75000000000014
 30
0.0
 40
0.24999999999999384
 50
90.0
 51
-180.0
  0
LINE
  8
0
 62
7
 10
15.849999999999937
 20
78.00000000000014
 30
0.0
 11
16.14999999999994
 21
78.00000000000014
 31
0.0
  0
ARC
  8
0
 62
7
 10
16.14999999999994
 20
77.75000000000014
 30
0.0
 40
0.2499999999999995
 50
-0.0
 51
90.0
  0
LINE
  8
0
 62
7
 10
16.39999999999994
 20
77.75000000000014
 30
0.0
 11
16.39999999999994
 21
76.25000000000014
 31
0.0
  0
ARC
  8
0
 62
7
 10
16.149999999999938
 20
76.25000000000014
 30
0.0
 40
0.25000000000000394
 50
-90.0
 51
-0.0
  0
CIRCLE
  8
0
 62
7
 10
24.75
 20
71.58
 30
0.0
 40
3.265
  0
CIRCLE
  8
0
 62
7
 10
24.75
 20
82.5
 30
0.0
 40
3.265
  0
CIRCLE
  8
0
 62
7
 10
45.25
 20
71.53999999999999
 30
0.0
 40
3.175
  0
CIRCLE
  8
0
 62
7
 10
39.15
 20
71.53999999999999
 30
0.0
 40
1.19
  0
CIRCLE
  8
0
 62
7
 10
-55.00000000000001
 20
-23.999999999999986
 30
0.0
 40
2.25
  0
CIRCLE
  8
0
 62
7
 10
-55.00000000000001
 20
64.0
 30
0.0
 40
2.25
  0
CIRCLE
  8
0
 62
7
 10
55.0
 20
-23.999999999999986
 30
0.0
 40
2.25
  0
CIRCLE
  8
0
 62
7
 10
55.0
 20
64.0
 30
0.0
 40
2.25
  0
CIRCLE
  8
0
 62
7
 10
34.05
 20
82.515
 30
0.0
 40
2.0
  0
LINE
  8
0
 62
7
 10
33.00000000000003
 20
68.78999999999999
 30
0.0
 11
33.00000000000003
 21
74.28999999999999
 31
0.0
  0
LINE
  8
0
 62
7
 10
33.00000000000003
 20
74.28999999999999
 30
0.0
 11
35.50000000000003
 21
74.28999999999999
 31
0.0
  0
LINE
  8
0
 62
7
 10
35.50000000000003
 20
74.28999999999999
 30
0.0
 11
35.50000000000003
 21
68.78999999999999
 31
0.0
  0
LINE
  8
0
 62
7
 10
35.50000000000003
 20
68.78999999999999
 30
0.0
 11
33.00000000000003
 21
68.78999999999999
 31
0.0
  0
ENDBLK
  0
ENDSEC
  0
SECTION
  2
ENTITIES
  0
INSERT
  2
SKETCH002
  8
0
 62
7
 10
0.0
 20
0.0
 30
0.0
  0
ENDSEC
  0
EOF
