  0
SECTION
  2
HEADER
  9
$ACADVER
  1
AC1009
  9
$INSBASE
 10
0.0
 20
0.0
 30
0.0
  9
$EXTMIN
 10
0.0
 20
0.0
 30
0.0
  9
$EXTMAX
 10
0.0
 20
0.0
 30
0.0
  0
ENDSEC
  0
SECTION
  2
TABLES
  0
TABLE
  2
VPORT
 70
0
  0
ENDTAB
  0
TABLE
  2
LTYPE
 70
1
  0
LTYPE
  2
CONTINUOUS
 70
0
  3
Solid line
 72
65
 73
0
 40
0.0
  0
ENDTAB
  0
TABLE
  2
LAYER
 70
1
  0
LAYER
  2
0
 70
64
 62
7
  6
continuous
  0
ENDTAB
  0
TABLE
  2
STYLE
 70
1
  0
STYLE
  2
STANDARD
 70
0
 40
0
 41
1.0
 50
0.0
 71
0
 42
1
 3
ARIAL.TTF
 4

  0
ENDTAB
  0
TABLE
  2
VIEW
 70
0
  0
ENDTAB
  0
ENDSEC
  0
SECTION
  2
BLOCKS
  0
BLOCK
  8
0
  2
SKETCH
 70
0
 10
0.0
 20
0.0
 30
0.0
  3
SKETCH
  0
LINE
  8
0
 62
7
 10
59.0
 20
-60.999999999999986
 30
0.0
 11
-59.0
 21
-60.999999999999986
 31
0.0
  0
ARC
  8
0
 62
7
 10
-59.0
 20
-59.999999999999986
 30
0.0
 40
1.0000000000000016
 50
-180.0
 51
-90.0
  0
LINE
  8
0
 62
7
 10
-60.0
 20
-59.999999999999986
 30
0.0
 11
-60.0
 21
87.00000000000001
 31
0.0
  0
ARC
  8
0
 62
7
 10
-59.0
 20
87.00000000000001
 30
0.0
 40
0.9999999999999972
 50
90.0
 51
-180.0
  0
LINE
  8
0
 62
7
 10
-59.0
 20
88.00000000000001
 30
0.0
 11
59.0
 21
88.00000000000001
 31
0.0
  0
ARC
  8
0
 62
7
 10
59.00000000000001
 20
87.00000000000001
 30
0.0
 40
0.9999999999999938
 50
-0.0
 51
90.0
  0
LINE
  8
0
 62
7
 10
60.0
 20
87.00000000000001
 30
0.0
 11
60.0
 21
-59.999999999999986
 31
0.0
  0
ARC
  8
0
 62
7
 10
59.0
 20
-59.999999999999986
 30
0.0
 40
0.9999999999999968
 50
-90.0
 51
-0.0
  0
LINE
  8
0
 62
7
 10
41.00000000000001
 20
-52.49999999999999
 30
0.0
 11
-40.99999999999999
 21
-52.49999999999999
 31
0.0
  0
ARC
  8
0
 62
7
 10
-40.99999999999999
 20
-47.49999999999999
 30
0.0
 40
4.999999999999999
 50
180.0
 51
-90.0
  0
LINE
  8
0
 62
7
 10
-45.99999999999999
 20
-47.499999999999986
 30
0.0
 11
-45.99999999999999
 21
47.500000000000014
 31
0.0
  0
ARC
  8
0
 62
7
 10
-40.99999999999999
 20
47.50000000000001
 30
0.0
 40
5.000000000000003
 50
89.99999999999993
 51
-180.0
  0
LINE
  8
0
 62
7
 10
-40.999999999999986
 20
52.50000000000001
 30
0.0
 11
41.000000000000014
 21
52.50000000000001
 31
0.0
  0
ARC
  8
0
 62
7
 10
41.00000000000001
 20
47.50000000000001
 30
0.0
 40
5.000000000000001
 50
-0.0
 51
90.0
  0
LINE
  8
0
 62
7
 10
46.00000000000001
 20
47.50000000000001
 30
0.0
 11
46.00000000000001
 21
-47.49999999999999
 31
0.0
  0
ARC
  8
0
 62
7
 10
41.00000000000001
 20
-47.49999999999999
 30
0.0
 40
5.000000000000002
 50
-90.0
 51
-0.0
  0
CIRCLE
  8
0
 62
7
 10
-51.0
 20
-48.0
 30
0.0
 40
2.25
  0
CIRCLE
  8
0
 62
7
 10
-51.0
 20
48.0
 30
0.0
 40
2.25
  0
CIRCLE
  8
0
 62
7
 10
51.0
 20
-48.0
 30
0.0
 40
2.25
  0
CIRCLE
  8
0
 62
7
 10
51.0
 20
48.0
 30
0.0
 40
2.25
  0
CIRCLE
  8
0
 62
7
 10
-44.0
 20
56.75000000000001
 30
0.0
 40
2.25
  0
CIRCLE
  8
0
 62
7
 10
44.0
 20
56.75000000000001
 30
0.0
 40
2.25
  0
CIRCLE
  8
0
 62
7
 10
44.0
 20
-56.74999999999999
 30
0.0
 40
2.25
  0
CIRCLE
  8
0
 62
7
 10
-44.0
 20
-56.74999999999999
 30
0.0
 40
2.25
  0
CIRCLE
  8
0
 62
7
 10
-33.5
 20
64.0
 30
0.0
 40
1.6
  0
CIRCLE
  8
0
 62
7
 10
4.500000000000001
 20
64.040672
 30
0.0
 40
1.6
  0
CIRCLE
  8
0
 62
7
 10
33.5
 20
64.040672
 30
0.0
 40
1.6
  0
LINE
  8
0
 62
7
 10
-29.75
 20
68.0
 30
0.0
 11
-29.75
 21
60.0
 31
0.0
  0
ARC
  8
0
 62
7
 10
-28.25
 20
60.0
 30
0.0
 40
1.4999999999999993
 50
-180.0
 51
-90.0
  0
LINE
  8
0
 62
7
 10
-28.25
 20
58.5
 30
0.0
 11
-1.25
 21
58.5
 31
0.0
  0
ARC
  8
0
 62
7
 10
-1.249999999999999
 20
60.0
 30
0.0
 40
1.4999999999999973
 50
-90.00000000000001
 51
-0.0
  0
LINE
  8
0
 62
7
 10
0.24999999999999845
 20
60.0
 30
0.0
 11
0.24999999999999845
 21
68.0
 31
0.0
  0
ARC
  8
0
 62
7
 10
-1.2500000000000056
 20
68.0
 30
0.0
 40
1.500000000000004
 50
-0.0
 51
89.99999999999999
  0
LINE
  8
0
 62
7
 10
-1.250000000000005
 20
69.5
 30
0.0
 11
-28.249999999999993
 21
69.5
 31
0.0
  0
ARC
  8
0
 62
7
 10
-28.249999999999993
 20
68.0
 30
0.0
 40
1.5000000000000069
 50
90.0
 51
-180.0
  0
CIRCLE
  8
0
 62
7
 10
-55.0
 20
-23.999999999999982
 30
0.0
 40
2.25
  0
CIRCLE
  8
0
 62
7
 10
-55.0
 20
64.00000000000001
 30
0.0
 40
2.25
  0
CIRCLE
  8
0
 62
7
 10
55.0
 20
-23.999999999999986
 30
0.0
 40
2.25
  0
CIRCLE
  8
0
 62
7
 10
55.0
 20
64.00000000000001
 30
0.0
 40
2.25
  0
ENDBLK
  0
ENDSEC
  0
SECTION
  2
ENTITIES
  0
INSERT
  2
SKETCH
  8
0
 62
7
 10
0.0
 20
0.0
 30
0.0
  0
ENDSEC
  0
EOF
