  0
SECTION
  2
HEADER
  9
$ACADVER
  1
AC1009
  9
$INSBASE
 10
0.0
 20
0.0
 30
0.0
  9
$EXTMIN
 10
0.0
 20
0.0
 30
0.0
  9
$EXTMAX
 10
0.0
 20
0.0
 30
0.0
  0
ENDSEC
  0
SECTION
  2
TABLES
  0
TABLE
  2
VPORT
 70
0
  0
ENDTAB
  0
TABLE
  2
LTYPE
 70
1
  0
LTYPE
  2
CONTINUOUS
 70
0
  3
Solid line
 72
65
 73
0
 40
0.0
  0
ENDTAB
  0
TABLE
  2
LAYER
 70
1
  0
LAYER
  2
0
 70
64
 62
7
  6
continuous
  0
ENDTAB
  0
TABLE
  2
STYLE
 70
1
  0
STYLE
  2
STANDARD
 70
0
 40
0
 41
1.0
 50
0.0
 71
0
 42
1
 3
ARIAL.TTF
 4

  0
ENDTAB
  0
TABLE
  2
VIEW
 70
0
  0
ENDTAB
  0
ENDSEC
  0
SECTION
  2
BLOCKS
  0
BLOCK
  8
0
  2
SKETCH008
 70
0
 10
0.0
 20
0.0
 30
0.0
  3
SKETCH008
  0
LINE
  8
0
 62
7
 10
60.00000010863768
 20
-59.0
 30
0.0
 11
60.00000010863768
 21
-46.5
 31
0.0
  0
ARC
  8
0
 62
7
 10
59.00000010863768
 20
-59.0
 30
0.0
 40
0.9999999999999972
 50
-90.0
 51
-0.0
  0
LINE
  8
0
 62
7
 10
59.00000010863768
 20
-60.0
 30
0.0
 11
-58.99999989136232
 21
-60.0
 31
0.0
  0
ARC
  8
0
 62
7
 10
-58.99999989136233
 20
-59.0
 30
0.0
 40
0.999999999999998
 50
-180.0
 51
-90.0
  0
LINE
  8
0
 62
7
 10
-59.99999989136233
 20
-10.500000000000002
 30
0.0
 11
-59.99999989136233
 21
-59.0
 31
0.0
  0
LINE
  8
0
 62
7
 10
-42.99999989136233
 20
-10.500000000000002
 30
0.0
 11
-59.99999989136233
 21
-10.500000000000002
 31
0.0
  0
LINE
  8
0
 62
7
 10
-42.99999989136233
 20
-8.500000000000002
 30
0.0
 11
-42.99999989136233
 21
-10.500000000000002
 31
0.0
  0
LINE
  8
0
 62
7
 10
-56.199999891362324
 20
-8.500000000000002
 30
0.0
 11
-42.99999989136233
 21
-8.500000000000002
 31
0.0
  0
LINE
  8
0
 62
7
 10
-56.199999891362324
 20
-1.5000000000000018
 30
0.0
 11
-56.199999891362324
 21
-8.500000000000002
 31
0.0
  0
LINE
  8
0
 62
7
 10
-42.99999989136233
 20
-1.5000000000000018
 30
0.0
 11
-56.199999891362324
 21
-1.5000000000000018
 31
0.0
  0
LINE
  8
0
 62
7
 10
-42.99999989136233
 20
0.5
 30
0.0
 11
-42.99999989136233
 21
-1.5000000000000022
 31
0.0
  0
LINE
  8
0
 62
7
 10
-59.99999989136233
 20
0.5
 30
0.0
 11
-42.99999989136233
 21
0.5
 31
0.0
  0
LINE
  8
0
 62
7
 10
-59.99999989136233
 20
35.5
 30
0.0
 11
-59.99999989136233
 21
0.5
 31
0.0
  0
LINE
  8
0
 62
7
 10
-42.99999989136233
 20
35.5
 30
0.0
 11
-59.99999989136233
 21
35.5
 31
0.0
  0
LINE
  8
0
 62
7
 10
-42.99999989136233
 20
37.5
 30
0.0
 11
-42.99999989136233
 21
35.5
 31
0.0
  0
LINE
  8
0
 62
7
 10
-56.199999891362324
 20
37.5
 30
0.0
 11
-42.99999989136233
 21
37.5
 31
0.0
  0
LINE
  8
0
 62
7
 10
-56.199999891362324
 20
44.5
 30
0.0
 11
-56.199999891362324
 21
37.5
 31
0.0
  0
LINE
  8
0
 62
7
 10
-42.99999989136233
 20
44.5
 30
0.0
 11
-56.199999891362324
 21
44.5
 31
0.0
  0
LINE
  8
0
 62
7
 10
-42.99999989136233
 20
46.5
 30
0.0
 11
-42.99999989136233
 21
44.5
 31
0.0
  0
LINE
  8
0
 62
7
 10
-49.32294901687516
 20
46.5
 30
0.0
 11
-42.99999989136233
 21
46.5
 31
0.0
  0
ARC
  8
0
 62
7
 10
-51.0
 20
48.0
 30
0.0
 40
2.25
 50
-41.81031489577859
 51
-138.1896851042214
  0
LINE
  8
0
 62
7
 10
-59.99999989136233
 20
46.5
 30
0.0
 11
-52.67705098312484
 21
46.5
 31
0.0
  0
LINE
  8
0
 62
7
 10
-60.00000010863768
 20
58.99999998261797
 30
0.0
 11
-59.99999989136233
 21
46.5
 31
0.0
  0
ARC
  8
0
 62
7
 10
-59.00000010863768
 20
59.0
 30
0.0
 40
0.9999999999999993
 50
90.0
 51
-180.0
  0
LINE
  8
0
 62
7
 10
-59.00000010863768
 20
60.0
 30
0.0
 11
58.99934068613719
 21
60.0
 31
0.0
  0
ARC
  8
0
 62
7
 10
58.99999989136233
 20
59.0
 30
0.0
 40
1.0000002172753522
 50
-0.0
 51
90.03776967176259
  0
LINE
  8
0
 62
7
 10
60.00000010863768
 20
10.500000083173134
 30
0.0
 11
60.00000010863768
 21
59.0
 31
0.0
  0
LINE
  8
0
 62
7
 10
43.00000010863768
 20
10.500000083173134
 30
0.0
 11
60.00000010863768
 21
10.500000083173134
 31
0.0
  0
LINE
  8
0
 62
7
 10
43.00000010863768
 20
8.500000083173134
 30
0.0
 11
43.00000010863768
 21
10.500000083173134
 31
0.0
  0
LINE
  8
0
 62
7
 10
56.20000010863768
 20
8.50000001859164
 30
0.0
 11
43.00000010863768
 21
8.500000083173134
 31
0.0
  0
LINE
  8
0
 62
7
 10
56.20000010863768
 20
1.500000018591641
 30
0.0
 11
56.20000010863768
 21
8.50000001859164
 31
0.0
  0
LINE
  8
0
 62
7
 10
43.00000010863768
 20
1.5000000831731346
 30
0.0
 11
56.20000010863768
 21
1.500000018591641
 31
0.0
  0
LINE
  8
0
 62
7
 10
43.00000010863768
 20
-0.49999991682686545
 30
0.0
 11
43.00000010863768
 21
1.5000000831731346
 31
0.0
  0
LINE
  8
0
 62
7
 10
60.00000010863768
 20
-0.5
 30
0.0
 11
43.00000010863768
 21
-0.4999999168268654
 31
0.0
  0
LINE
  8
0
 62
7
 10
60.00000010863768
 20
-35.50000001859165
 30
0.0
 11
60.00000010863768
 21
-0.5
 31
0.0
  0
LINE
  8
0
 62
7
 10
43.00000010863768
 20
-35.499999935418515
 30
0.0
 11
60.00000010863768
 21
-35.50000001859165
 31
0.0
  0
LINE
  8
0
 62
7
 10
43.00000010863768
 20
-37.499999935418515
 30
0.0
 11
43.00000010863768
 21
-35.499999935418515
 31
0.0
  0
LINE
  8
0
 62
7
 10
56.20000010863768
 20
-37.50000000000001
 30
0.0
 11
43.00000010863768
 21
-37.499999935418515
 31
0.0
  0
LINE
  8
0
 62
7
 10
56.20000010863768
 20
-44.50000000000001
 30
0.0
 11
56.20000010863768
 21
-37.50000000000001
 31
0.0
  0
LINE
  8
0
 62
7
 10
43.00000010863768
 20
-44.50000000000001
 30
0.0
 11
56.20000010863768
 21
-44.50000000000001
 31
0.0
  0
LINE
  8
0
 62
7
 10
43.00000010863768
 20
-46.50000000000001
 30
0.0
 11
43.00000010863768
 21
-44.50000000000001
 31
0.0
  0
LINE
  8
0
 62
7
 10
49.32294901687513
 20
-46.50000000000003
 30
0.0
 11
43.00000010863768
 21
-46.50000000000001
 31
0.0
  0
ARC
  8
0
 62
7
 10
51.0
 20
-48.0
 30
0.0
 40
2.25
 50
138.18968510422243
 51
41.8103148957787
  0
LINE
  8
0
 62
7
 10
60.00000010863768
 20
-46.5
 30
0.0
 11
52.677050983124836
 21
-46.5
 31
0.0
  0
CIRCLE
  8
0
 62
7
 10
0.0
 20
0.0
 30
0.0
 40
32.0
  0
CIRCLE
  8
0
 62
7
 10
-51.0
 20
-48.0
 30
0.0
 40
2.25
  0
CIRCLE
  8
0
 62
7
 10
51.0
 20
48.0
 30
0.0
 40
2.25
  0
CIRCLE
  8
0
 62
7
 10
53.2000001086377
 20
-41.00000000000001
 30
0.0
 40
1.6
  0
CIRCLE
  8
0
 62
7
 10
53.20000010863768
 20
5.000000033269252
 30
0.0
 40
1.6
  0
CIRCLE
  8
0
 62
7
 10
-53.199999891362324
 20
-5.000000000000002
 30
0.0
 40
1.6
  0
CIRCLE
  8
0
 62
7
 10
-53.199999891362324
 20
41.0
 30
0.0
 40
1.6
  0
ENDBLK
  0
ENDSEC
  0
SECTION
  2
ENTITIES
  0
INSERT
  2
SKETCH008
  8
0
 62
7
 10
0.0
 20
0.0
 30
0.0
  0
ENDSEC
  0
EOF
