  0
SECTION
  2
HEADER
  9
$ACADVER
  1
AC1009
  9
$INSBASE
 10
0.0
 20
0.0
 30
0.0
  9
$EXTMIN
 10
0.0
 20
0.0
 30
0.0
  9
$EXTMAX
 10
0.0
 20
0.0
 30
0.0
  0
ENDSEC
  0
SECTION
  2
TABLES
  0
TABLE
  2
VPORT
 70
0
  0
ENDTAB
  0
TABLE
  2
LTYPE
 70
1
  0
LTYPE
  2
CONTINUOUS
 70
0
  3
Solid line
 72
65
 73
0
 40
0.0
  0
ENDTAB
  0
TABLE
  2
LAYER
 70
1
  0
LAYER
  2
0
 70
64
 62
7
  6
continuous
  0
ENDTAB
  0
TABLE
  2
STYLE
 70
1
  0
STYLE
  2
STANDARD
 70
0
 40
0
 41
1.0
 50
0.0
 71
0
 42
1
 3
ARIAL.TTF
 4

  0
ENDTAB
  0
TABLE
  2
VIEW
 70
0
  0
ENDTAB
  0
ENDSEC
  0
SECTION
  2
BLOCKS
  0
BLOCK
  8
0
  2
SKETCH015
 70
0
 10
0.0
 20
0.0
 30
0.0
  3
SKETCH015
  0
ARC
  8
0
 62
7
 10
-44.0
 20
-56.75
 30
0.0
 40
4.5
 50
-29.999999999999993
 51
131.8103148957786
  0
LINE
  8
0
 62
7
 10
-47.0
 20
-53.39589803375031
 30
0.0
 11
-47.0
 21
53.39589803375031
 31
0.0
  0
ARC
  8
0
 62
7
 10
-44.0
 20
56.75
 30
0.0
 40
4.5
 50
-131.8103148957786
 51
29.999999999999993
  0
LINE
  8
0
 62
7
 10
-40.102885682970026
 20
59.0
 30
0.0
 11
40.102885682970026
 21
59.0
 31
0.0
  0
ARC
  8
0
 62
7
 10
44.0
 20
56.75
 30
0.0
 40
4.5
 50
150.0
 51
-48.18968510422142
  0
LINE
  8
0
 62
7
 10
47.0
 20
53.39589803375031
 30
0.0
 11
47.0
 21
-53.39589803375031
 31
0.0
  0
ARC
  8
0
 62
7
 10
44.0
 20
-56.75
 30
0.0
 40
4.5
 50
48.18968510422142
 51
-150.0
  0
LINE
  8
0
 62
7
 10
40.102885682970026
 20
-59.0
 30
0.0
 11
-40.102885682970026
 21
-59.0
 31
0.0
  0
ENDBLK
  0
ENDSEC
  0
SECTION
  2
ENTITIES
  0
INSERT
  2
SKETCH015
  8
0
 62
7
 10
0.0
 20
0.0
 30
0.0
  0
ENDSEC
  0
EOF
