solid OpenSCAD_Model
  facet normal 0.661166 0.0694886 0.747014
    outer loop
      vertex 48.25 4.37532 92.2911
      vertex 40 0 100
      vertex 48.25 0 92.6981
    endloop
  endfacet
  facet normal 0.138239 0.650283 0.747009
    outer loop
      vertex 13.6466 42 96.3168
      vertex 11.6672 42 96.6831
      vertex 12.3607 38.0423 100
    endloop
  endfacet
  facet normal 0.390758 -0.537846 0.747014
    outer loop
      vertex 31.7489 -42 88.5558
      vertex 20 -34.641 100
      vertex 24.2487 -42 92.4791
    endloop
  endfacet
  facet normal -0.138221 -0.650281 0.747014
    outer loop
      vertex -4.18114 -39.7809 100
      vertex -11.6672 -42 96.6831
      vertex -4.41438 -42 98.0251
    endloop
  endfacet
  facet normal -0.13822 -0.650282 0.747013
    outer loop
      vertex -11.6672 -42 96.6831
      vertex -4.18114 -39.7809 100
      vertex -12.3607 -38.0423 100
    endloop
  endfacet
  facet normal -0.138239 0.650283 0.747009
    outer loop
      vertex -11.6672 42 96.6831
      vertex -13.6466 42 96.3168
      vertex -12.3607 38.0423 100
    endloop
  endfacet
  facet normal 0.390773 0.537835 0.747014
    outer loop
      vertex 31.7489 42 88.5558
      vertex 26.7652 29.7258 100
      vertex 37.817 42 85.3815
    endloop
  endfacet
  facet normal 0.390763 0.53784 0.747016
    outer loop
      vertex 26.7652 29.7258 100
      vertex 31.7489 42 88.5558
      vertex 20 34.641 100
    endloop
  endfacet
  facet normal -0.27038 -0.607348 0.747009
    outer loop
      vertex -12.3607 -38.0423 100
      vertex -16.4503 -42 95.302
      vertex -13.6466 -42 96.3168
    endloop
  endfacet
  facet normal -0.632268 0.205437 0.747016
    outer loop
      vertex -48.25 15.4633 90.312
      vertex -39.1259 8.31647 100
      vertex -36.5418 16.2695 100
    endloop
  endfacet
  facet normal -0.632266 0.205439 0.747017
    outer loop
      vertex -39.1259 8.31647 100
      vertex -48.25 15.4633 90.312
      vertex -48.25 10.2559 91.7441
    endloop
  endfacet
  facet normal -0.575739 0.332406 0.747014
    outer loop
      vertex -48.25 35.0557 82.6168
      vertex -48.25 25.7618 86.7524
      vertex -32.3607 23.5114 100
    endloop
  endfacet
  facet normal 0.661166 -0.0694886 0.747014
    outer loop
      vertex 48.25 0 92.6981
      vertex 40 0 100
      vertex 48.25 -4.37532 92.2911
    endloop
  endfacet
  facet normal -0.390765 -0.537841 0.747014
    outer loop
      vertex -26.7652 -29.7258 100
      vertex -37.817 -42 85.3815
      vertex -29.8394 -42 89.5546
    endloop
  endfacet
  facet normal -0.27038 0.607348 0.747009
    outer loop
      vertex -13.6466 42 96.3168
      vertex -16.4503 42 95.302
      vertex -12.3607 38.0423 100
    endloop
  endfacet
  facet normal 0.494046 0.444844 0.747015
    outer loop
      vertex 41.4026 42 83.0101
      vertex 48.25 35.0557 82.6168
      vertex 48.25 42 78.4815
    endloop
  endfacet
  facet normal 0.494047 0.444845 0.747014
    outer loop
      vertex 48.25 35.0557 82.6168
      vertex 41.4026 42 83.0101
      vertex 32.3607 23.5114 100
    endloop
  endfacet
  facet normal 0.494046 -0.444844 0.747015
    outer loop
      vertex 48.25 -35.0557 82.6168
      vertex 41.4026 -42 83.0101
      vertex 48.25 -42 78.4815
    endloop
  endfacet
  facet normal 0.494047 -0.444845 0.747014
    outer loop
      vertex 41.4026 -42 83.0101
      vertex 48.25 -35.0557 82.6168
      vertex 32.3607 -23.5114 100
    endloop
  endfacet
  facet normal 0.632268 0.205439 0.747016
    outer loop
      vertex 48.25 21.4823 88.6567
      vertex 36.5418 16.2695 100
      vertex 48.25 15.4633 90.312
    endloop
  endfacet
  facet normal 0.138221 0.650281 0.747014
    outer loop
      vertex 4.18114 39.7809 100
      vertex 11.6672 42 96.6831
      vertex 4.41438 42 98.0251
    endloop
  endfacet
  facet normal 0.13822 0.650282 0.747013
    outer loop
      vertex 11.6672 42 96.6831
      vertex 4.18114 39.7809 100
      vertex 12.3607 38.0423 100
    endloop
  endfacet
  facet normal 0.390773 -0.537835 0.747014
    outer loop
      vertex 26.7652 -29.7258 100
      vertex 31.7489 -42 88.5558
      vertex 37.817 -42 85.3815
    endloop
  endfacet
  facet normal 0.390763 -0.53784 0.747016
    outer loop
      vertex 31.7489 -42 88.5558
      vertex 26.7652 -29.7258 100
      vertex 20 -34.641 100
    endloop
  endfacet
  facet normal 0.270406 0.607331 0.747014
    outer loop
      vertex 20.2648 42 93.9212
      vertex 20 34.641 100
      vertex 24.2487 42 92.4791
    endloop
  endfacet
  facet normal -0.494046 0.444844 0.747015
    outer loop
      vertex -48.25 35.0557 82.6168
      vertex -41.4026 42 83.0101
      vertex -48.25 42 78.4815
    endloop
  endfacet
  facet normal -0.494047 0.444845 0.747014
    outer loop
      vertex -41.4026 42 83.0101
      vertex -48.25 35.0557 82.6168
      vertex -32.3607 23.5114 100
    endloop
  endfacet
  facet normal -0.390765 0.537841 0.747014
    outer loop
      vertex -29.8394 42 89.5546
      vertex -37.817 42 85.3815
      vertex -26.7652 29.7258 100
    endloop
  endfacet
  facet normal -0.661164 -0.0694885 0.747017
    outer loop
      vertex -48.25 -5.71071 92.1669
      vertex -48.25 -10.2559 91.7441
      vertex -39.1259 -8.31647 100
    endloop
  endfacet
  facet normal -0.661167 -0.0694859 0.747014
    outer loop
      vertex -48.25 -5.71071 92.1669
      vertex -40 0 100
      vertex -48.25 0 92.6981
    endloop
  endfacet
  facet normal -0.661164 -0.0694915 0.747016
    outer loop
      vertex -40 0 100
      vertex -48.25 -5.71071 92.1669
      vertex -39.1259 -8.31647 100
    endloop
  endfacet
  facet normal 0.575739 0.332406 0.747014
    outer loop
      vertex 48.25 35.0557 82.6168
      vertex 32.3607 23.5114 100
      vertex 48.25 25.7618 86.7524
    endloop
  endfacet
  facet normal 0.49405 0.444843 0.747013
    outer loop
      vertex 37.817 42 85.3815
      vertex 32.3607 23.5114 100
      vertex 41.4026 42 83.0101
    endloop
  endfacet
  facet normal 0.494048 0.444845 0.747014
    outer loop
      vertex 32.3607 23.5114 100
      vertex 37.817 42 85.3815
      vertex 26.7652 29.7258 100
    endloop
  endfacet
  facet normal 0.270406 -0.607331 0.747014
    outer loop
      vertex 12.3607 -38.0423 100
      vertex 20.2648 -42 93.9212
      vertex 20 -34.641 100
    endloop
  endfacet
  facet normal 0.270396 -0.607342 0.747008
    outer loop
      vertex 20.2648 -42 93.9212
      vertex 12.3607 -38.0423 100
      vertex 13.6466 -42 96.3168
    endloop
  endfacet
  facet normal -0.632268 -0.205439 0.747016
    outer loop
      vertex -48.25 -15.4633 90.312
      vertex -48.25 -21.4823 88.6567
      vertex -36.5418 -16.2695 100
    endloop
  endfacet
  facet normal 0.49405 -0.444843 0.747013
    outer loop
      vertex 32.3607 -23.5114 100
      vertex 37.817 -42 85.3815
      vertex 41.4026 -42 83.0101
    endloop
  endfacet
  facet normal 0.494048 -0.444845 0.747014
    outer loop
      vertex 37.817 -42 85.3815
      vertex 32.3607 -23.5114 100
      vertex 26.7652 -29.7258 100
    endloop
  endfacet
  facet normal -0.390764 0.537842 0.747014
    outer loop
      vertex -24.2487 42 92.4791
      vertex -26.7652 29.7258 100
      vertex -20 34.641 100
    endloop
  endfacet
  facet normal -0.390764 0.537842 0.747014
    outer loop
      vertex -26.7652 29.7258 100
      vertex -24.2487 42 92.4791
      vertex -29.8394 42 89.5546
    endloop
  endfacet
  facet normal -0.494047 -0.444845 0.747014
    outer loop
      vertex -48.25 -35.0557 82.6168
      vertex -41.4026 -42 83.0101
      vertex -32.3607 -23.5114 100
    endloop
  endfacet
  facet normal -0.494046 -0.444844 0.747015
    outer loop
      vertex -41.4026 -42 83.0101
      vertex -48.25 -35.0557 82.6168
      vertex -48.25 -42 78.4815
    endloop
  endfacet
  facet normal -0.138239 -0.650283 0.747009
    outer loop
      vertex -12.3607 -38.0423 100
      vertex -13.6466 -42 96.3168
      vertex -11.6672 -42 96.6831
    endloop
  endfacet
  facet normal 0.270406 -0.607331 0.747014
    outer loop
      vertex 24.2487 -42 92.4791
      vertex 20 -34.641 100
      vertex 20.2648 -42 93.9212
    endloop
  endfacet
  facet normal 0.57574 -0.332402 0.747016
    outer loop
      vertex 32.3607 -23.5114 100
      vertex 48.25 -21.4823 88.6567
      vertex 36.5418 -16.2695 100
    endloop
  endfacet
  facet normal 0.575739 -0.332408 0.747014
    outer loop
      vertex 48.25 -21.4823 88.6567
      vertex 32.3607 -23.5114 100
      vertex 48.25 -25.7618 86.7524
    endloop
  endfacet
  facet normal 0.575739 -0.332406 0.747014
    outer loop
      vertex 48.25 -25.7618 86.7524
      vertex 32.3607 -23.5114 100
      vertex 48.25 -35.0557 82.6168
    endloop
  endfacet
  facet normal 0.632268 -0.205439 0.747016
    outer loop
      vertex 48.25 -15.4633 90.312
      vertex 36.5418 -16.2695 100
      vertex 48.25 -21.4823 88.6567
    endloop
  endfacet
  facet normal -0.270406 0.607329 0.747015
    outer loop
      vertex -16.4503 42 95.302
      vertex -20 34.641 100
      vertex -12.3607 38.0423 100
    endloop
  endfacet
  facet normal -0.270408 0.60733 0.747014
    outer loop
      vertex -20 34.641 100
      vertex -16.4503 42 95.302
      vertex -24.2487 42 92.4791
    endloop
  endfacet
  facet normal 0.138239 -0.650283 0.747009
    outer loop
      vertex 12.3607 -38.0423 100
      vertex 11.6672 -42 96.6831
      vertex 13.6466 -42 96.3168
    endloop
  endfacet
  facet normal 0.575739 0.332408 0.747014
    outer loop
      vertex 32.3607 23.5114 100
      vertex 48.25 21.4823 88.6567
      vertex 48.25 25.7618 86.7524
    endloop
  endfacet
  facet normal 0.57574 0.332402 0.747016
    outer loop
      vertex 48.25 21.4823 88.6567
      vertex 32.3607 23.5114 100
      vertex 36.5418 16.2695 100
    endloop
  endfacet
  facet normal -0.661164 0.0694885 0.747017
    outer loop
      vertex -48.25 10.2559 91.7441
      vertex -48.25 5.71071 92.1669
      vertex -39.1259 8.31647 100
    endloop
  endfacet
  facet normal 0 -0.664809 0.747014
    outer loop
      vertex -4.18114 -39.7809 100
      vertex 4.41438 -42 98.0251
      vertex 4.18114 -39.7809 100
    endloop
  endfacet
  facet normal 0 -0.664809 0.747014
    outer loop
      vertex 4.41438 -42 98.0251
      vertex -4.18114 -39.7809 100
      vertex -4.41438 -42 98.0251
    endloop
  endfacet
  facet normal 0.632266 -0.205439 0.747017
    outer loop
      vertex 39.1259 -8.31647 100
      vertex 48.25 -15.4633 90.312
      vertex 48.25 -10.2559 91.7441
    endloop
  endfacet
  facet normal 0.632268 -0.205437 0.747016
    outer loop
      vertex 48.25 -15.4633 90.312
      vertex 39.1259 -8.31647 100
      vertex 36.5418 -16.2695 100
    endloop
  endfacet
  facet normal 0.661165 -0.0694916 0.747015
    outer loop
      vertex 39.1259 -8.31647 100
      vertex 48.25 -4.37532 92.2911
      vertex 40 0 100
    endloop
  endfacet
  facet normal 0.661164 -0.069486 0.747016
    outer loop
      vertex 48.25 -4.37532 92.2911
      vertex 39.1259 -8.31647 100
      vertex 48.25 -10.2559 91.7441
    endloop
  endfacet
  facet normal 0.13822 -0.650282 0.747013
    outer loop
      vertex 4.18114 -39.7809 100
      vertex 11.6672 -42 96.6831
      vertex 12.3607 -38.0423 100
    endloop
  endfacet
  facet normal 0.138221 -0.650281 0.747014
    outer loop
      vertex 11.6672 -42 96.6831
      vertex 4.18114 -39.7809 100
      vertex 4.41438 -42 98.0251
    endloop
  endfacet
  facet normal -0.390764 -0.537842 0.747014
    outer loop
      vertex -26.7652 -29.7258 100
      vertex -24.2487 -42 92.4791
      vertex -20 -34.641 100
    endloop
  endfacet
  facet normal -0.390764 -0.537842 0.747014
    outer loop
      vertex -24.2487 -42 92.4791
      vertex -26.7652 -29.7258 100
      vertex -29.8394 -42 89.5546
    endloop
  endfacet
  facet normal -0.138221 0.650281 0.747014
    outer loop
      vertex -11.6672 42 96.6831
      vertex -4.18114 39.7809 100
      vertex -4.41438 42 98.0251
    endloop
  endfacet
  facet normal -0.13822 0.650282 0.747013
    outer loop
      vertex -4.18114 39.7809 100
      vertex -11.6672 42 96.6831
      vertex -12.3607 38.0423 100
    endloop
  endfacet
  facet normal -0.575739 -0.332406 0.747014
    outer loop
      vertex -48.25 -25.7618 86.7524
      vertex -48.25 -35.0557 82.6168
      vertex -32.3607 -23.5114 100
    endloop
  endfacet
  facet normal -0.494048 -0.444845 0.747014
    outer loop
      vertex -32.3607 -23.5114 100
      vertex -37.817 -42 85.3815
      vertex -26.7652 -29.7258 100
    endloop
  endfacet
  facet normal -0.49405 -0.444843 0.747013
    outer loop
      vertex -37.817 -42 85.3815
      vertex -32.3607 -23.5114 100
      vertex -41.4026 -42 83.0101
    endloop
  endfacet
  facet normal -0.494048 0.444845 0.747014
    outer loop
      vertex -37.817 42 85.3815
      vertex -32.3607 23.5114 100
      vertex -26.7652 29.7258 100
    endloop
  endfacet
  facet normal -0.49405 0.444843 0.747013
    outer loop
      vertex -32.3607 23.5114 100
      vertex -37.817 42 85.3815
      vertex -41.4026 42 83.0101
    endloop
  endfacet
  facet normal 0 0.664809 0.747014
    outer loop
      vertex 4.41438 42 98.0251
      vertex -4.18114 39.7809 100
      vertex 4.18114 39.7809 100
    endloop
  endfacet
  facet normal -0 0.664809 0.747014
    outer loop
      vertex -4.41438 42 98.0251
      vertex -4.18114 39.7809 100
      vertex 4.41438 42 98.0251
    endloop
  endfacet
  facet normal 0.270396 0.607342 0.747008
    outer loop
      vertex 12.3607 38.0423 100
      vertex 20.2648 42 93.9212
      vertex 13.6466 42 96.3168
    endloop
  endfacet
  facet normal 0.270406 0.607331 0.747014
    outer loop
      vertex 20.2648 42 93.9212
      vertex 12.3607 38.0423 100
      vertex 20 34.641 100
    endloop
  endfacet
  facet normal -0.57574 -0.332402 0.747016
    outer loop
      vertex -48.25 -21.4823 88.6567
      vertex -32.3607 -23.5114 100
      vertex -36.5418 -16.2695 100
    endloop
  endfacet
  facet normal -0.575739 -0.332408 0.747014
    outer loop
      vertex -32.3607 -23.5114 100
      vertex -48.25 -21.4823 88.6567
      vertex -48.25 -25.7618 86.7524
    endloop
  endfacet
  facet normal -0.632266 -0.205439 0.747017
    outer loop
      vertex -48.25 -15.4633 90.312
      vertex -39.1259 -8.31647 100
      vertex -48.25 -10.2559 91.7441
    endloop
  endfacet
  facet normal -0.632268 -0.205437 0.747016
    outer loop
      vertex -39.1259 -8.31647 100
      vertex -48.25 -15.4633 90.312
      vertex -36.5418 -16.2695 100
    endloop
  endfacet
  facet normal 0.390758 0.537846 0.747014
    outer loop
      vertex 24.2487 42 92.4791
      vertex 20 34.641 100
      vertex 31.7489 42 88.5558
    endloop
  endfacet
  facet normal -0.270406 -0.607329 0.747015
    outer loop
      vertex -20 -34.641 100
      vertex -16.4503 -42 95.302
      vertex -12.3607 -38.0423 100
    endloop
  endfacet
  facet normal -0.270408 -0.60733 0.747014
    outer loop
      vertex -16.4503 -42 95.302
      vertex -20 -34.641 100
      vertex -24.2487 -42 92.4791
    endloop
  endfacet
  facet normal 0.632266 0.205439 0.747017
    outer loop
      vertex 48.25 15.4633 90.312
      vertex 39.1259 8.31647 100
      vertex 48.25 10.2559 91.7441
    endloop
  endfacet
  facet normal 0.632268 0.205437 0.747016
    outer loop
      vertex 39.1259 8.31647 100
      vertex 48.25 15.4633 90.312
      vertex 36.5418 16.2695 100
    endloop
  endfacet
  facet normal -0.575739 0.332408 0.747014
    outer loop
      vertex -48.25 21.4823 88.6567
      vertex -32.3607 23.5114 100
      vertex -48.25 25.7618 86.7524
    endloop
  endfacet
  facet normal -0.57574 0.332402 0.747016
    outer loop
      vertex -32.3607 23.5114 100
      vertex -48.25 21.4823 88.6567
      vertex -36.5418 16.2695 100
    endloop
  endfacet
  facet normal -0.632268 0.205439 0.747016
    outer loop
      vertex -48.25 21.4823 88.6567
      vertex -48.25 15.4633 90.312
      vertex -36.5418 16.2695 100
    endloop
  endfacet
  facet normal -0.661164 0.0694915 0.747016
    outer loop
      vertex -48.25 5.71071 92.1669
      vertex -40 0 100
      vertex -39.1259 8.31647 100
    endloop
  endfacet
  facet normal -0.661167 0.0694859 0.747014
    outer loop
      vertex -40 0 100
      vertex -48.25 5.71071 92.1669
      vertex -48.25 0 92.6981
    endloop
  endfacet
  facet normal 0.661164 0.069486 0.747016
    outer loop
      vertex 39.1259 8.31647 100
      vertex 48.25 4.37532 92.2911
      vertex 48.25 10.2559 91.7441
    endloop
  endfacet
  facet normal 0.661165 0.0694916 0.747015
    outer loop
      vertex 48.25 4.37532 92.2911
      vertex 39.1259 8.31647 100
      vertex 40 0 100
    endloop
  endfacet
  facet normal 1 0 0
    outer loop
      vertex 48.25 35.0557 82.6168
      vertex 48.25 42 0
      vertex 48.25 42 78.4815
    endloop
  endfacet
  facet normal 1 0 0
    outer loop
      vertex 48.25 25.7618 86.7524
      vertex 48.25 42 0
      vertex 48.25 35.0557 82.6168
    endloop
  endfacet
  facet normal 1 0 0
    outer loop
      vertex 48.25 15.4633 90.312
      vertex 48.25 25.7618 86.7524
      vertex 48.25 21.4823 88.6567
    endloop
  endfacet
  facet normal 1 0 0
    outer loop
      vertex 48.25 25.7618 86.7524
      vertex 48.25 15.4633 90.312
      vertex 48.25 42 0
    endloop
  endfacet
  facet normal 1 0 0
    outer loop
      vertex 48.25 4.37532 92.2911
      vertex 48.25 15.4633 90.312
      vertex 48.25 10.2559 91.7441
    endloop
  endfacet
  facet normal 1 0 0
    outer loop
      vertex 48.25 15.4633 90.312
      vertex 48.25 4.37532 92.2911
      vertex 48.25 42 0
    endloop
  endfacet
  facet normal 1 0 0
    outer loop
      vertex 48.25 -4.37532 92.2911
      vertex 48.25 4.37532 92.2911
      vertex 48.25 0 92.6981
    endloop
  endfacet
  facet normal 1 0 0
    outer loop
      vertex 48.25 4.37532 92.2911
      vertex 48.25 -4.37532 92.2911
      vertex 48.25 42 0
    endloop
  endfacet
  facet normal 1 0 0
    outer loop
      vertex 48.25 -15.4633 90.312
      vertex 48.25 -4.37532 92.2911
      vertex 48.25 -10.2559 91.7441
    endloop
  endfacet
  facet normal 1 0 0
    outer loop
      vertex 48.25 -4.37532 92.2911
      vertex 48.25 -15.4633 90.312
      vertex 48.25 42 0
    endloop
  endfacet
  facet normal 1 0 0
    outer loop
      vertex 48.25 -25.7618 86.7524
      vertex 48.25 -15.4633 90.312
      vertex 48.25 -21.4823 88.6567
    endloop
  endfacet
  facet normal 1 0 0
    outer loop
      vertex 48.25 -15.4633 90.312
      vertex 48.25 -25.7618 86.7524
      vertex 48.25 -42 0
    endloop
  endfacet
  facet normal 1 0 0
    outer loop
      vertex 48.25 -42 0
      vertex 48.25 -25.7618 86.7524
      vertex 48.25 -35.0557 82.6168
    endloop
  endfacet
  facet normal 1 0 0
    outer loop
      vertex 48.25 -42 0
      vertex 48.25 -35.0557 82.6168
      vertex 48.25 -42 78.4815
    endloop
  endfacet
  facet normal 1 0 0
    outer loop
      vertex 48.25 -15.4633 90.312
      vertex 48.25 -42 0
      vertex 48.25 42 0
    endloop
  endfacet
  facet normal -1 0 0
    outer loop
      vertex -48.25 3.53553 71.4645
      vertex -48.25 42 78.4815
      vertex -48.25 42 0
    endloop
  endfacet
  facet normal -1 0 -0
    outer loop
      vertex -48.25 4.6194 73.0866
      vertex -48.25 42 78.4815
      vertex -48.25 3.53553 71.4645
    endloop
  endfacet
  facet normal -1 -0 0
    outer loop
      vertex -48.25 42 78.4815
      vertex -48.25 4.6194 73.0866
      vertex -48.25 35.0557 82.6168
    endloop
  endfacet
  facet normal -1 0 -0
    outer loop
      vertex -48.25 5 75
      vertex -48.25 25.7618 86.7524
      vertex -48.25 4.6194 73.0866
    endloop
  endfacet
  facet normal -1 -0 0
    outer loop
      vertex -48.25 25.7618 86.7524
      vertex -48.25 5 75
      vertex -48.25 21.4823 88.6567
    endloop
  endfacet
  facet normal -1 -0 0
    outer loop
      vertex -48.25 21.4823 88.6567
      vertex -48.25 4.6194 76.9134
      vertex -48.25 15.4633 90.312
    endloop
  endfacet
  facet normal -1 0 0
    outer loop
      vertex -48.25 3.53553 78.5355
      vertex -48.25 15.4633 90.312
      vertex -48.25 4.6194 76.9134
    endloop
  endfacet
  facet normal -1 0 0
    outer loop
      vertex -48.25 4.6194 76.9134
      vertex -48.25 21.4823 88.6567
      vertex -48.25 5 75
    endloop
  endfacet
  facet normal -1 -0 0
    outer loop
      vertex -48.25 35.0557 82.6168
      vertex -48.25 4.6194 73.0866
      vertex -48.25 25.7618 86.7524
    endloop
  endfacet
  facet normal -1 0 0
    outer loop
      vertex -48.25 42 0
      vertex -48.25 1.91342 70.3806
      vertex -48.25 3.53553 71.4645
    endloop
  endfacet
  facet normal -1 0 0
    outer loop
      vertex -48.25 42 0
      vertex -48.25 0 70
      vertex -48.25 1.91342 70.3806
    endloop
  endfacet
  facet normal -1 0 0
    outer loop
      vertex -48.25 -42 0
      vertex -48.25 0 70
      vertex -48.25 42 0
    endloop
  endfacet
  facet normal -1 -0 0
    outer loop
      vertex -48.25 0 70
      vertex -48.25 -42 0
      vertex -48.25 -1.91342 70.3806
    endloop
  endfacet
  facet normal -1 -0 0
    outer loop
      vertex -48.25 -1.91342 70.3806
      vertex -48.25 -42 0
      vertex -48.25 -3.53553 71.4645
    endloop
  endfacet
  facet normal -1 0 0
    outer loop
      vertex -48.25 -3.53553 78.5355
      vertex -48.25 -10.2559 91.7441
      vertex -48.25 -5.71071 92.1669
    endloop
  endfacet
  facet normal -1 0 0
    outer loop
      vertex -48.25 -25.7618 86.7524
      vertex -48.25 -5 75
      vertex -48.25 -4.6194 73.0866
    endloop
  endfacet
  facet normal -1 0 0
    outer loop
      vertex -48.25 -4.6194 76.9134
      vertex -48.25 -15.4633 90.312
      vertex -48.25 -10.2559 91.7441
    endloop
  endfacet
  facet normal -1 0 0
    outer loop
      vertex -48.25 -4.6194 76.9134
      vertex -48.25 -21.4823 88.6567
      vertex -48.25 -15.4633 90.312
    endloop
  endfacet
  facet normal -1 0 0
    outer loop
      vertex -48.25 -42 78.4815
      vertex -48.25 -3.53553 71.4645
      vertex -48.25 -42 0
    endloop
  endfacet
  facet normal -1 0 0
    outer loop
      vertex -48.25 -3.53553 71.4645
      vertex -48.25 -42 78.4815
      vertex -48.25 -4.6194 73.0866
    endloop
  endfacet
  facet normal -1 0 0
    outer loop
      vertex -48.25 -5 75
      vertex -48.25 -25.7618 86.7524
      vertex -48.25 -21.4823 88.6567
    endloop
  endfacet
  facet normal -1 0 0
    outer loop
      vertex -48.25 -4.6194 73.0866
      vertex -48.25 -35.0557 82.6168
      vertex -48.25 -25.7618 86.7524
    endloop
  endfacet
  facet normal -1 0 0
    outer loop
      vertex -48.25 -4.6194 73.0866
      vertex -48.25 -42 78.4815
      vertex -48.25 -35.0557 82.6168
    endloop
  endfacet
  facet normal -1 -0 0
    outer loop
      vertex -48.25 15.4633 90.312
      vertex -48.25 3.53553 78.5355
      vertex -48.25 10.2559 91.7441
    endloop
  endfacet
  facet normal -1 -0 0
    outer loop
      vertex -48.25 10.2559 91.7441
      vertex -48.25 3.53553 78.5355
      vertex -48.25 5.71071 92.1669
    endloop
  endfacet
  facet normal -1 0 0
    outer loop
      vertex -48.25 1.91342 79.6194
      vertex -48.25 5.71071 92.1669
      vertex -48.25 3.53553 78.5355
    endloop
  endfacet
  facet normal -1 0 0
    outer loop
      vertex -48.25 0 80
      vertex -48.25 5.71071 92.1669
      vertex -48.25 1.91342 79.6194
    endloop
  endfacet
  facet normal -1 0 0
    outer loop
      vertex -48.25 0 80
      vertex -48.25 0 92.6981
      vertex -48.25 5.71071 92.1669
    endloop
  endfacet
  facet normal -1 0 0
    outer loop
      vertex -48.25 -1.91342 79.6194
      vertex -48.25 0 92.6981
      vertex -48.25 0 80
    endloop
  endfacet
  facet normal -1 0 0
    outer loop
      vertex -48.25 -5.71071 92.1669
      vertex -48.25 -1.91342 79.6194
      vertex -48.25 -3.53553 78.5355
    endloop
  endfacet
  facet normal -1 0 0
    outer loop
      vertex -48.25 -10.2559 91.7441
      vertex -48.25 -3.53553 78.5355
      vertex -48.25 -4.6194 76.9134
    endloop
  endfacet
  facet normal -1 0 0
    outer loop
      vertex -48.25 -1.91342 79.6194
      vertex -48.25 -5.71071 92.1669
      vertex -48.25 0 92.6981
    endloop
  endfacet
  facet normal -1 0 0
    outer loop
      vertex -48.25 -21.4823 88.6567
      vertex -48.25 -4.6194 76.9134
      vertex -48.25 -5 75
    endloop
  endfacet
  facet normal 0 1 0
    outer loop
      vertex 11.6672 42 96.6831
      vertex -4.41438 42 98.0251
      vertex 4.41438 42 98.0251
    endloop
  endfacet
  facet normal 0 1 0
    outer loop
      vertex 11.6672 42 96.6831
      vertex -11.6672 42 96.6831
      vertex -4.41438 42 98.0251
    endloop
  endfacet
  facet normal 0 1 0
    outer loop
      vertex 20.2648 42 93.9212
      vertex 11.6672 42 96.6831
      vertex 13.6466 42 96.3168
    endloop
  endfacet
  facet normal 0 1 0
    outer loop
      vertex 11.6672 42 96.6831
      vertex 20.2648 42 93.9212
      vertex -11.6672 42 96.6831
    endloop
  endfacet
  facet normal 0 1 0
    outer loop
      vertex -11.6672 42 96.6831
      vertex -16.4503 42 95.302
      vertex -13.6466 42 96.3168
    endloop
  endfacet
  facet normal 0 1 0
    outer loop
      vertex -11.6672 42 96.6831
      vertex 20.2648 42 93.9212
      vertex -16.4503 42 95.302
    endloop
  endfacet
  facet normal 0 1 0
    outer loop
      vertex 31.7489 42 88.5558
      vertex 20.2648 42 93.9212
      vertex 24.2487 42 92.4791
    endloop
  endfacet
  facet normal 0 1 0
    outer loop
      vertex 20.2648 42 93.9212
      vertex -29.8394 42 89.5546
      vertex -16.4503 42 95.302
    endloop
  endfacet
  facet normal 0 1 0
    outer loop
      vertex -16.4503 42 95.302
      vertex -29.8394 42 89.5546
      vertex -24.2487 42 92.4791
    endloop
  endfacet
  facet normal 0 1 0
    outer loop
      vertex 20.2648 42 93.9212
      vertex 31.7489 42 88.5558
      vertex -29.8394 42 89.5546
    endloop
  endfacet
  facet normal 0 1 0
    outer loop
      vertex 48.25 42 0
      vertex 31.7489 42 88.5558
      vertex 37.817 42 85.3815
    endloop
  endfacet
  facet normal 0 1 0
    outer loop
      vertex 31.7489 42 88.5558
      vertex 48.25 42 0
      vertex -29.8394 42 89.5546
    endloop
  endfacet
  facet normal 0 1 0
    outer loop
      vertex 48.25 42 0
      vertex 37.817 42 85.3815
      vertex 41.4026 42 83.0101
    endloop
  endfacet
  facet normal 0 1 0
    outer loop
      vertex -48.25 42 0
      vertex -29.8394 42 89.5546
      vertex 48.25 42 0
    endloop
  endfacet
  facet normal 0 1 -0
    outer loop
      vertex 48.25 42 0
      vertex 41.4026 42 83.0101
      vertex 48.25 42 78.4815
    endloop
  endfacet
  facet normal 0 1 0
    outer loop
      vertex -29.8394 42 89.5546
      vertex -48.25 42 0
      vertex -37.817 42 85.3815
    endloop
  endfacet
  facet normal 0 1 0
    outer loop
      vertex -37.817 42 85.3815
      vertex -48.25 42 0
      vertex -41.4026 42 83.0101
    endloop
  endfacet
  facet normal 0 1 0
    outer loop
      vertex -41.4026 42 83.0101
      vertex -48.25 42 0
      vertex -48.25 42 78.4815
    endloop
  endfacet
  facet normal 0 -1 0
    outer loop
      vertex -11.6672 -42 96.6831
      vertex 4.41438 -42 98.0251
      vertex -4.41438 -42 98.0251
    endloop
  endfacet
  facet normal 0 -1 0
    outer loop
      vertex -11.6672 -42 96.6831
      vertex 11.6672 -42 96.6831
      vertex 4.41438 -42 98.0251
    endloop
  endfacet
  facet normal 0 -1 0
    outer loop
      vertex -16.4503 -42 95.302
      vertex -11.6672 -42 96.6831
      vertex -13.6466 -42 96.3168
    endloop
  endfacet
  facet normal 0 -1 -0
    outer loop
      vertex -11.6672 -42 96.6831
      vertex -16.4503 -42 95.302
      vertex 11.6672 -42 96.6831
    endloop
  endfacet
  facet normal 0 -1 0
    outer loop
      vertex 20.2648 -42 93.9212
      vertex 11.6672 -42 96.6831
      vertex -16.4503 -42 95.302
    endloop
  endfacet
  facet normal 0 -1 0
    outer loop
      vertex 11.6672 -42 96.6831
      vertex 20.2648 -42 93.9212
      vertex 13.6466 -42 96.3168
    endloop
  endfacet
  facet normal 0 -1 0
    outer loop
      vertex -29.8394 -42 89.5546
      vertex -16.4503 -42 95.302
      vertex -24.2487 -42 92.4791
    endloop
  endfacet
  facet normal 0 -1 -0
    outer loop
      vertex -16.4503 -42 95.302
      vertex -29.8394 -42 89.5546
      vertex 20.2648 -42 93.9212
    endloop
  endfacet
  facet normal 0 -1 0
    outer loop
      vertex 31.7489 -42 88.5558
      vertex 20.2648 -42 93.9212
      vertex -29.8394 -42 89.5546
    endloop
  endfacet
  facet normal 0 -1 0
    outer loop
      vertex 20.2648 -42 93.9212
      vertex 31.7489 -42 88.5558
      vertex 24.2487 -42 92.4791
    endloop
  endfacet
  facet normal 0 -1 0
    outer loop
      vertex -48.25 -42 0
      vertex -29.8394 -42 89.5546
      vertex -37.817 -42 85.3815
    endloop
  endfacet
  facet normal 0 -1 -0
    outer loop
      vertex -29.8394 -42 89.5546
      vertex -48.25 -42 0
      vertex 31.7489 -42 88.5558
    endloop
  endfacet
  facet normal 0 -1 0
    outer loop
      vertex -48.25 -42 0
      vertex -37.817 -42 85.3815
      vertex -41.4026 -42 83.0101
    endloop
  endfacet
  facet normal 0 -1 0
    outer loop
      vertex 48.25 -42 0
      vertex 31.7489 -42 88.5558
      vertex -48.25 -42 0
    endloop
  endfacet
  facet normal 0 -1 0
    outer loop
      vertex -48.25 -42 0
      vertex -41.4026 -42 83.0101
      vertex -48.25 -42 78.4815
    endloop
  endfacet
  facet normal 0 -1 0
    outer loop
      vertex 31.7489 -42 88.5558
      vertex 48.25 -42 0
      vertex 37.817 -42 85.3815
    endloop
  endfacet
  facet normal 0 -1 0
    outer loop
      vertex 37.817 -42 85.3815
      vertex 48.25 -42 0
      vertex 41.4026 -42 83.0101
    endloop
  endfacet
  facet normal 0 -1 0
    outer loop
      vertex 41.4026 -42 83.0101
      vertex 48.25 -42 0
      vertex 48.25 -42 78.4815
    endloop
  endfacet
  facet normal 0 0 -1
    outer loop
      vertex -48.25 -42 0
      vertex 48.25 42 0
      vertex 48.25 -42 0
    endloop
  endfacet
  facet normal -0 0 -1
    outer loop
      vertex 48.25 42 0
      vertex -48.25 -42 0
      vertex -48.25 42 0
    endloop
  endfacet
  facet normal -0.309576 0 0.950875
    outer loop
      vertex -5.40451 30 260.294
      vertex -4.84549 24.3886 260.476
      vertex -4.84549 30 260.476
    endloop
  endfacet
  facet normal -0.309576 0 0.950875
    outer loop
      vertex -4.84549 24.3886 260.476
      vertex -5.40451 30 260.294
      vertex -5.40451 24.2697 260.294
    endloop
  endfacet
  facet normal -0.309576 -0 -0.950875
    outer loop
      vertex -5.40451 30 259.706
      vertex -4.84549 24.3886 259.524
      vertex -5.40451 24.2697 259.706
    endloop
  endfacet
  facet normal -0.309576 0 -0.950875
    outer loop
      vertex -4.84549 24.3886 259.524
      vertex -5.40451 30 259.706
      vertex -4.84549 30 259.524
    endloop
  endfacet
  facet normal 0.809295 0 -0.587402
    outer loop
      vertex -4.5 24.462 260
      vertex -4.84549 30 259.524
      vertex -4.5 30 260
    endloop
  endfacet
  facet normal 0.809295 0 -0.587402
    outer loop
      vertex -4.84549 30 259.524
      vertex -4.5 24.462 260
      vertex -4.84549 24.3886 259.524
    endloop
  endfacet
  facet normal -1 0 0
    outer loop
      vertex -5.40451 24.2697 259.706
      vertex -5.40451 30 260.294
      vertex -5.40451 30 259.706
    endloop
  endfacet
  facet normal -1 -0 0
    outer loop
      vertex -5.40451 30 260.294
      vertex -5.40451 24.2697 259.706
      vertex -5.40451 24.2697 260.294
    endloop
  endfacet
  facet normal 0 1 0
    outer loop
      vertex -4.5 30 260
      vertex -5.40451 30 260.294
      vertex -4.84549 30 260.476
    endloop
  endfacet
  facet normal 0 1 0
    outer loop
      vertex -4.5 30 260
      vertex -5.40451 30 259.706
      vertex -5.40451 30 260.294
    endloop
  endfacet
  facet normal -0 1 0
    outer loop
      vertex -5.40451 30 259.706
      vertex -4.5 30 260
      vertex -4.84549 30 259.524
    endloop
  endfacet
  facet normal 0.809295 0 0.587402
    outer loop
      vertex -4.84549 30 260.476
      vertex -4.5 24.462 260
      vertex -4.5 30 260
    endloop
  endfacet
  facet normal 0.809295 0 0.587402
    outer loop
      vertex -4.5 24.462 260
      vertex -4.84549 30 260.476
      vertex -4.84549 24.3886 260.476
    endloop
  endfacet
  facet normal -0.309576 0 0.950875
    outer loop
      vertex 4.59549 24.4417 260.294
      vertex 5.15451 30 260.476
      vertex 4.59549 30 260.294
    endloop
  endfacet
  facet normal -0.309576 0 0.950875
    outer loop
      vertex 5.15451 30 260.476
      vertex 4.59549 24.4417 260.294
      vertex 5.15451 24.3229 260.476
    endloop
  endfacet
  facet normal -0.309576 0 -0.950875
    outer loop
      vertex 4.59549 24.4417 259.706
      vertex 5.15451 30 259.524
      vertex 5.15451 24.3229 259.524
    endloop
  endfacet
  facet normal -0.309576 0 -0.950875
    outer loop
      vertex 5.15451 30 259.524
      vertex 4.59549 24.4417 259.706
      vertex 4.59549 30 259.706
    endloop
  endfacet
  facet normal 0.809295 0 -0.587402
    outer loop
      vertex 5.5 30 260
      vertex 5.15451 24.3229 259.524
      vertex 5.15451 30 259.524
    endloop
  endfacet
  facet normal 0.809295 0 -0.587402
    outer loop
      vertex 5.15451 24.3229 259.524
      vertex 5.5 30 260
      vertex 5.5 24.2494 260
    endloop
  endfacet
  facet normal -1 0 0
    outer loop
      vertex 4.59549 24.4417 259.706
      vertex 4.59549 30 260.294
      vertex 4.59549 30 259.706
    endloop
  endfacet
  facet normal -1 -0 0
    outer loop
      vertex 4.59549 30 260.294
      vertex 4.59549 24.4417 259.706
      vertex 4.59549 24.4417 260.294
    endloop
  endfacet
  facet normal 0 1 0
    outer loop
      vertex 5.5 30 260
      vertex 4.59549 30 260.294
      vertex 5.15451 30 260.476
    endloop
  endfacet
  facet normal 0 1 0
    outer loop
      vertex 5.5 30 260
      vertex 4.59549 30 259.706
      vertex 4.59549 30 260.294
    endloop
  endfacet
  facet normal -0 1 0
    outer loop
      vertex 4.59549 30 259.706
      vertex 5.5 30 260
      vertex 5.15451 30 259.524
    endloop
  endfacet
  facet normal 0.809295 -0 0.587402
    outer loop
      vertex 5.15451 24.3229 260.476
      vertex 5.5 30 260
      vertex 5.15451 30 260.476
    endloop
  endfacet
  facet normal 0.809295 0 0.587402
    outer loop
      vertex 5.5 30 260
      vertex 5.15451 24.3229 260.476
      vertex 5.5 24.2494 260
    endloop
  endfacet
  facet normal 0 0.587236 -0.809416
    outer loop
      vertex 30 -5 259.5
      vertex 24.5245 -4.52447 259.845
      vertex 30 -4.52447 259.845
    endloop
  endfacet
  facet normal 0 0.587236 -0.809416
    outer loop
      vertex 24.5245 -4.52447 259.845
      vertex 30 -5 259.5
      vertex 24.4745 -5 259.5
    endloop
  endfacet
  facet normal -0 0.951214 0.308533
    outer loop
      vertex 24.5245 -4.52447 259.845
      vertex 30 -4.70611 260.405
      vertex 30 -4.52447 259.845
    endloop
  endfacet
  facet normal 0 0.951214 0.308533
    outer loop
      vertex 30 -4.70611 260.405
      vertex 24.5245 -4.52447 259.845
      vertex 24.5054 -4.70611 260.405
    endloop
  endfacet
  facet normal -0 0 1
    outer loop
      vertex 24.5054 -4.70611 260.405
      vertex 30 -5.29389 260.405
      vertex 30 -4.70611 260.405
    endloop
  endfacet
  facet normal -0 0 1
    outer loop
      vertex 24.4537 -5.19779 260.405
      vertex 30 -5.29389 260.405
      vertex 24.5054 -4.70611 260.405
    endloop
  endfacet
  facet normal 0 0 1
    outer loop
      vertex 30 -5.29389 260.405
      vertex 24.4537 -5.19779 260.405
      vertex 24.4225 -5.29389 260.405
    endloop
  endfacet
  facet normal 0 -0.951214 0.308533
    outer loop
      vertex 30 -5.47553 259.845
      vertex 24.4225 -5.29389 260.405
      vertex 24.3634 -5.47553 259.845
    endloop
  endfacet
  facet normal 0 -0.951214 0.308533
    outer loop
      vertex 24.4225 -5.29389 260.405
      vertex 30 -5.47553 259.845
      vertex 30 -5.29389 260.405
    endloop
  endfacet
  facet normal 1 0 0
    outer loop
      vertex 30 -4.70611 260.405
      vertex 30 -5 259.5
      vertex 30 -4.52447 259.845
    endloop
  endfacet
  facet normal 1 -0 0
    outer loop
      vertex 30 -5.29389 260.405
      vertex 30 -5 259.5
      vertex 30 -4.70611 260.405
    endloop
  endfacet
  facet normal 1 0 0
    outer loop
      vertex 30 -5 259.5
      vertex 30 -5.29389 260.405
      vertex 30 -5.47553 259.845
    endloop
  endfacet
  facet normal 0 -0.587236 -0.809416
    outer loop
      vertex 30 -5.47553 259.845
      vertex 24.4745 -5 259.5
      vertex 30 -5 259.5
    endloop
  endfacet
  facet normal -0.000175042 -0.588568 -0.808448
    outer loop
      vertex 30 -5.47553 259.845
      vertex 24.4537 -5.19779 259.644
      vertex 24.4745 -5 259.5
    endloop
  endfacet
  facet normal 0 -0.586276 -0.810111
    outer loop
      vertex 24.4537 -5.19779 259.644
      vertex 30 -5.47553 259.845
      vertex 24.3634 -5.47553 259.845
    endloop
  endfacet
  facet normal 1 0 0
    outer loop
      vertex 30 5.29389 260.405
      vertex 30 5 259.5
      vertex 30 5.47553 259.845
    endloop
  endfacet
  facet normal 1 -0 0
    outer loop
      vertex 30 4.70611 260.405
      vertex 30 5 259.5
      vertex 30 5.29389 260.405
    endloop
  endfacet
  facet normal 1 0 0
    outer loop
      vertex 30 5 259.5
      vertex 30 4.70611 260.405
      vertex 30 4.52447 259.845
    endloop
  endfacet
  facet normal 0 0.951214 0.308533
    outer loop
      vertex 30 5.47553 259.845
      vertex 24.4225 5.29389 260.405
      vertex 30 5.29389 260.405
    endloop
  endfacet
  facet normal 0 0.951214 0.308533
    outer loop
      vertex 24.4225 5.29389 260.405
      vertex 30 5.47553 259.845
      vertex 24.3634 5.47553 259.845
    endloop
  endfacet
  facet normal 0 0 1
    outer loop
      vertex 30 5.29389 260.405
      vertex 24.5054 4.70611 260.405
      vertex 30 4.70611 260.405
    endloop
  endfacet
  facet normal 0 0 1
    outer loop
      vertex 30 5.29389 260.405
      vertex 24.4537 5.19779 260.405
      vertex 24.5054 4.70611 260.405
    endloop
  endfacet
  facet normal 0 -0 1
    outer loop
      vertex 24.4537 5.19779 260.405
      vertex 30 5.29389 260.405
      vertex 24.4225 5.29389 260.405
    endloop
  endfacet
  facet normal 0 -0.951214 0.308533
    outer loop
      vertex 24.5245 4.52447 259.845
      vertex 30 4.70611 260.405
      vertex 24.5054 4.70611 260.405
    endloop
  endfacet
  facet normal 0 -0.951214 0.308533
    outer loop
      vertex 30 4.70611 260.405
      vertex 24.5245 4.52447 259.845
      vertex 30 4.52447 259.845
    endloop
  endfacet
  facet normal 0 0.587236 -0.809416
    outer loop
      vertex 24.4745 5 259.5
      vertex 30 5.47553 259.845
      vertex 30 5 259.5
    endloop
  endfacet
  facet normal -0.000175042 0.588568 -0.808448
    outer loop
      vertex 24.4537 5.19779 259.644
      vertex 30 5.47553 259.845
      vertex 24.4745 5 259.5
    endloop
  endfacet
  facet normal 0 0.586276 -0.810111
    outer loop
      vertex 30 5.47553 259.845
      vertex 24.4537 5.19779 259.644
      vertex 24.3634 5.47553 259.845
    endloop
  endfacet
  facet normal 0 -0.587236 -0.809416
    outer loop
      vertex 24.5245 4.52447 259.845
      vertex 30 5 259.5
      vertex 30 4.52447 259.845
    endloop
  endfacet
  facet normal -0 -0.587236 -0.809416
    outer loop
      vertex 30 5 259.5
      vertex 24.5245 4.52447 259.845
      vertex 24.4745 5 259.5
    endloop
  endfacet
  facet normal -0 0.195089 0.980786
    outer loop
      vertex -50.25 1.91342 79.6194
      vertex -48.25 0 80
      vertex -48.25 1.91342 79.6194
    endloop
  endfacet
  facet normal 0 0.195089 0.980786
    outer loop
      vertex -48.25 0 80
      vertex -50.25 1.91342 79.6194
      vertex -50.25 0 80
    endloop
  endfacet
  facet normal 0 0.195089 -0.980786
    outer loop
      vertex -50.25 0 70
      vertex -48.25 1.91342 70.3806
      vertex -48.25 0 70
    endloop
  endfacet
  facet normal 0 0.195089 -0.980786
    outer loop
      vertex -48.25 1.91342 70.3806
      vertex -50.25 0 70
      vertex -50.25 1.91342 70.3806
    endloop
  endfacet
  facet normal 0 -0.831465 -0.555576
    outer loop
      vertex -50.25 -3.53553 71.4645
      vertex -48.25 -4.6194 73.0866
      vertex -50.25 -4.6194 73.0866
    endloop
  endfacet
  facet normal 0 -0.831465 -0.555576
    outer loop
      vertex -48.25 -4.6194 73.0866
      vertex -50.25 -3.53553 71.4645
      vertex -48.25 -3.53553 71.4645
    endloop
  endfacet
  facet normal 0 -0.980785 0.195091
    outer loop
      vertex -50.25 -5 75
      vertex -48.25 -4.6194 76.9134
      vertex -50.25 -4.6194 76.9134
    endloop
  endfacet
  facet normal 0 -0.980785 0.195091
    outer loop
      vertex -48.25 -4.6194 76.9134
      vertex -50.25 -5 75
      vertex -48.25 -5 75
    endloop
  endfacet
  facet normal -0 0.555585 0.83146
    outer loop
      vertex -50.25 3.53553 78.5355
      vertex -48.25 1.91342 79.6194
      vertex -48.25 3.53553 78.5355
    endloop
  endfacet
  facet normal 0 0.555585 0.83146
    outer loop
      vertex -48.25 1.91342 79.6194
      vertex -50.25 3.53553 78.5355
      vertex -50.25 1.91342 79.6194
    endloop
  endfacet
  facet normal 0 0.831465 0.555576
    outer loop
      vertex -48.25 4.6194 76.9134
      vertex -50.25 3.53553 78.5355
      vertex -48.25 3.53553 78.5355
    endloop
  endfacet
  facet normal 0 0.831465 0.555576
    outer loop
      vertex -50.25 3.53553 78.5355
      vertex -48.25 4.6194 76.9134
      vertex -50.25 4.6194 76.9134
    endloop
  endfacet
  facet normal 0 0.555585 -0.83146
    outer loop
      vertex -50.25 1.91342 70.3806
      vertex -48.25 3.53553 71.4645
      vertex -48.25 1.91342 70.3806
    endloop
  endfacet
  facet normal 0 0.555585 -0.83146
    outer loop
      vertex -48.25 3.53553 71.4645
      vertex -50.25 1.91342 70.3806
      vertex -50.25 3.53553 71.4645
    endloop
  endfacet
  facet normal -1 0 0
    outer loop
      vertex -50.25 4.6194 73.0866
      vertex -50.25 4.6194 76.9134
      vertex -50.25 5 75
    endloop
  endfacet
  facet normal -1 0 0
    outer loop
      vertex -50.25 3.53553 71.4645
      vertex -50.25 4.6194 76.9134
      vertex -50.25 4.6194 73.0866
    endloop
  endfacet
  facet normal -1 0 0
    outer loop
      vertex -50.25 3.53553 71.4645
      vertex -50.25 3.53553 78.5355
      vertex -50.25 4.6194 76.9134
    endloop
  endfacet
  facet normal -1 0 0
    outer loop
      vertex -50.25 1.91342 70.3806
      vertex -50.25 3.53553 78.5355
      vertex -50.25 3.53553 71.4645
    endloop
  endfacet
  facet normal -1 0 0
    outer loop
      vertex -50.25 1.91342 70.3806
      vertex -50.25 1.91342 79.6194
      vertex -50.25 3.53553 78.5355
    endloop
  endfacet
  facet normal -1 0 0
    outer loop
      vertex -50.25 0 70
      vertex -50.25 1.91342 79.6194
      vertex -50.25 1.91342 70.3806
    endloop
  endfacet
  facet normal -1 0 0
    outer loop
      vertex -50.25 0 70
      vertex -50.25 0 80
      vertex -50.25 1.91342 79.6194
    endloop
  endfacet
  facet normal -1 0 0
    outer loop
      vertex -50.25 -1.91342 70.3806
      vertex -50.25 0 80
      vertex -50.25 0 70
    endloop
  endfacet
  facet normal -1 0 0
    outer loop
      vertex -50.25 -1.91342 70.3806
      vertex -50.25 -1.91342 79.6194
      vertex -50.25 0 80
    endloop
  endfacet
  facet normal -1 0 0
    outer loop
      vertex -50.25 -3.53553 71.4645
      vertex -50.25 -1.91342 79.6194
      vertex -50.25 -1.91342 70.3806
    endloop
  endfacet
  facet normal -1 0 0
    outer loop
      vertex -50.25 -3.53553 71.4645
      vertex -50.25 -3.53553 78.5355
      vertex -50.25 -1.91342 79.6194
    endloop
  endfacet
  facet normal -1 0 0
    outer loop
      vertex -50.25 -4.6194 73.0866
      vertex -50.25 -3.53553 78.5355
      vertex -50.25 -3.53553 71.4645
    endloop
  endfacet
  facet normal -1 0 0
    outer loop
      vertex -50.25 -4.6194 73.0866
      vertex -50.25 -4.6194 76.9134
      vertex -50.25 -3.53553 78.5355
    endloop
  endfacet
  facet normal -1 0 -0
    outer loop
      vertex -50.25 -4.6194 76.9134
      vertex -50.25 -4.6194 73.0866
      vertex -50.25 -5 75
    endloop
  endfacet
  facet normal 0 -0.195089 -0.980786
    outer loop
      vertex -50.25 -1.91342 70.3806
      vertex -48.25 0 70
      vertex -48.25 -1.91342 70.3806
    endloop
  endfacet
  facet normal -0 -0.195089 -0.980786
    outer loop
      vertex -48.25 0 70
      vertex -50.25 -1.91342 70.3806
      vertex -50.25 0 70
    endloop
  endfacet
  facet normal 0 -0.980785 -0.195091
    outer loop
      vertex -50.25 -4.6194 73.0866
      vertex -48.25 -5 75
      vertex -50.25 -5 75
    endloop
  endfacet
  facet normal 0 -0.980785 -0.195091
    outer loop
      vertex -48.25 -5 75
      vertex -50.25 -4.6194 73.0866
      vertex -48.25 -4.6194 73.0866
    endloop
  endfacet
  facet normal 0 0.980785 -0.195091
    outer loop
      vertex -48.25 4.6194 73.0866
      vertex -50.25 5 75
      vertex -48.25 5 75
    endloop
  endfacet
  facet normal 0 0.980785 -0.195091
    outer loop
      vertex -50.25 5 75
      vertex -48.25 4.6194 73.0866
      vertex -50.25 4.6194 73.0866
    endloop
  endfacet
  facet normal 0 0.980785 0.195091
    outer loop
      vertex -48.25 5 75
      vertex -50.25 4.6194 76.9134
      vertex -48.25 4.6194 76.9134
    endloop
  endfacet
  facet normal 0 0.980785 0.195091
    outer loop
      vertex -50.25 4.6194 76.9134
      vertex -48.25 5 75
      vertex -50.25 5 75
    endloop
  endfacet
  facet normal 0 -0.555585 -0.83146
    outer loop
      vertex -50.25 -3.53553 71.4645
      vertex -48.25 -1.91342 70.3806
      vertex -48.25 -3.53553 71.4645
    endloop
  endfacet
  facet normal -0 -0.555585 -0.83146
    outer loop
      vertex -48.25 -1.91342 70.3806
      vertex -50.25 -3.53553 71.4645
      vertex -50.25 -1.91342 70.3806
    endloop
  endfacet
  facet normal 0 0.831465 -0.555576
    outer loop
      vertex -48.25 3.53553 71.4645
      vertex -50.25 4.6194 73.0866
      vertex -48.25 4.6194 73.0866
    endloop
  endfacet
  facet normal 0 0.831465 -0.555576
    outer loop
      vertex -50.25 4.6194 73.0866
      vertex -48.25 3.53553 71.4645
      vertex -50.25 3.53553 71.4645
    endloop
  endfacet
  facet normal 0 -0.555585 0.83146
    outer loop
      vertex -50.25 -1.91342 79.6194
      vertex -48.25 -3.53553 78.5355
      vertex -48.25 -1.91342 79.6194
    endloop
  endfacet
  facet normal 0 -0.555585 0.83146
    outer loop
      vertex -48.25 -3.53553 78.5355
      vertex -50.25 -1.91342 79.6194
      vertex -50.25 -3.53553 78.5355
    endloop
  endfacet
  facet normal 0 -0.195089 0.980786
    outer loop
      vertex -50.25 0 80
      vertex -48.25 -1.91342 79.6194
      vertex -48.25 0 80
    endloop
  endfacet
  facet normal 0 -0.195089 0.980786
    outer loop
      vertex -48.25 -1.91342 79.6194
      vertex -50.25 0 80
      vertex -50.25 -1.91342 79.6194
    endloop
  endfacet
  facet normal 0 -0.831465 0.555576
    outer loop
      vertex -50.25 -4.6194 76.9134
      vertex -48.25 -3.53553 78.5355
      vertex -50.25 -3.53553 78.5355
    endloop
  endfacet
  facet normal 0 -0.831465 0.555576
    outer loop
      vertex -48.25 -3.53553 78.5355
      vertex -50.25 -4.6194 76.9134
      vertex -48.25 -4.6194 76.9134
    endloop
  endfacet
  facet normal 0.738647 0.665084 0.109834
    outer loop
      vertex 26.7652 29.7258 100
      vertex 16.7283 18.5786 235
      vertex 32.3607 23.5114 100
    endloop
  endfacet
  facet normal 0.860786 0.496975 0.109834
    outer loop
      vertex 32.3607 23.5114 100
      vertex 20.2254 14.6946 235
      vertex 22.8386 10.1684 235
    endloop
  endfacet
  facet normal 0.206652 0.97223 0.109834
    outer loop
      vertex 4.18114 39.7809 100
      vertex 2.61321 24.863 235
      vertex 12.3607 38.0423 100
    endloop
  endfacet
  facet normal 0.988505 0.103894 0.109834
    outer loop
      vertex 40 0 100
      vertex 24.4537 5.19779 235
      vertex 25 0 235
    endloop
  endfacet
  facet normal 0.988505 0.103897 0.109834
    outer loop
      vertex 39.1259 8.31647 100
      vertex 24.4537 5.19779 235
      vertex 40 0 100
    endloop
  endfacet
  facet normal 0.404279 0.908017 0.109834
    outer loop
      vertex 12.3607 38.0423 100
      vertex 7.72542 23.7764 235
      vertex 12.5 21.6506 235
    endloop
  endfacet
  facet normal 0.945302 0.307148 0.109834
    outer loop
      vertex 36.5418 16.2695 100
      vertex 22.8386 10.1684 235
      vertex 39.1259 8.31647 100
    endloop
  endfacet
  facet normal 0.738647 -0.665084 0.109834
    outer loop
      vertex 32.3607 -23.5114 100
      vertex 16.7283 -18.5786 235
      vertex 26.7652 -29.7258 100
    endloop
  endfacet
  facet normal -0.9453 0.307156 0.109834
    outer loop
      vertex -22.8386 10.1684 235
      vertex -39.1259 8.31647 100
      vertex -24.4537 5.19779 235
    endloop
  endfacet
  facet normal 0.404282 0.908016 0.109834
    outer loop
      vertex 20 34.641 100
      vertex 12.3607 38.0423 100
      vertex 12.5 21.6506 235
    endloop
  endfacet
  facet normal -0.404282 0.908016 0.109834
    outer loop
      vertex -12.3607 38.0423 100
      vertex -20 34.641 100
      vertex -12.5 21.6506 235
    endloop
  endfacet
  facet normal 0.584229 0.804123 0.109834
    outer loop
      vertex 20 34.641 100
      vertex 12.5 21.6506 235
      vertex 26.7652 29.7258 100
    endloop
  endfacet
  facet normal 0.584229 -0.804123 0.109834
    outer loop
      vertex 26.7652 -29.7258 100
      vertex 12.5 -21.6506 235
      vertex 20 -34.641 100
    endloop
  endfacet
  facet normal -0.945302 0.307148 0.109834
    outer loop
      vertex -36.5418 16.2695 100
      vertex -39.1259 8.31647 100
      vertex -22.8386 10.1684 235
    endloop
  endfacet
  facet normal -0.9453 -0.307156 0.109834
    outer loop
      vertex -24.4537 -5.19779 235
      vertex -39.1259 -8.31647 100
      vertex -22.8386 -10.1684 235
    endloop
  endfacet
  facet normal 0.945302 -0.307148 0.109834
    outer loop
      vertex 39.1259 -8.31647 100
      vertex 22.8386 -10.1684 235
      vertex 36.5418 -16.2695 100
    endloop
  endfacet
  facet normal -0.988505 -0.103897 0.109834
    outer loop
      vertex -24.4537 -5.19779 235
      vertex -40 0 100
      vertex -39.1259 -8.31647 100
    endloop
  endfacet
  facet normal -0.988505 0.103894 0.109834
    outer loop
      vertex -24.4537 5.19779 235
      vertex -40 0 100
      vertex -25 0 235
    endloop
  endfacet
  facet normal 0.738655 0.665075 0.109834
    outer loop
      vertex 32.3607 23.5114 100
      vertex 16.7283 18.5786 235
      vertex 20.2254 14.6946 235
    endloop
  endfacet
  facet normal -0.584224 0.804126 0.109834
    outer loop
      vertex -12.5 21.6506 235
      vertex -26.7652 29.7258 100
      vertex -16.7283 18.5786 235
    endloop
  endfacet
  facet normal 0.404279 -0.908017 0.109834
    outer loop
      vertex 12.5 -21.6506 235
      vertex 7.72542 -23.7764 235
      vertex 12.3607 -38.0423 100
    endloop
  endfacet
  facet normal -0.860787 -0.496974 0.109834
    outer loop
      vertex -22.8386 -10.1684 235
      vertex -36.5418 -16.2695 100
      vertex -32.3607 -23.5114 100
    endloop
  endfacet
  facet normal 0.860787 0.496974 0.109834
    outer loop
      vertex 32.3607 23.5114 100
      vertex 22.8386 10.1684 235
      vertex 36.5418 16.2695 100
    endloop
  endfacet
  facet normal -0.738655 0.665075 0.109834
    outer loop
      vertex -16.7283 18.5786 235
      vertex -32.3607 23.5114 100
      vertex -20.2254 14.6946 235
    endloop
  endfacet
  facet normal 0 -0.99395 0.109834
    outer loop
      vertex -4.18114 -39.7809 100
      vertex 2.61321 -24.863 235
      vertex -2.61321 -24.863 235
    endloop
  endfacet
  facet normal 0 -0.99395 0.109834
    outer loop
      vertex 2.61321 -24.863 235
      vertex -4.18114 -39.7809 100
      vertex 4.18114 -39.7809 100
    endloop
  endfacet
  facet normal 0.738655 -0.665075 0.109834
    outer loop
      vertex 20.2254 -14.6946 235
      vertex 16.7283 -18.5786 235
      vertex 32.3607 -23.5114 100
    endloop
  endfacet
  facet normal -0.584229 0.804123 0.109834
    outer loop
      vertex -20 34.641 100
      vertex -26.7652 29.7258 100
      vertex -12.5 21.6506 235
    endloop
  endfacet
  facet normal -0.206648 0.972231 0.109834
    outer loop
      vertex -2.61321 24.863 235
      vertex -12.3607 38.0423 100
      vertex -7.72542 23.7764 235
    endloop
  endfacet
  facet normal -0.404279 -0.908017 0.109834
    outer loop
      vertex -7.72542 -23.7764 235
      vertex -12.5 -21.6506 235
      vertex -12.3607 -38.0423 100
    endloop
  endfacet
  facet normal -0.738655 -0.665075 0.109834
    outer loop
      vertex -20.2254 -14.6946 235
      vertex -32.3607 -23.5114 100
      vertex -16.7283 -18.5786 235
    endloop
  endfacet
  facet normal -0.584224 -0.804126 0.109834
    outer loop
      vertex -16.7283 -18.5786 235
      vertex -26.7652 -29.7258 100
      vertex -12.5 -21.6506 235
    endloop
  endfacet
  facet normal -0.738647 -0.665084 0.109834
    outer loop
      vertex -16.7283 -18.5786 235
      vertex -32.3607 -23.5114 100
      vertex -26.7652 -29.7258 100
    endloop
  endfacet
  facet normal 0.988505 -0.103897 0.109834
    outer loop
      vertex 40 0 100
      vertex 24.4537 -5.19779 235
      vertex 39.1259 -8.31647 100
    endloop
  endfacet
  facet normal 0.988505 -0.103894 0.109834
    outer loop
      vertex 25 0 235
      vertex 24.4537 -5.19779 235
      vertex 40 0 100
    endloop
  endfacet
  facet normal 0.206648 -0.972231 0.109834
    outer loop
      vertex 7.72542 -23.7764 235
      vertex 2.61321 -24.863 235
      vertex 12.3607 -38.0423 100
    endloop
  endfacet
  facet normal 0.584224 0.804126 0.109834
    outer loop
      vertex 26.7652 29.7258 100
      vertex 12.5 21.6506 235
      vertex 16.7283 18.5786 235
    endloop
  endfacet
  facet normal -0.206652 0.97223 0.109834
    outer loop
      vertex -4.18114 39.7809 100
      vertex -12.3607 38.0423 100
      vertex -2.61321 24.863 235
    endloop
  endfacet
  facet normal 0.206648 0.972231 0.109834
    outer loop
      vertex 12.3607 38.0423 100
      vertex 2.61321 24.863 235
      vertex 7.72542 23.7764 235
    endloop
  endfacet
  facet normal 0 0.99395 0.109834
    outer loop
      vertex 4.18114 39.7809 100
      vertex -2.61321 24.863 235
      vertex 2.61321 24.863 235
    endloop
  endfacet
  facet normal 0 0.99395 0.109834
    outer loop
      vertex -2.61321 24.863 235
      vertex 4.18114 39.7809 100
      vertex -4.18114 39.7809 100
    endloop
  endfacet
  facet normal -0.860787 0.496974 0.109834
    outer loop
      vertex -32.3607 23.5114 100
      vertex -36.5418 16.2695 100
      vertex -22.8386 10.1684 235
    endloop
  endfacet
  facet normal -0.945302 -0.307148 0.109834
    outer loop
      vertex -22.8386 -10.1684 235
      vertex -39.1259 -8.31647 100
      vertex -36.5418 -16.2695 100
    endloop
  endfacet
  facet normal -0.860786 -0.496975 0.109834
    outer loop
      vertex -22.8386 -10.1684 235
      vertex -32.3607 -23.5114 100
      vertex -20.2254 -14.6946 235
    endloop
  endfacet
  facet normal 0.9453 0.307156 0.109834
    outer loop
      vertex 39.1259 8.31647 100
      vertex 22.8386 10.1684 235
      vertex 24.4537 5.19779 235
    endloop
  endfacet
  facet normal 0.860786 -0.496975 0.109834
    outer loop
      vertex 22.8386 -10.1684 235
      vertex 20.2254 -14.6946 235
      vertex 32.3607 -23.5114 100
    endloop
  endfacet
  facet normal -0.206648 -0.972231 0.109834
    outer loop
      vertex -7.72542 -23.7764 235
      vertex -12.3607 -38.0423 100
      vertex -2.61321 -24.863 235
    endloop
  endfacet
  facet normal -0.988505 -0.103894 0.109834
    outer loop
      vertex -25 0 235
      vertex -40 0 100
      vertex -24.4537 -5.19779 235
    endloop
  endfacet
  facet normal 0.404282 -0.908016 0.109834
    outer loop
      vertex 12.5 -21.6506 235
      vertex 12.3607 -38.0423 100
      vertex 20 -34.641 100
    endloop
  endfacet
  facet normal 0.860787 -0.496974 0.109834
    outer loop
      vertex 36.5418 -16.2695 100
      vertex 22.8386 -10.1684 235
      vertex 32.3607 -23.5114 100
    endloop
  endfacet
  facet normal 0.584224 -0.804126 0.109834
    outer loop
      vertex 16.7283 -18.5786 235
      vertex 12.5 -21.6506 235
      vertex 26.7652 -29.7258 100
    endloop
  endfacet
  facet normal -0.860786 0.496975 0.109834
    outer loop
      vertex -20.2254 14.6946 235
      vertex -32.3607 23.5114 100
      vertex -22.8386 10.1684 235
    endloop
  endfacet
  facet normal -0.404282 -0.908016 0.109834
    outer loop
      vertex -12.5 -21.6506 235
      vertex -20 -34.641 100
      vertex -12.3607 -38.0423 100
    endloop
  endfacet
  facet normal -0.206652 -0.97223 0.109834
    outer loop
      vertex -2.61321 -24.863 235
      vertex -12.3607 -38.0423 100
      vertex -4.18114 -39.7809 100
    endloop
  endfacet
  facet normal 0.9453 -0.307156 0.109834
    outer loop
      vertex 24.4537 -5.19779 235
      vertex 22.8386 -10.1684 235
      vertex 39.1259 -8.31647 100
    endloop
  endfacet
  facet normal -0.404279 0.908017 0.109834
    outer loop
      vertex -12.3607 38.0423 100
      vertex -12.5 21.6506 235
      vertex -7.72542 23.7764 235
    endloop
  endfacet
  facet normal -0.738647 0.665084 0.109834
    outer loop
      vertex -26.7652 29.7258 100
      vertex -32.3607 23.5114 100
      vertex -16.7283 18.5786 235
    endloop
  endfacet
  facet normal -0.584229 -0.804123 0.109834
    outer loop
      vertex -12.5 -21.6506 235
      vertex -26.7652 -29.7258 100
      vertex -20 -34.641 100
    endloop
  endfacet
  facet normal -0.988505 0.103897 0.109834
    outer loop
      vertex -39.1259 8.31647 100
      vertex -40 0 100
      vertex -24.4537 5.19779 235
    endloop
  endfacet
  facet normal 0.206652 -0.97223 0.109834
    outer loop
      vertex 12.3607 -38.0423 100
      vertex 2.61321 -24.863 235
      vertex 4.18114 -39.7809 100
    endloop
  endfacet
  facet normal -0.40674 -0.913544 0
    outer loop
      vertex -12.5 -21.6506 235
      vertex -7.72542 -23.7764 390
      vertex -12.5 -21.6506 390
    endloop
  endfacet
  facet normal -0.40674 -0.913544 -0
    outer loop
      vertex -7.72542 -23.7764 390
      vertex -12.5 -21.6506 235
      vertex -7.72542 -23.7764 235
    endloop
  endfacet
  facet normal -0.951054 -0.309026 0
    outer loop
      vertex -22.8386 -10.1684 235
      vertex -24.4537 -5.19779 390
      vertex -24.4537 -5.19779 235
    endloop
  endfacet
  facet normal -0.951054 -0.309026 0
    outer loop
      vertex -24.4537 -5.19779 390
      vertex -22.8386 -10.1684 235
      vertex -22.8386 -10.1684 390
    endloop
  endfacet
  facet normal 0.951057 0.309016 0
    outer loop
      vertex 22.8386 10.1684 390
      vertex 24.3634 5.47553 259.845
      vertex 22.8386 10.1684 235
    endloop
  endfacet
  facet normal 0.950944 0.309365 -1.38987e-05
    outer loop
      vertex 22.8386 10.1684 390
      vertex 24.4225 5.29389 260.405
      vertex 24.3634 5.47553 259.845
    endloop
  endfacet
  facet normal 0.951054 0.309026 1.89096e-07
    outer loop
      vertex 24.4537 5.19779 390
      vertex 24.4225 5.29389 260.405
      vertex 22.8386 10.1684 390
    endloop
  endfacet
  facet normal 0.951129 0.308795 0
    outer loop
      vertex 24.4225 5.29389 260.405
      vertex 24.4537 5.19779 390
      vertex 24.4537 5.19779 260.405
    endloop
  endfacet
  facet normal 0.951006 0.309172 3.25188e-05
    outer loop
      vertex 24.4537 5.19779 259.644
      vertex 22.8386 10.1684 235
      vertex 24.3634 5.47553 259.845
    endloop
  endfacet
  facet normal 0.951054 0.309026 0
    outer loop
      vertex 22.8386 10.1684 235
      vertex 24.4537 5.19779 259.644
      vertex 24.4537 5.19779 235
    endloop
  endfacet
  facet normal 0.994517 0.104573 0
    outer loop
      vertex 24.4537 5.19779 390
      vertex 24.5054 4.70611 260.405
      vertex 24.4537 5.19779 260.405
    endloop
  endfacet
  facet normal 0.994522 0.104527 1.78585e-07
    outer loop
      vertex 25 0 390
      vertex 24.5054 4.70611 260.405
      vertex 24.4537 5.19779 390
    endloop
  endfacet
  facet normal 0.994517 0.104571 1.80692e-06
    outer loop
      vertex 24.5054 4.70611 260.405
      vertex 25 0 390
      vertex 24.5245 4.52447 259.845
    endloop
  endfacet
  facet normal 0.994516 0.104585 0
    outer loop
      vertex 24.4745 5 259.5
      vertex 24.4537 5.19779 235
      vertex 24.4537 5.19779 259.644
    endloop
  endfacet
  facet normal 0.994518 0.104564 -8.10345e-06
    outer loop
      vertex 25 0 235
      vertex 24.4745 5 259.5
      vertex 24.5245 4.52447 259.845
    endloop
  endfacet
  facet normal 0.994523 0.10452 -0
    outer loop
      vertex 25 0 235
      vertex 24.5245 4.52447 259.845
      vertex 25 0 390
    endloop
  endfacet
  facet normal 0.994522 0.104527 -4.79159e-07
    outer loop
      vertex 24.4745 5 259.5
      vertex 25 0 235
      vertex 24.4537 5.19779 235
    endloop
  endfacet
  facet normal 0.866026 0.5 0
    outer loop
      vertex 22.8386 10.1684 390
      vertex 20.2254 14.6946 235
      vertex 20.2254 14.6946 390
    endloop
  endfacet
  facet normal 0.866026 0.5 0
    outer loop
      vertex 20.2254 14.6946 235
      vertex 22.8386 10.1684 390
      vertex 22.8386 10.1684 235
    endloop
  endfacet
  facet normal 0.58778 -0.809021 0
    outer loop
      vertex 12.5 -21.6506 235
      vertex 16.7283 -18.5786 390
      vertex 12.5 -21.6506 390
    endloop
  endfacet
  facet normal 0.58778 -0.809021 0
    outer loop
      vertex 16.7283 -18.5786 390
      vertex 12.5 -21.6506 235
      vertex 16.7283 -18.5786 235
    endloop
  endfacet
  facet normal 0.40674 0.913544 -0
    outer loop
      vertex 12.5 21.6506 235
      vertex 7.72542 23.7764 390
      vertex 12.5 21.6506 390
    endloop
  endfacet
  facet normal 0.40674 0.913544 0
    outer loop
      vertex 7.72542 23.7764 390
      vertex 12.5 21.6506 235
      vertex 7.72542 23.7764 235
    endloop
  endfacet
  facet normal 0.994523 -0.10452 0
    outer loop
      vertex 25 0 390
      vertex 24.5245 -4.52447 259.845
      vertex 25 0 235
    endloop
  endfacet
  facet normal 0.994517 -0.104571 1.80692e-06
    outer loop
      vertex 25 0 390
      vertex 24.5054 -4.70611 260.405
      vertex 24.5245 -4.52447 259.845
    endloop
  endfacet
  facet normal 0.994522 -0.104527 1.78585e-07
    outer loop
      vertex 24.4537 -5.19779 390
      vertex 24.5054 -4.70611 260.405
      vertex 25 0 390
    endloop
  endfacet
  facet normal 0.994517 -0.104573 0
    outer loop
      vertex 24.5054 -4.70611 260.405
      vertex 24.4537 -5.19779 390
      vertex 24.4537 -5.19779 260.405
    endloop
  endfacet
  facet normal 0.994518 -0.104564 -8.10345e-06
    outer loop
      vertex 24.4745 -5 259.5
      vertex 25 0 235
      vertex 24.5245 -4.52447 259.845
    endloop
  endfacet
  facet normal 0.994516 -0.104585 0
    outer loop
      vertex 24.4537 -5.19779 235
      vertex 24.4745 -5 259.5
      vertex 24.4537 -5.19779 259.644
    endloop
  endfacet
  facet normal 0.994522 -0.104527 -4.79159e-07
    outer loop
      vertex 24.4745 -5 259.5
      vertex 24.4537 -5.19779 235
      vertex 25 0 235
    endloop
  endfacet
  facet normal 0.743151 0.669123 0
    outer loop
      vertex 20.2254 14.6946 390
      vertex 16.7283 18.5786 235
      vertex 16.7283 18.5786 390
    endloop
  endfacet
  facet normal 0.743151 0.669123 0
    outer loop
      vertex 16.7283 18.5786 235
      vertex 20.2254 14.6946 390
      vertex 20.2254 14.6946 235
    endloop
  endfacet
  facet normal -0.866026 0.5 0
    outer loop
      vertex -22.8386 10.1684 235
      vertex -20.2254 14.6946 390
      vertex -20.2254 14.6946 235
    endloop
  endfacet
  facet normal -0.866026 0.5 0
    outer loop
      vertex -20.2254 14.6946 390
      vertex -22.8386 10.1684 235
      vertex -22.8386 10.1684 390
    endloop
  endfacet
  facet normal 0.743151 -0.669123 0
    outer loop
      vertex 16.7283 -18.5786 390
      vertex 20.2254 -14.6946 235
      vertex 20.2254 -14.6946 390
    endloop
  endfacet
  facet normal 0.743151 -0.669123 0
    outer loop
      vertex 20.2254 -14.6946 235
      vertex 16.7283 -18.5786 390
      vertex 16.7283 -18.5786 235
    endloop
  endfacet
  facet normal -0.743151 0.669123 0
    outer loop
      vertex -20.2254 14.6946 235
      vertex -16.7283 18.5786 390
      vertex -16.7283 18.5786 235
    endloop
  endfacet
  facet normal -0.743151 0.669123 0
    outer loop
      vertex -16.7283 18.5786 390
      vertex -20.2254 14.6946 235
      vertex -20.2254 14.6946 390
    endloop
  endfacet
  facet normal 0.866026 -0.5 0
    outer loop
      vertex 20.2254 -14.6946 390
      vertex 22.8386 -10.1684 235
      vertex 22.8386 -10.1684 390
    endloop
  endfacet
  facet normal 0.866026 -0.5 0
    outer loop
      vertex 22.8386 -10.1684 235
      vertex 20.2254 -14.6946 390
      vertex 20.2254 -14.6946 235
    endloop
  endfacet
  facet normal -0.58778 0.809021 0
    outer loop
      vertex -12.5 21.6506 235
      vertex -16.7283 18.5786 390
      vertex -12.5 21.6506 390
    endloop
  endfacet
  facet normal -0.58778 0.809021 0
    outer loop
      vertex -16.7283 18.5786 390
      vertex -12.5 21.6506 235
      vertex -16.7283 18.5786 235
    endloop
  endfacet
  facet normal 0 0 1
    outer loop
      vertex 18.5 0 390
      vertex 25 0 390
      vertex 24.4537 5.19779 390
    endloop
  endfacet
  facet normal 0 0 1
    outer loop
      vertex 18.0957 3.84637 390
      vertex 24.4537 5.19779 390
      vertex 22.8386 10.1684 390
    endloop
  endfacet
  facet normal 0 0 1
    outer loop
      vertex 25 0 390
      vertex 18.5 0 390
      vertex 24.4537 -5.19779 390
    endloop
  endfacet
  facet normal 0 0 1
    outer loop
      vertex 16.9006 7.52463 390
      vertex 22.8386 10.1684 390
      vertex 20.2254 14.6946 390
    endloop
  endfacet
  facet normal -0 0 1
    outer loop
      vertex 18.0957 -3.84637 390
      vertex 24.4537 -5.19779 390
      vertex 18.5 0 390
    endloop
  endfacet
  facet normal 0 0 1
    outer loop
      vertex 24.4537 -5.19779 390
      vertex 18.0957 -3.84637 390
      vertex 22.8386 -10.1684 390
    endloop
  endfacet
  facet normal 0 0 1
    outer loop
      vertex 24.4537 5.19779 390
      vertex 18.0957 3.84637 390
      vertex 18.5 0 390
    endloop
  endfacet
  facet normal 0 0 1
    outer loop
      vertex 22.8386 10.1684 390
      vertex 16.9006 7.52463 390
      vertex 18.0957 3.84637 390
    endloop
  endfacet
  facet normal 0 0 1
    outer loop
      vertex 14.9668 10.874 390
      vertex 20.2254 14.6946 390
      vertex 16.7283 18.5786 390
    endloop
  endfacet
  facet normal 0 0 1
    outer loop
      vertex 20.2254 14.6946 390
      vertex 14.9668 10.874 390
      vertex 16.9006 7.52463 390
    endloop
  endfacet
  facet normal 0 0 1
    outer loop
      vertex 12.3789 13.7482 390
      vertex 16.7283 18.5786 390
      vertex 12.5 21.6506 390
    endloop
  endfacet
  facet normal 0 0 1
    outer loop
      vertex 16.7283 18.5786 390
      vertex 12.3789 13.7482 390
      vertex 14.9668 10.874 390
    endloop
  endfacet
  facet normal 0 0 1
    outer loop
      vertex 12.5 21.6506 390
      vertex 9.25 16.0215 390
      vertex 12.3789 13.7482 390
    endloop
  endfacet
  facet normal 0 0 1
    outer loop
      vertex 7.72542 23.7764 390
      vertex 9.25 16.0215 390
      vertex 12.5 21.6506 390
    endloop
  endfacet
  facet normal 0 0 1
    outer loop
      vertex 7.72542 23.7764 390
      vertex 5.71681 17.5945 390
      vertex 9.25 16.0215 390
    endloop
  endfacet
  facet normal 0 0 1
    outer loop
      vertex 2.61321 24.863 390
      vertex 5.71681 17.5945 390
      vertex 7.72542 23.7764 390
    endloop
  endfacet
  facet normal 0 0 1
    outer loop
      vertex 2.61321 24.863 390
      vertex 1.93378 18.3987 390
      vertex 5.71681 17.5945 390
    endloop
  endfacet
  facet normal 0 0 1
    outer loop
      vertex 2.61321 24.863 390
      vertex -1.93378 18.3987 390
      vertex 1.93378 18.3987 390
    endloop
  endfacet
  facet normal -0 0 1
    outer loop
      vertex -2.61321 24.863 390
      vertex -1.93378 18.3987 390
      vertex 2.61321 24.863 390
    endloop
  endfacet
  facet normal 0 0 1
    outer loop
      vertex -2.61321 24.863 390
      vertex -5.71681 17.5945 390
      vertex -1.93378 18.3987 390
    endloop
  endfacet
  facet normal -0 0 1
    outer loop
      vertex -7.72542 23.7764 390
      vertex -5.71681 17.5945 390
      vertex -2.61321 24.863 390
    endloop
  endfacet
  facet normal 0 0 1
    outer loop
      vertex -7.72542 23.7764 390
      vertex -9.25 16.0215 390
      vertex -5.71681 17.5945 390
    endloop
  endfacet
  facet normal -0 0 1
    outer loop
      vertex -12.5 21.6506 390
      vertex -9.25 16.0215 390
      vertex -7.72542 23.7764 390
    endloop
  endfacet
  facet normal 0 0 1
    outer loop
      vertex -9.25 16.0215 390
      vertex -12.5 21.6506 390
      vertex -12.3789 13.7482 390
    endloop
  endfacet
  facet normal -0 0 1
    outer loop
      vertex -16.7283 18.5786 390
      vertex -12.3789 13.7482 390
      vertex -12.5 21.6506 390
    endloop
  endfacet
  facet normal 0 0 1
    outer loop
      vertex -12.3789 13.7482 390
      vertex -16.7283 18.5786 390
      vertex -14.9668 10.874 390
    endloop
  endfacet
  facet normal -0 0 1
    outer loop
      vertex -20.2254 14.6946 390
      vertex -14.9668 10.874 390
      vertex -16.7283 18.5786 390
    endloop
  endfacet
  facet normal 0 0 1
    outer loop
      vertex -14.9668 10.874 390
      vertex -20.2254 14.6946 390
      vertex -16.9006 7.52463 390
    endloop
  endfacet
  facet normal -0 0 1
    outer loop
      vertex -22.8386 10.1684 390
      vertex -16.9006 7.52463 390
      vertex -20.2254 14.6946 390
    endloop
  endfacet
  facet normal 0 0 1
    outer loop
      vertex -16.9006 7.52463 390
      vertex -22.8386 10.1684 390
      vertex -18.0957 3.84637 390
    endloop
  endfacet
  facet normal -0 0 1
    outer loop
      vertex 16.9006 -7.52463 390
      vertex 22.8386 -10.1684 390
      vertex 18.0957 -3.84637 390
    endloop
  endfacet
  facet normal 0 0 1
    outer loop
      vertex 22.8386 -10.1684 390
      vertex 16.9006 -7.52463 390
      vertex 20.2254 -14.6946 390
    endloop
  endfacet
  facet normal -0 0 1
    outer loop
      vertex 14.9668 -10.874 390
      vertex 20.2254 -14.6946 390
      vertex 16.9006 -7.52463 390
    endloop
  endfacet
  facet normal 0 0 1
    outer loop
      vertex 20.2254 -14.6946 390
      vertex 14.9668 -10.874 390
      vertex 16.7283 -18.5786 390
    endloop
  endfacet
  facet normal -0 0 1
    outer loop
      vertex 12.3789 -13.7482 390
      vertex 16.7283 -18.5786 390
      vertex 14.9668 -10.874 390
    endloop
  endfacet
  facet normal 0 0 1
    outer loop
      vertex 16.7283 -18.5786 390
      vertex 12.3789 -13.7482 390
      vertex 12.5 -21.6506 390
    endloop
  endfacet
  facet normal -0 0 1
    outer loop
      vertex 9.25 -16.0215 390
      vertex 12.5 -21.6506 390
      vertex 12.3789 -13.7482 390
    endloop
  endfacet
  facet normal 0 0 1
    outer loop
      vertex 9.25 -16.0215 390
      vertex 7.72542 -23.7764 390
      vertex 12.5 -21.6506 390
    endloop
  endfacet
  facet normal -0 0 1
    outer loop
      vertex 5.71681 -17.5945 390
      vertex 7.72542 -23.7764 390
      vertex 9.25 -16.0215 390
    endloop
  endfacet
  facet normal 0 0 1
    outer loop
      vertex 5.71681 -17.5945 390
      vertex 2.61321 -24.863 390
      vertex 7.72542 -23.7764 390
    endloop
  endfacet
  facet normal -0 0 1
    outer loop
      vertex 1.93378 -18.3987 390
      vertex 2.61321 -24.863 390
      vertex 5.71681 -17.5945 390
    endloop
  endfacet
  facet normal -0 0 1
    outer loop
      vertex -1.93378 -18.3987 390
      vertex 2.61321 -24.863 390
      vertex 1.93378 -18.3987 390
    endloop
  endfacet
  facet normal 0 0 1
    outer loop
      vertex -1.93378 -18.3987 390
      vertex -2.61321 -24.863 390
      vertex 2.61321 -24.863 390
    endloop
  endfacet
  facet normal 0 0 1
    outer loop
      vertex -5.71681 -17.5945 390
      vertex -2.61321 -24.863 390
      vertex -1.93378 -18.3987 390
    endloop
  endfacet
  facet normal 0 0 1
    outer loop
      vertex -5.71681 -17.5945 390
      vertex -7.72542 -23.7764 390
      vertex -2.61321 -24.863 390
    endloop
  endfacet
  facet normal 0 0 1
    outer loop
      vertex -9.25 -16.0215 390
      vertex -7.72542 -23.7764 390
      vertex -5.71681 -17.5945 390
    endloop
  endfacet
  facet normal 0 0 1
    outer loop
      vertex -12.5 -21.6506 390
      vertex -9.25 -16.0215 390
      vertex -12.3789 -13.7482 390
    endloop
  endfacet
  facet normal 0 0 1
    outer loop
      vertex -9.25 -16.0215 390
      vertex -12.5 -21.6506 390
      vertex -7.72542 -23.7764 390
    endloop
  endfacet
  facet normal 0 0 1
    outer loop
      vertex -16.7283 -18.5786 390
      vertex -12.3789 -13.7482 390
      vertex -14.9668 -10.874 390
    endloop
  endfacet
  facet normal 0 0 1
    outer loop
      vertex -12.3789 -13.7482 390
      vertex -16.7283 -18.5786 390
      vertex -12.5 -21.6506 390
    endloop
  endfacet
  facet normal 0 0 1
    outer loop
      vertex -20.2254 -14.6946 390
      vertex -14.9668 -10.874 390
      vertex -16.9006 -7.52463 390
    endloop
  endfacet
  facet normal 0 0 1
    outer loop
      vertex -22.8386 -10.1684 390
      vertex -16.9006 -7.52463 390
      vertex -18.0957 -3.84637 390
    endloop
  endfacet
  facet normal 0 0 1
    outer loop
      vertex -24.4537 -5.19779 390
      vertex -18.0957 -3.84637 390
      vertex -18.5 0 390
    endloop
  endfacet
  facet normal -0 0 1
    outer loop
      vertex -24.4537 5.19779 390
      vertex -18.0957 3.84637 390
      vertex -22.8386 10.1684 390
    endloop
  endfacet
  facet normal 0 0 1
    outer loop
      vertex -14.9668 -10.874 390
      vertex -20.2254 -14.6946 390
      vertex -16.7283 -18.5786 390
    endloop
  endfacet
  facet normal 0 0 1
    outer loop
      vertex -18.0957 3.84637 390
      vertex -24.4537 5.19779 390
      vertex -18.5 0 390
    endloop
  endfacet
  facet normal 0 0 1
    outer loop
      vertex -16.9006 -7.52463 390
      vertex -22.8386 -10.1684 390
      vertex -20.2254 -14.6946 390
    endloop
  endfacet
  facet normal 0 0 1
    outer loop
      vertex -25 0 390
      vertex -18.5 0 390
      vertex -24.4537 5.19779 390
    endloop
  endfacet
  facet normal 0 0 1
    outer loop
      vertex -18.0957 -3.84637 390
      vertex -24.4537 -5.19779 390
      vertex -22.8386 -10.1684 390
    endloop
  endfacet
  facet normal 0 0 1
    outer loop
      vertex -18.5 0 390
      vertex -25 0 390
      vertex -24.4537 -5.19779 390
    endloop
  endfacet
  facet normal 0.951129 -0.308795 0
    outer loop
      vertex 24.4537 -5.19779 390
      vertex 24.4225 -5.29389 260.405
      vertex 24.4537 -5.19779 260.405
    endloop
  endfacet
  facet normal 0.951054 -0.309026 1.89096e-07
    outer loop
      vertex 22.8386 -10.1684 390
      vertex 24.4225 -5.29389 260.405
      vertex 24.4537 -5.19779 390
    endloop
  endfacet
  facet normal 0.950944 -0.309365 -1.38987e-05
    outer loop
      vertex 24.4225 -5.29389 260.405
      vertex 22.8386 -10.1684 390
      vertex 24.3634 -5.47553 259.845
    endloop
  endfacet
  facet normal 0.951006 -0.309172 3.25188e-05
    outer loop
      vertex 22.8386 -10.1684 235
      vertex 24.4537 -5.19779 259.644
      vertex 24.3634 -5.47553 259.845
    endloop
  endfacet
  facet normal 0.951057 -0.309016 0
    outer loop
      vertex 22.8386 -10.1684 235
      vertex 24.3634 -5.47553 259.845
      vertex 22.8386 -10.1684 390
    endloop
  endfacet
  facet normal 0.951054 -0.309026 0
    outer loop
      vertex 24.4537 -5.19779 259.644
      vertex 22.8386 -10.1684 235
      vertex 24.4537 -5.19779 235
    endloop
  endfacet
  facet normal 0 1 -0
    outer loop
      vertex 2.61321 24.863 235
      vertex -2.61321 24.863 390
      vertex 2.61321 24.863 390
    endloop
  endfacet
  facet normal 0 1 0
    outer loop
      vertex -2.61321 24.863 390
      vertex 2.61321 24.863 235
      vertex -2.61321 24.863 235
    endloop
  endfacet
  facet normal -0.58778 -0.809021 0
    outer loop
      vertex -16.7283 -18.5786 235
      vertex -12.5 -21.6506 390
      vertex -16.7283 -18.5786 390
    endloop
  endfacet
  facet normal -0.58778 -0.809021 -0
    outer loop
      vertex -12.5 -21.6506 390
      vertex -16.7283 -18.5786 235
      vertex -12.5 -21.6506 235
    endloop
  endfacet
  facet normal -0.866026 -0.5 0
    outer loop
      vertex -20.2254 -14.6946 235
      vertex -22.8386 -10.1684 390
      vertex -22.8386 -10.1684 235
    endloop
  endfacet
  facet normal -0.866026 -0.5 0
    outer loop
      vertex -22.8386 -10.1684 390
      vertex -20.2254 -14.6946 235
      vertex -20.2254 -14.6946 390
    endloop
  endfacet
  facet normal -0.40674 0.913544 0
    outer loop
      vertex -7.72542 23.7764 235
      vertex -12.5 21.6506 390
      vertex -7.72542 23.7764 390
    endloop
  endfacet
  facet normal -0.40674 0.913544 0
    outer loop
      vertex -12.5 21.6506 390
      vertex -7.72542 23.7764 235
      vertex -12.5 21.6506 235
    endloop
  endfacet
  facet normal -0.994522 -0.104527 0
    outer loop
      vertex -24.4537 -5.19779 235
      vertex -25 0 390
      vertex -25 0 235
    endloop
  endfacet
  facet normal -0.994522 -0.104527 0
    outer loop
      vertex -25 0 390
      vertex -24.4537 -5.19779 235
      vertex -24.4537 -5.19779 390
    endloop
  endfacet
  facet normal -0.743151 -0.669123 0
    outer loop
      vertex -16.7283 -18.5786 235
      vertex -20.2254 -14.6946 390
      vertex -20.2254 -14.6946 235
    endloop
  endfacet
  facet normal -0.743151 -0.669123 0
    outer loop
      vertex -20.2254 -14.6946 390
      vertex -16.7283 -18.5786 235
      vertex -16.7283 -18.5786 390
    endloop
  endfacet
  facet normal 0.207906 -0.978149 0
    outer loop
      vertex 2.61321 -24.863 235
      vertex 7.72542 -23.7764 390
      vertex 2.61321 -24.863 390
    endloop
  endfacet
  facet normal 0.207906 -0.978149 0
    outer loop
      vertex 7.72542 -23.7764 390
      vertex 2.61321 -24.863 235
      vertex 7.72542 -23.7764 235
    endloop
  endfacet
  facet normal -0.994522 0.104527 0
    outer loop
      vertex -25 0 235
      vertex -24.4537 5.19779 390
      vertex -24.4537 5.19779 235
    endloop
  endfacet
  facet normal -0.994522 0.104527 0
    outer loop
      vertex -24.4537 5.19779 390
      vertex -25 0 235
      vertex -25 0 390
    endloop
  endfacet
  facet normal 0.207906 0.978149 4.01744e-07
    outer loop
      vertex 7.72542 23.7764 390
      vertex 5.15451 24.3229 260.476
      vertex 2.61321 24.863 390
    endloop
  endfacet
  facet normal 0.20808 0.978112 -3.22541e-06
    outer loop
      vertex 7.72542 23.7764 390
      vertex 5.5 24.2494 260
      vertex 5.15451 24.3229 260.476
    endloop
  endfacet
  facet normal 0.208064 0.978115 1.52923e-05
    outer loop
      vertex 5.5 24.2494 260
      vertex 7.72542 23.7764 235
      vertex 5.15451 24.3229 259.524
    endloop
  endfacet
  facet normal 0.2079 0.97815 -0
    outer loop
      vertex 7.72542 23.7764 235
      vertex 5.5 24.2494 260
      vertex 7.72542 23.7764 390
    endloop
  endfacet
  facet normal 0.207873 0.978156 -2.71987e-07
    outer loop
      vertex 4.59549 24.4417 260.294
      vertex 2.61321 24.863 390
      vertex 5.15451 24.3229 260.476
    endloop
  endfacet
  facet normal 0.20789 0.978152 0
    outer loop
      vertex 2.61321 24.863 235
      vertex 4.59549 24.4417 260.294
      vertex 4.59549 24.4417 259.706
    endloop
  endfacet
  facet normal 0.207906 0.978149 -2.12182e-06
    outer loop
      vertex 2.61321 24.863 235
      vertex 5.15451 24.3229 259.524
      vertex 7.72542 23.7764 235
    endloop
  endfacet
  facet normal 0.20789 0.978152 0
    outer loop
      vertex 4.59549 24.4417 260.294
      vertex 2.61321 24.863 235
      vertex 2.61321 24.863 390
    endloop
  endfacet
  facet normal 0.207873 0.978156 1.3985e-06
    outer loop
      vertex 5.15451 24.3229 259.524
      vertex 2.61321 24.863 235
      vertex 4.59549 24.4417 259.706
    endloop
  endfacet
  facet normal 0.58778 0.809021 -0
    outer loop
      vertex 16.7283 18.5786 235
      vertex 12.5 21.6506 390
      vertex 16.7283 18.5786 390
    endloop
  endfacet
  facet normal 0.58778 0.809021 0
    outer loop
      vertex 12.5 21.6506 390
      vertex 16.7283 18.5786 235
      vertex 12.5 21.6506 235
    endloop
  endfacet
  facet normal -0.207906 0.978149 5.36267e-07
    outer loop
      vertex -2.61321 24.863 390
      vertex -4.84549 24.3886 260.476
      vertex -7.72542 23.7764 390
    endloop
  endfacet
  facet normal -0.207815 0.978168 -1.09117e-06
    outer loop
      vertex -2.61321 24.863 390
      vertex -4.5 24.462 260
      vertex -4.84549 24.3886 260.476
    endloop
  endfacet
  facet normal -0.207821 0.978167 5.24241e-06
    outer loop
      vertex -4.5 24.462 260
      vertex -2.61321 24.863 235
      vertex -4.84549 24.3886 259.524
    endloop
  endfacet
  facet normal -0.207887 0.978153 0
    outer loop
      vertex -2.61321 24.863 235
      vertex -4.5 24.462 260
      vertex -2.61321 24.863 390
    endloop
  endfacet
  facet normal -0.208039 0.97812 -2.57011e-06
    outer loop
      vertex -5.40451 24.2697 260.294
      vertex -7.72542 23.7764 390
      vertex -4.84549 24.3886 260.476
    endloop
  endfacet
  facet normal -0.207902 0.97815 0
    outer loop
      vertex -7.72542 23.7764 235
      vertex -5.40451 24.2697 260.294
      vertex -5.40451 24.2697 259.706
    endloop
  endfacet
  facet normal -0.207906 0.978149 -2.83231e-06
    outer loop
      vertex -7.72542 23.7764 235
      vertex -4.84549 24.3886 259.524
      vertex -2.61321 24.863 235
    endloop
  endfacet
  facet normal -0.207902 0.97815 0
    outer loop
      vertex -5.40451 24.2697 260.294
      vertex -7.72542 23.7764 235
      vertex -7.72542 23.7764 390
    endloop
  endfacet
  facet normal -0.208036 0.978121 1.31689e-05
    outer loop
      vertex -4.84549 24.3886 259.524
      vertex -7.72542 23.7764 235
      vertex -5.40451 24.2697 259.706
    endloop
  endfacet
  facet normal 0.40674 -0.913544 0
    outer loop
      vertex 7.72542 -23.7764 235
      vertex 12.5 -21.6506 390
      vertex 7.72542 -23.7764 390
    endloop
  endfacet
  facet normal 0.40674 -0.913544 0
    outer loop
      vertex 12.5 -21.6506 390
      vertex 7.72542 -23.7764 235
      vertex 12.5 -21.6506 235
    endloop
  endfacet
  facet normal 0 -1 0
    outer loop
      vertex -2.61321 -24.863 235
      vertex 2.61321 -24.863 390
      vertex -2.61321 -24.863 390
    endloop
  endfacet
  facet normal 0 -1 -0
    outer loop
      vertex 2.61321 -24.863 390
      vertex -2.61321 -24.863 235
      vertex 2.61321 -24.863 235
    endloop
  endfacet
  facet normal -0.207906 -0.978149 0
    outer loop
      vertex -7.72542 -23.7764 235
      vertex -2.61321 -24.863 390
      vertex -7.72542 -23.7764 390
    endloop
  endfacet
  facet normal -0.207906 -0.978149 -0
    outer loop
      vertex -2.61321 -24.863 390
      vertex -7.72542 -23.7764 235
      vertex -2.61321 -24.863 235
    endloop
  endfacet
  facet normal -0.951054 0.309026 0
    outer loop
      vertex -24.4537 5.19779 235
      vertex -22.8386 10.1684 390
      vertex -22.8386 10.1684 235
    endloop
  endfacet
  facet normal -0.951054 0.309026 0
    outer loop
      vertex -22.8386 10.1684 390
      vertex -24.4537 5.19779 235
      vertex -24.4537 5.19779 390
    endloop
  endfacet
  facet normal -0.951059 0.309008 0
    outer loop
      vertex -18.0957 3.84637 390
      vertex -16.9006 7.52463 410
      vertex -16.9006 7.52463 390
    endloop
  endfacet
  facet normal -0.951059 0.309008 0
    outer loop
      vertex -16.9006 7.52463 410
      vertex -18.0957 3.84637 390
      vertex -18.0957 3.84637 410
    endloop
  endfacet
  facet normal -0.994521 0.104536 0
    outer loop
      vertex -18.5 0 390
      vertex -18.0957 3.84637 410
      vertex -18.0957 3.84637 390
    endloop
  endfacet
  facet normal -0.994521 0.104536 0
    outer loop
      vertex -18.0957 3.84637 410
      vertex -18.5 0 390
      vertex -18.5 0 410
    endloop
  endfacet
  facet normal 0.207934 -0.978143 0
    outer loop
      vertex 1.93378 -18.3987 390
      vertex 5.71681 -17.5945 410
      vertex 1.93378 -18.3987 410
    endloop
  endfacet
  facet normal 0.207934 -0.978143 0
    outer loop
      vertex 5.71681 -17.5945 410
      vertex 1.93378 -18.3987 390
      vertex 5.71681 -17.5945 390
    endloop
  endfacet
  facet normal 0.994521 -0.104536 0
    outer loop
      vertex 18.0957 -3.84637 410
      vertex 18.5 0 390
      vertex 18.5 0 410
    endloop
  endfacet
  facet normal 0.994521 -0.104536 0
    outer loop
      vertex 18.5 0 390
      vertex 18.0957 -3.84637 410
      vertex 18.0957 -3.84637 390
    endloop
  endfacet
  facet normal 0.866021 0.500008 0
    outer loop
      vertex 16.9006 7.52463 410
      vertex 14.9668 10.874 390
      vertex 14.9668 10.874 410
    endloop
  endfacet
  facet normal 0.866021 0.500008 0
    outer loop
      vertex 14.9668 10.874 390
      vertex 16.9006 7.52463 410
      vertex 16.9006 7.52463 390
    endloop
  endfacet
  facet normal 0.866021 -0.500008 0
    outer loop
      vertex 14.9668 -10.874 410
      vertex 16.9006 -7.52463 390
      vertex 16.9006 -7.52463 410
    endloop
  endfacet
  facet normal 0.866021 -0.500008 0
    outer loop
      vertex 16.9006 -7.52463 390
      vertex 14.9668 -10.874 410
      vertex 14.9668 -10.874 390
    endloop
  endfacet
  facet normal 0 0 1
    outer loop
      vertex 18.0957 3.84637 410
      vertex 18.0957 -3.84637 410
      vertex 18.5 0 410
    endloop
  endfacet
  facet normal 0 0 1
    outer loop
      vertex 16.9006 7.52463 410
      vertex 18.0957 -3.84637 410
      vertex 18.0957 3.84637 410
    endloop
  endfacet
  facet normal 0 0 1
    outer loop
      vertex 16.9006 7.52463 410
      vertex 16.9006 -7.52463 410
      vertex 18.0957 -3.84637 410
    endloop
  endfacet
  facet normal 0 0 1
    outer loop
      vertex 14.9668 10.874 410
      vertex 16.9006 -7.52463 410
      vertex 16.9006 7.52463 410
    endloop
  endfacet
  facet normal 0 0 1
    outer loop
      vertex 14.9668 10.874 410
      vertex 14.9668 -10.874 410
      vertex 16.9006 -7.52463 410
    endloop
  endfacet
  facet normal 0 0 1
    outer loop
      vertex 12.3789 13.7482 410
      vertex 14.9668 -10.874 410
      vertex 14.9668 10.874 410
    endloop
  endfacet
  facet normal 0 0 1
    outer loop
      vertex 12.3789 13.7482 410
      vertex 12.3789 -13.7482 410
      vertex 14.9668 -10.874 410
    endloop
  endfacet
  facet normal 0 0 1
    outer loop
      vertex 9.25 16.0215 410
      vertex 12.3789 -13.7482 410
      vertex 12.3789 13.7482 410
    endloop
  endfacet
  facet normal 0 0 1
    outer loop
      vertex 9.25 16.0215 410
      vertex 9.25 -16.0215 410
      vertex 12.3789 -13.7482 410
    endloop
  endfacet
  facet normal 0 0 1
    outer loop
      vertex 5.71681 17.5945 410
      vertex 9.25 -16.0215 410
      vertex 9.25 16.0215 410
    endloop
  endfacet
  facet normal 0 0 1
    outer loop
      vertex 5.71681 17.5945 410
      vertex 5.71681 -17.5945 410
      vertex 9.25 -16.0215 410
    endloop
  endfacet
  facet normal 0 0 1
    outer loop
      vertex 1.93378 18.3987 410
      vertex 5.71681 -17.5945 410
      vertex 5.71681 17.5945 410
    endloop
  endfacet
  facet normal 0 0 1
    outer loop
      vertex 1.93378 18.3987 410
      vertex 1.93378 -18.3987 410
      vertex 5.71681 -17.5945 410
    endloop
  endfacet
  facet normal -0 0 1
    outer loop
      vertex -1.93378 18.3987 410
      vertex 1.93378 -18.3987 410
      vertex 1.93378 18.3987 410
    endloop
  endfacet
  facet normal 0 0 1
    outer loop
      vertex -1.93378 18.3987 410
      vertex -1.93378 -18.3987 410
      vertex 1.93378 -18.3987 410
    endloop
  endfacet
  facet normal -0 0 1
    outer loop
      vertex -5.71681 17.5945 410
      vertex -1.93378 -18.3987 410
      vertex -1.93378 18.3987 410
    endloop
  endfacet
  facet normal 0 0 1
    outer loop
      vertex -5.71681 17.5945 410
      vertex -5.71681 -17.5945 410
      vertex -1.93378 -18.3987 410
    endloop
  endfacet
  facet normal -0 0 1
    outer loop
      vertex -9.25 16.0215 410
      vertex -5.71681 -17.5945 410
      vertex -5.71681 17.5945 410
    endloop
  endfacet
  facet normal 0 0 1
    outer loop
      vertex -9.25 16.0215 410
      vertex -9.25 -16.0215 410
      vertex -5.71681 -17.5945 410
    endloop
  endfacet
  facet normal -0 0 1
    outer loop
      vertex -12.3789 13.7482 410
      vertex -9.25 -16.0215 410
      vertex -9.25 16.0215 410
    endloop
  endfacet
  facet normal 0 0 1
    outer loop
      vertex -12.3789 13.7482 410
      vertex -12.3789 -13.7482 410
      vertex -9.25 -16.0215 410
    endloop
  endfacet
  facet normal -0 0 1
    outer loop
      vertex -14.9668 10.874 410
      vertex -12.3789 -13.7482 410
      vertex -12.3789 13.7482 410
    endloop
  endfacet
  facet normal 0 0 1
    outer loop
      vertex -14.9668 10.874 410
      vertex -14.9668 -10.874 410
      vertex -12.3789 -13.7482 410
    endloop
  endfacet
  facet normal -0 0 1
    outer loop
      vertex -16.9006 7.52463 410
      vertex -14.9668 -10.874 410
      vertex -14.9668 10.874 410
    endloop
  endfacet
  facet normal 0 0 1
    outer loop
      vertex -16.9006 7.52463 410
      vertex -16.9006 -7.52463 410
      vertex -14.9668 -10.874 410
    endloop
  endfacet
  facet normal -0 0 1
    outer loop
      vertex -18.0957 3.84637 410
      vertex -16.9006 -7.52463 410
      vertex -16.9006 7.52463 410
    endloop
  endfacet
  facet normal 0 0 1
    outer loop
      vertex -18.0957 3.84637 410
      vertex -18.0957 -3.84637 410
      vertex -16.9006 -7.52463 410
    endloop
  endfacet
  facet normal 0 -0 1
    outer loop
      vertex -18.0957 -3.84637 410
      vertex -18.0957 3.84637 410
      vertex -18.5 0 410
    endloop
  endfacet
  facet normal 0.994521 0.104536 0
    outer loop
      vertex 18.5 0 410
      vertex 18.0957 3.84637 390
      vertex 18.0957 3.84637 410
    endloop
  endfacet
  facet normal 0.994521 0.104536 0
    outer loop
      vertex 18.0957 3.84637 390
      vertex 18.5 0 410
      vertex 18.5 0 390
    endloop
  endfacet
  facet normal 0.207934 0.978143 -0
    outer loop
      vertex 5.71681 17.5945 390
      vertex 1.93378 18.3987 410
      vertex 5.71681 17.5945 410
    endloop
  endfacet
  facet normal 0.207934 0.978143 0
    outer loop
      vertex 1.93378 18.3987 410
      vertex 5.71681 17.5945 390
      vertex 1.93378 18.3987 390
    endloop
  endfacet
  facet normal -0.951059 -0.309008 0
    outer loop
      vertex -16.9006 -7.52463 390
      vertex -18.0957 -3.84637 410
      vertex -18.0957 -3.84637 390
    endloop
  endfacet
  facet normal -0.951059 -0.309008 0
    outer loop
      vertex -18.0957 -3.84637 410
      vertex -16.9006 -7.52463 390
      vertex -16.9006 -7.52463 410
    endloop
  endfacet
  facet normal 0.951059 0.309008 0
    outer loop
      vertex 18.0957 3.84637 410
      vertex 16.9006 7.52463 390
      vertex 16.9006 7.52463 410
    endloop
  endfacet
  facet normal 0.951059 0.309008 0
    outer loop
      vertex 16.9006 7.52463 390
      vertex 18.0957 3.84637 410
      vertex 18.0957 3.84637 390
    endloop
  endfacet
  facet normal -0.207934 -0.978143 0
    outer loop
      vertex -5.71681 -17.5945 390
      vertex -1.93378 -18.3987 410
      vertex -5.71681 -17.5945 410
    endloop
  endfacet
  facet normal -0.207934 -0.978143 -0
    outer loop
      vertex -1.93378 -18.3987 410
      vertex -5.71681 -17.5945 390
      vertex -1.93378 -18.3987 390
    endloop
  endfacet
  facet normal 0.40672 -0.913553 0
    outer loop
      vertex 5.71681 -17.5945 390
      vertex 9.25 -16.0215 410
      vertex 5.71681 -17.5945 410
    endloop
  endfacet
  facet normal 0.40672 -0.913553 0
    outer loop
      vertex 9.25 -16.0215 410
      vertex 5.71681 -17.5945 390
      vertex 9.25 -16.0215 390
    endloop
  endfacet
  facet normal -0.40672 -0.913553 0
    outer loop
      vertex -9.25 -16.0215 390
      vertex -5.71681 -17.5945 410
      vertex -9.25 -16.0215 410
    endloop
  endfacet
  facet normal -0.40672 -0.913553 -0
    outer loop
      vertex -5.71681 -17.5945 410
      vertex -9.25 -16.0215 390
      vertex -5.71681 -17.5945 390
    endloop
  endfacet
  facet normal 0.40672 0.913553 -0
    outer loop
      vertex 9.25 16.0215 390
      vertex 5.71681 17.5945 410
      vertex 9.25 16.0215 410
    endloop
  endfacet
  facet normal 0.40672 0.913553 0
    outer loop
      vertex 5.71681 17.5945 410
      vertex 9.25 16.0215 390
      vertex 5.71681 17.5945 390
    endloop
  endfacet
  facet normal -0.74315 0.669125 0
    outer loop
      vertex -14.9668 10.874 390
      vertex -12.3789 13.7482 410
      vertex -12.3789 13.7482 390
    endloop
  endfacet
  facet normal -0.74315 0.669125 0
    outer loop
      vertex -12.3789 13.7482 410
      vertex -14.9668 10.874 390
      vertex -14.9668 10.874 410
    endloop
  endfacet
  facet normal -0.207934 0.978143 0
    outer loop
      vertex -1.93378 18.3987 390
      vertex -5.71681 17.5945 410
      vertex -1.93378 18.3987 410
    endloop
  endfacet
  facet normal -0.207934 0.978143 0
    outer loop
      vertex -5.71681 17.5945 410
      vertex -1.93378 18.3987 390
      vertex -5.71681 17.5945 390
    endloop
  endfacet
  facet normal 0.587789 -0.809014 0
    outer loop
      vertex 9.25 -16.0215 390
      vertex 12.3789 -13.7482 410
      vertex 9.25 -16.0215 410
    endloop
  endfacet
  facet normal 0.587789 -0.809014 0
    outer loop
      vertex 12.3789 -13.7482 410
      vertex 9.25 -16.0215 390
      vertex 12.3789 -13.7482 390
    endloop
  endfacet
  facet normal -0.587789 -0.809014 0
    outer loop
      vertex -12.3789 -13.7482 390
      vertex -9.25 -16.0215 410
      vertex -12.3789 -13.7482 410
    endloop
  endfacet
  facet normal -0.587789 -0.809014 -0
    outer loop
      vertex -9.25 -16.0215 410
      vertex -12.3789 -13.7482 390
      vertex -9.25 -16.0215 390
    endloop
  endfacet
  facet normal -0.866021 0.500008 0
    outer loop
      vertex -16.9006 7.52463 390
      vertex -14.9668 10.874 410
      vertex -14.9668 10.874 390
    endloop
  endfacet
  facet normal -0.866021 0.500008 0
    outer loop
      vertex -14.9668 10.874 410
      vertex -16.9006 7.52463 390
      vertex -16.9006 7.52463 410
    endloop
  endfacet
  facet normal 0.587789 0.809014 -0
    outer loop
      vertex 12.3789 13.7482 390
      vertex 9.25 16.0215 410
      vertex 12.3789 13.7482 410
    endloop
  endfacet
  facet normal 0.587789 0.809014 0
    outer loop
      vertex 9.25 16.0215 410
      vertex 12.3789 13.7482 390
      vertex 9.25 16.0215 390
    endloop
  endfacet
  facet normal 0.74315 0.669125 0
    outer loop
      vertex 14.9668 10.874 410
      vertex 12.3789 13.7482 390
      vertex 12.3789 13.7482 410
    endloop
  endfacet
  facet normal 0.74315 0.669125 0
    outer loop
      vertex 12.3789 13.7482 390
      vertex 14.9668 10.874 410
      vertex 14.9668 10.874 390
    endloop
  endfacet
  facet normal 0.74315 -0.669125 0
    outer loop
      vertex 12.3789 -13.7482 410
      vertex 14.9668 -10.874 390
      vertex 14.9668 -10.874 410
    endloop
  endfacet
  facet normal 0.74315 -0.669125 0
    outer loop
      vertex 14.9668 -10.874 390
      vertex 12.3789 -13.7482 410
      vertex 12.3789 -13.7482 390
    endloop
  endfacet
  facet normal -0.587789 0.809014 0
    outer loop
      vertex -9.25 16.0215 390
      vertex -12.3789 13.7482 410
      vertex -9.25 16.0215 410
    endloop
  endfacet
  facet normal -0.587789 0.809014 0
    outer loop
      vertex -12.3789 13.7482 410
      vertex -9.25 16.0215 390
      vertex -12.3789 13.7482 390
    endloop
  endfacet
  facet normal 0 -1 0
    outer loop
      vertex -1.93378 -18.3987 390
      vertex 1.93378 -18.3987 410
      vertex -1.93378 -18.3987 410
    endloop
  endfacet
  facet normal 0 -1 -0
    outer loop
      vertex 1.93378 -18.3987 410
      vertex -1.93378 -18.3987 390
      vertex 1.93378 -18.3987 390
    endloop
  endfacet
  facet normal -0.40672 0.913553 0
    outer loop
      vertex -5.71681 17.5945 390
      vertex -9.25 16.0215 410
      vertex -5.71681 17.5945 410
    endloop
  endfacet
  facet normal -0.40672 0.913553 0
    outer loop
      vertex -9.25 16.0215 410
      vertex -5.71681 17.5945 390
      vertex -9.25 16.0215 390
    endloop
  endfacet
  facet normal -0.866021 -0.500008 0
    outer loop
      vertex -14.9668 -10.874 390
      vertex -16.9006 -7.52463 410
      vertex -16.9006 -7.52463 390
    endloop
  endfacet
  facet normal -0.866021 -0.500008 0
    outer loop
      vertex -16.9006 -7.52463 410
      vertex -14.9668 -10.874 390
      vertex -14.9668 -10.874 410
    endloop
  endfacet
  facet normal -0.74315 -0.669125 0
    outer loop
      vertex -12.3789 -13.7482 390
      vertex -14.9668 -10.874 410
      vertex -14.9668 -10.874 390
    endloop
  endfacet
  facet normal -0.74315 -0.669125 0
    outer loop
      vertex -14.9668 -10.874 410
      vertex -12.3789 -13.7482 390
      vertex -12.3789 -13.7482 410
    endloop
  endfacet
  facet normal 0.951059 -0.309008 0
    outer loop
      vertex 16.9006 -7.52463 410
      vertex 18.0957 -3.84637 390
      vertex 18.0957 -3.84637 410
    endloop
  endfacet
  facet normal 0.951059 -0.309008 0
    outer loop
      vertex 18.0957 -3.84637 390
      vertex 16.9006 -7.52463 410
      vertex 16.9006 -7.52463 390
    endloop
  endfacet
  facet normal -0.994521 -0.104536 0
    outer loop
      vertex -18.0957 -3.84637 390
      vertex -18.5 0 410
      vertex -18.5 0 390
    endloop
  endfacet
  facet normal -0.994521 -0.104536 0
    outer loop
      vertex -18.5 0 410
      vertex -18.0957 -3.84637 390
      vertex -18.0957 -3.84637 410
    endloop
  endfacet
  facet normal 0 1 -0
    outer loop
      vertex 1.93378 18.3987 390
      vertex -1.93378 18.3987 410
      vertex 1.93378 18.3987 410
    endloop
  endfacet
  facet normal 0 1 0
    outer loop
      vertex -1.93378 18.3987 410
      vertex 1.93378 18.3987 390
      vertex -1.93378 18.3987 390
    endloop
  endfacet
endsolid OpenSCAD_Model
