ISO-10303-21;
HEADER;
FILE_DESCRIPTION (( 'STEP AP203' ),
    '1' );
FILE_NAME ('15275A51.step',
    '2018-02-26T16:28:48',
    ( '' ),
    ( '' ),
    'SwSTEP 2.0',
    'SolidWorks 2014',
    '' );
FILE_SCHEMA (( 'CONFIG_CONTROL_DESIGN' ));
ENDSEC;

DATA;
#1 = EDGE_CURVE ( 'NONE', #131, #401, #388, .T. ) ;
#2 = AXIS2_PLACEMENT_3D ( 'NONE', #307, #211, #251 ) ;
#3 = PERSON_AND_ORGANIZATION ( #619, #247 ) ;
#4 = EDGE_CURVE ( 'NONE', #435, #457, #255, .T. ) ;
#5 = ORIENTED_EDGE ( 'NONE', *, *, #522, .F. ) ;
#6 = DIRECTION ( 'NONE',  ( 1.000000000000000000, 0.0000000000000000000, -1.138269997360110200E-015 ) ) ;
#7 = VERTEX_POINT ( 'NONE', #53 ) ;
#8 = DIRECTION ( 'NONE',  ( -0.0000000000000000000, -1.000000000000000000, -0.0000000000000000000 ) ) ;
#9 = APPROVAL_STATUS ( 'not_yet_approved' ) ;
#10 = CARTESIAN_POINT ( 'NONE',  ( 0.08999999999999999700, 0.5000000000000000000, 0.08999999999999999700 ) ) ;
#11 = CARTESIAN_POINT ( 'NONE',  ( 0.09000000000000001100, 0.5000000000000000000, 0.05999999999999999100 ) ) ;
#12 = CARTESIAN_POINT ( 'NONE',  ( 0.08999999999999999700, 0.5000000000000000000, 0.08999999999999999700 ) ) ;
#13 = EDGE_CURVE ( 'NONE', #389, #383, #358, .T. ) ;
#14 = MECHANICAL_CONTEXT ( 'NONE', #315, 'mechanical' ) ;
#15 = APPLICATION_PROTOCOL_DEFINITION ( 'international standard', 'config_control_design', 1994, #480 ) ;
#16 = LINE ( 'NONE', #487, #186 ) ;
#17 = DIRECTION ( 'NONE',  ( 6.123233995736767300E-017, 0.0000000000000000000, -1.000000000000000000 ) ) ;
#18 = CARTESIAN_POINT ( 'NONE',  ( 0.05999999999999999100, 0.5000000000000000000, 0.6875000000000000000 ) ) ;
#19 = ORIENTED_EDGE ( 'NONE', *, *, #552, .F. ) ;
#20 = DIRECTION ( 'NONE',  ( -0.0000000000000000000, -1.000000000000000000, -0.0000000000000000000 ) ) ;
#21 = EDGE_CURVE ( 'NONE', #7, #525, #541, .T. ) ;
#22 = CC_DESIGN_PERSON_AND_ORGANIZATION_ASSIGNMENT ( #543, #151, ( #438 ) ) ;
#23 = DIRECTION ( 'NONE',  ( 0.0000000000000000000, 0.0000000000000000000, 1.000000000000000000 ) ) ;
#24 = CARTESIAN_POINT ( 'NONE',  ( 0.3006889763779524400, -8.537024980200822600E-017, 0.06000000000000004600 ) ) ;
#25 = LINE ( 'NONE', #11, #31 ) ;
#26 = CARTESIAN_POINT ( 'NONE',  ( 0.0000000000000000000, 0.5000000000000000000, 0.6875000000000000000 ) ) ;
#27 = CARTESIAN_POINT ( 'NONE',  ( 0.05999999999999999100, 0.5000000000000000000, 0.6875000000000000000 ) ) ;
#28 = EDGE_CURVE ( 'NONE', #50, #171, #56, .T. ) ;
#29 = AXIS2_PLACEMENT_3D ( 'NONE', #173, #172, #130 ) ;
#30 = CARTESIAN_POINT ( 'NONE',  ( 0.3006889763779524400, -0.08199999999999992000, 0.6875000000000000000 ) ) ;
#31 = VECTOR ( 'NONE', #263, 39.37007874015748100 ) ;
#32 = EDGE_LOOP ( 'NONE', ( #145, #126, #100, #507 ) ) ;
#33 = EDGE_CURVE ( 'NONE', #344, #273, #355, .T. ) ;
#34 = CIRCLE ( 'NONE', #79, 0.08199999999999990600 ) ;
#35 = VECTOR ( 'NONE', #361, 39.37007874015748100 ) ;
#36 = MANIFOLD_SOLID_BREP ( 'Cut-Extrude1', #395 ) ;
#37 = DIRECTION ( 'NONE',  ( 0.0000000000000000000, 0.0000000000000000000, -1.000000000000000000 ) ) ;
#38 = EDGE_CURVE ( 'NONE', #525, #7, #465, .T. ) ;
#39 = AXIS2_PLACEMENT_3D ( 'NONE', #610, #428, #155 ) ;
#40 = ORIENTED_EDGE ( 'NONE', *, *, #114, .T. ) ;
#41 = CALENDAR_DATE ( 2018, 26, 2 ) ;
#42 = VECTOR ( 'NONE', #573, 39.37007874015748100 ) ;
#43 = EDGE_LOOP ( 'NONE', ( #104, #481, #368, #331, #343, #471, #539, #460 ) ) ;
#44 = LENGTH_MEASURE_WITH_UNIT ( LENGTH_MEASURE( 0.02539999999999999900 ), #379 );
#45 = DATE_AND_TIME ( #228, #424 ) ;
#46 = ORIENTED_EDGE ( 'NONE', *, *, #598, .F. ) ;
#47 = SHAPE_DEFINITION_REPRESENTATION ( #305, #485 ) ;
#48 = AXIS2_PLACEMENT_3D ( 'NONE', #119, #274, #612 ) ;
#49 = VERTEX_POINT ( 'NONE', #257 ) ;
#50 = VERTEX_POINT ( 'NONE', #456 ) ;
#51 = LOCAL_TIME ( 10, 28, 48.00000000000000000, #407 ) ;
#52 = ORIENTED_EDGE ( 'NONE', *, *, #522, .T. ) ;
#53 = CARTESIAN_POINT ( 'NONE',  ( 0.05999999999999997700, 0.0000000000000000000, 0.2905393700787400900 ) ) ;
#54 = VERTEX_POINT ( 'NONE', #447 ) ;
#55 = VERTEX_POINT ( 'NONE', #375 ) ;
#56 = CIRCLE ( 'NONE', #298, 0.08999999999999999700 ) ;
#57 = DIRECTION ( 'NONE',  ( 0.0000000000000000000, 0.0000000000000000000, -1.000000000000000000 ) ) ;
#58 = CARTESIAN_POINT ( 'NONE',  ( 0.05999999999999999800, 0.5000000000000000000, 0.08999999999999999700 ) ) ;
#59 = SECURITY_CLASSIFICATION_LEVEL ( 'unclassified' ) ;
#60 = DIRECTION ( 'NONE',  ( 4.553079989440439100E-015, 0.0000000000000000000, -1.000000000000000000 ) ) ;
#61 = ORIENTED_EDGE ( 'NONE', *, *, #13, .F. ) ;
#62 = PERSON_AND_ORGANIZATION_ROLE ( 'design_supplier' ) ;
#63 = ORIENTED_EDGE ( 'NONE', *, *, #419, .T. ) ;
#64 = DIRECTION ( 'NONE',  ( 6.123233995736767300E-017, 0.0000000000000000000, -1.000000000000000000 ) ) ;
#65 = ORIENTED_EDGE ( 'NONE', *, *, #602, .T. ) ;
#66 = DIRECTION ( 'NONE',  ( 1.000000000000000000, -0.0000000000000000000, 4.553079989440439100E-015 ) ) ;
#67 = DIRECTION ( 'NONE',  ( -1.000000000000000000, 0.0000000000000000000, 0.0000000000000000000 ) ) ;
#68 = DIRECTION ( 'NONE',  ( 1.000000000000000000, 0.0000000000000000000, 6.123233995736766000E-017 ) ) ;
#69 = DIRECTION ( 'NONE',  ( -0.0000000000000000000, -1.000000000000000000, -0.0000000000000000000 ) ) ;
#70 = CARTESIAN_POINT ( 'NONE',  ( 0.08999999999999999700, -0.5000000000000000000, 0.08999999999999999700 ) ) ;
#71 = CARTESIAN_POINT ( 'NONE',  ( 0.08999999999999999700, 0.08199999999999990600, 0.05999999999999999100 ) ) ;
#72 = ORIENTED_EDGE ( 'NONE', *, *, #354, .T. ) ;
#73 = ORIENTED_EDGE ( 'NONE', *, *, #4, .F. ) ;
#74 = DIRECTION ( 'NONE',  ( 1.000000000000000000, -0.0000000000000000000, 6.123233995736766000E-017 ) ) ;
#75 = ORIENTED_EDGE ( 'NONE', *, *, #579, .T. ) ;
#76 = EDGE_LOOP ( 'NONE', ( #82, #409, #624, #501 ) ) ;
#77 = ORIENTED_EDGE ( 'NONE', *, *, #21, .T. ) ;
#78 = ORIENTED_EDGE ( 'NONE', *, *, #372, .F. ) ;
#79 = AXIS2_PLACEMENT_3D ( 'NONE', #496, #532, #536 ) ;
#80 = APPROVAL_PERSON_ORGANIZATION ( #81, #506, #427 ) ;
#81 = PERSON_AND_ORGANIZATION ( #619, #247 ) ;
#82 = ORIENTED_EDGE ( 'NONE', *, *, #129, .T. ) ;
#83 = EDGE_LOOP ( 'NONE', ( #113, #577, #402, #311 ) ) ;
#84 = CARTESIAN_POINT ( 'NONE',  ( 0.08999999999999999700, -0.08199999999999990600, 0.05999999999999999100 ) ) ;
#85 = AXIS2_PLACEMENT_3D ( 'NONE', #10, #69, #6 ) ;
#86 = ORIENTED_EDGE ( 'NONE', *, *, #235, .T. ) ;
#87 = ORIENTED_EDGE ( 'NONE', *, *, #406, .T. ) ;
#88 = AXIS2_PLACEMENT_3D ( 'NONE', #24, #576, #154 ) ;
#89 = ORIENTED_EDGE ( 'NONE', *, *, #587, .F. ) ;
#90 = ORIENTED_EDGE ( 'NONE', *, *, #581, .T. ) ;
#91 = DATE_AND_TIME ( #566, #444 ) ;
#92 = ORIENTED_EDGE ( 'NONE', *, *, #272, .F. ) ;
#93 = VERTEX_POINT ( 'NONE', #563 ) ;
#94 = EDGE_LOOP ( 'NONE', ( #121, #46, #72, #77 ) ) ;
#95 = ORIENTED_EDGE ( 'NONE', *, *, #618, .F. ) ;
#96 = ORIENTED_EDGE ( 'NONE', *, *, #414, .T. ) ;
#97 = APPROVAL_DATE_TIME ( #333, #506 ) ;
#98 = EDGE_LOOP ( 'NONE', ( #328, #422, #329, #19 ) ) ;
#99 = DIRECTION ( 'NONE',  ( -1.000000000000000000, 0.0000000000000000000, 0.0000000000000000000 ) ) ;
#100 = ORIENTED_EDGE ( 'NONE', *, *, #551, .F. ) ;
#101 = CARTESIAN_POINT ( 'NONE',  ( 0.05999999999999999100, -0.5000000000000000000, 0.6875000000000000000 ) ) ;
#102 = VECTOR ( 'NONE', #120, 39.37007874015748100 ) ;
#103 = PLANE ( 'NONE',  #498 ) ;
#104 = ORIENTED_EDGE ( 'NONE', *, *, #545, .F. ) ;
#105 = DIRECTION ( 'NONE',  ( 0.0000000000000000000, -0.0000000000000000000, 1.000000000000000000 ) ) ;
#106 = APPROVAL_ROLE ( '' ) ;
#107 = CARTESIAN_POINT ( 'NONE',  ( 0.3006889763779524400, 0.08199999999999992000, 0.06000000000000004600 ) ) ;
#108 = DIRECTION ( 'NONE',  ( -1.000000000000000000, 0.0000000000000000000, 0.0000000000000000000 ) ) ;
#109 = PLANE ( 'NONE',  #415 ) ;
#110 = CARTESIAN_POINT ( 'NONE',  ( -2.561107494060246800E-017, 0.0000000000000000000, 0.3725393700787401100 ) ) ;
#111 = CARTESIAN_POINT ( 'NONE',  ( 0.6156496062992122800, 0.08199999999999990600, 0.05999999999999999100 ) ) ;
#112 = DIRECTION ( 'NONE',  ( -0.0000000000000000000, -1.000000000000000000, -0.0000000000000000000 ) ) ;
#113 = ORIENTED_EDGE ( 'NONE', *, *, #504, .T. ) ;
#114 = EDGE_CURVE ( 'NONE', #140, #389, #325, .T. ) ;
#115 = ORIENTED_EDGE ( 'NONE', *, *, #28, .F. ) ;
#116 = CARTESIAN_POINT ( 'NONE',  ( -2.561107494060246800E-017, 0.0000000000000000000, 0.3725393700787401100 ) ) ;
#117 = ORIENTED_EDGE ( 'NONE', *, *, #133, .T. ) ;
#118 = VERTEX_POINT ( 'NONE', #527 ) ;
#119 = CARTESIAN_POINT ( 'NONE',  ( 0.08999999999999999700, 0.5000000000000000000, 0.08999999999999999700 ) ) ;
#120 = DIRECTION ( 'NONE',  ( 0.0000000000000000000, 0.0000000000000000000, -1.000000000000000000 ) ) ;
#121 = ORIENTED_EDGE ( 'NONE', *, *, #143, .F. ) ;
#122 = EDGE_LOOP ( 'NONE', ( #365, #124, #96, #554 ) ) ;
#123 = ORIENTED_EDGE ( 'NONE', *, *, #450, .F. ) ;
#124 = ORIENTED_EDGE ( 'NONE', *, *, #579, .F. ) ;
#125 = DIRECTION ( 'NONE',  ( -0.0000000000000000000, -1.000000000000000000, -0.0000000000000000000 ) ) ;
#126 = ORIENTED_EDGE ( 'NONE', *, *, #592, .T. ) ;
#127 = FACE_OUTER_BOUND ( 'NONE', #122, .T. ) ;
#128 = CARTESIAN_POINT ( 'NONE',  ( 0.3006889763779524400, 0.08199999999999992000, 0.6875000000000000000 ) ) ;
#129 = EDGE_CURVE ( 'NONE', #578, #344, #342, .T. ) ;
#130 = DIRECTION ( 'NONE',  ( 1.000000000000000000, 0.0000000000000000000, 0.0000000000000000000 ) ) ;
#131 = VERTEX_POINT ( 'NONE', #111 ) ;
#132 = LINE ( 'NONE', #214, #199 ) ;
#133 = EDGE_CURVE ( 'NONE', #457, #273, #25, .T. ) ;
#134 = CYLINDRICAL_SURFACE ( 'NONE', #437, 0.08199999999999990600 ) ;
#135 = ORIENTED_EDGE ( 'NONE', *, *, #504, .F. ) ;
#136 = LINE ( 'NONE', #158, #141 ) ;
#137 = CALENDAR_DATE ( 2018, 26, 2 ) ;
#138 = FACE_OUTER_BOUND ( 'NONE', #43, .T. ) ;
#139 = AXIS2_PLACEMENT_3D ( 'NONE', #210, #213, #221 ) ;
#140 = VERTEX_POINT ( 'NONE', #306 ) ;
#141 = VECTOR ( 'NONE', #259, 39.37007874015748100 ) ;
#142 = FACE_OUTER_BOUND ( 'NONE', #76, .T. ) ;
#143 = EDGE_CURVE ( 'NONE', #55, #525, #205, .T. ) ;
#144 = FACE_OUTER_BOUND ( 'NONE', #590, .T. ) ;
#145 = ORIENTED_EDGE ( 'NONE', *, *, #511, .T. ) ;
#146 = FACE_OUTER_BOUND ( 'NONE', #98, .T. ) ;
#147 = DIRECTION ( 'NONE',  ( -0.0000000000000000000, -1.000000000000000000, -0.0000000000000000000 ) ) ;
#148 = EDGE_LOOP ( 'NONE', ( #123, #245, #87, #519 ) ) ;
#149 = COORDINATED_UNIVERSAL_TIME_OFFSET ( 6, 0, .BEHIND. ) ;
#150 = DIRECTION ( 'NONE',  ( 0.0000000000000000000, 0.0000000000000000000, -1.000000000000000000 ) ) ;
#151 = PERSON_AND_ORGANIZATION_ROLE ( 'design_owner' ) ;
#152 = DIRECTION ( 'NONE',  ( 0.0000000000000000000, 0.0000000000000000000, -1.000000000000000000 ) ) ;
#153 = DIRECTION ( 'NONE',  ( -0.0000000000000000000, -1.000000000000000000, -0.0000000000000000000 ) ) ;
#154 = DIRECTION ( 'NONE',  ( -1.000000000000000000, 0.0000000000000000000, 0.0000000000000000000 ) ) ;
#155 = DIRECTION ( 'NONE',  ( -1.000000000000000000, 0.0000000000000000000, 0.0000000000000000000 ) ) ;
#156 =( CONVERSION_BASED_UNIT ( 'INCH', #44 ) LENGTH_UNIT ( ) NAMED_UNIT ( #364 ) );
#157 = CYLINDRICAL_SURFACE ( 'NONE', #585, 0.08199999999999990600 ) ;
#158 = CARTESIAN_POINT ( 'NONE',  ( 0.0000000000000000000, 0.5000000000000000000, 0.6875000000000000000 ) ) ;
#159 = FACE_BOUND ( 'NONE', #514, .T. ) ;
#160 = FACE_OUTER_BOUND ( 'NONE', #83, .T. ) ;
#161 =( NAMED_UNIT ( * ) PLANE_ANGLE_UNIT ( ) SI_UNIT ( $, .RADIAN. ) );
#162 = LINE ( 'NONE', #362, #169 ) ;
#163 = PLANE ( 'NONE',  #614 ) ;
#164 = DIRECTION ( 'NONE',  ( 0.0000000000000000000, -0.0000000000000000000, 1.000000000000000000 ) ) ;
#165 = CARTESIAN_POINT ( 'NONE',  ( -3.063212681710661700E-017, 1.004210375300829600E-017, 0.4545393700787400700 ) ) ;
#166 = DIRECTION ( 'NONE',  ( -1.000000000000000000, 0.0000000000000000000, 0.0000000000000000000 ) ) ;
#167 = ORIENTED_EDGE ( 'NONE', *, *, #38, .F. ) ;
#168 = CARTESIAN_POINT ( 'NONE',  ( 0.3006889763779524400, -0.08199999999999992000, 0.6875000000000000000 ) ) ;
#169 = VECTOR ( 'NONE', #308, 39.37007874015748100 ) ;
#170 = CIRCLE ( 'NONE', #518, 0.08199999999999990600 ) ;
#171 = VERTEX_POINT ( 'NONE', #261 ) ;
#172 = DIRECTION ( 'NONE',  ( 0.0000000000000000000, 0.0000000000000000000, 1.000000000000000000 ) ) ;
#173 = CARTESIAN_POINT ( 'NONE',  ( 0.6156496062992122800, -8.022489681379700900E-017, 0.0000000000000000000 ) ) ;
#174 = VECTOR ( 'NONE', #150, 39.37007874015748100 ) ;
#175 = FACE_OUTER_BOUND ( 'NONE', #332, .T. ) ;
#176 = PLANE ( 'NONE',  #550 ) ;
#177 = CYLINDRICAL_SURFACE ( 'NONE', #369, 0.08200000000000000300 ) ;
#178 = CARTESIAN_POINT ( 'NONE',  ( 0.8125000000000000000, 0.5000000000000000000, 0.0000000000000000000 ) ) ;
#179 = ORIENTED_EDGE ( 'NONE', *, *, #470, .T. ) ;
#180 = ORIENTED_EDGE ( 'NONE', *, *, #13, .T. ) ;
#181 = VECTOR ( 'NONE', #147, 39.37007874015748100 ) ;
#182 = LINE ( 'NONE', #607, #188 ) ;
#183 = VECTOR ( 'NONE', #495, 39.37007874015748100 ) ;
#184 = VECTOR ( 'NONE', #430, 39.37007874015748100 ) ;
#185 = LINE ( 'NONE', #538, #174 ) ;
#186 = VECTOR ( 'NONE', #323, 39.37007874015748100 ) ;
#187 = LINE ( 'NONE', #611, #183 ) ;
#188 = VECTOR ( 'NONE', #537, 39.37007874015748100 ) ;
#189 = FACE_OUTER_BOUND ( 'NONE', #94, .T. ) ;
#190 = CARTESIAN_POINT ( 'NONE',  ( 0.6156496062992122800, 0.08199999999999992000, 0.6875000000000000000 ) ) ;
#191 = LINE ( 'NONE', #600, #184 ) ;
#192 = ORIENTED_EDGE ( 'NONE', *, *, #587, .T. ) ;
#193 = VECTOR ( 'NONE', #20, 39.37007874015748100 ) ;
#194 = VERTEX_POINT ( 'NONE', #107 ) ;
#195 = FACE_OUTER_BOUND ( 'NONE', #312, .T. ) ;
#196 = PLANE ( 'NONE',  #2 ) ;
#197 = DIRECTION ( 'NONE',  ( 0.0000000000000000000, -1.000000000000000000, 0.0000000000000000000 ) ) ;
#198 = CARTESIAN_POINT ( 'NONE',  ( 0.8125000000000000000, 0.5000000000000000000, 0.0000000000000000000 ) ) ;
#199 = VECTOR ( 'NONE', #571, 39.37007874015748100 ) ;
#200 = VECTOR ( 'NONE', #57, 39.37007874015748100 ) ;
#201 = DIRECTION ( 'NONE',  ( 0.0000000000000000000, 0.0000000000000000000, 1.000000000000000000 ) ) ;
#202 = LINE ( 'NONE', #26, #193 ) ;
#203 = CARTESIAN_POINT ( 'NONE',  ( 0.8124999999999997800, -0.5000000000000000000, 0.05999999999999999100 ) ) ;
#204 = COORDINATED_UNIVERSAL_TIME_OFFSET ( 6, 0, .BEHIND. ) ;
#205 = LINE ( 'NONE', #165, #35 ) ;
#206 = FACE_OUTER_BOUND ( 'NONE', #387, .T. ) ;
#207 = FACE_OUTER_BOUND ( 'NONE', #148, .T. ) ;
#208 = DIRECTION ( 'NONE',  ( -0.0000000000000000000, 1.000000000000000000, 0.0000000000000000000 ) ) ;
#209 = CARTESIAN_POINT ( 'NONE',  ( 0.0000000000000000000, 0.0000000000000000000, 0.0000000000000000000 ) ) ;
#210 = CARTESIAN_POINT ( 'NONE',  ( 0.05999999999999996300, 0.0000000000000000000, 0.3725393700787401100 ) ) ;
#211 = DIRECTION ( 'NONE',  ( 0.0000000000000000000, 0.0000000000000000000, -1.000000000000000000 ) ) ;
#212 = CARTESIAN_POINT ( 'NONE',  ( 0.0000000000000000000, -0.5000000000000000000, 0.08999999999999999700 ) ) ;
#213 = DIRECTION ( 'NONE',  ( 1.000000000000000000, 0.0000000000000000000, 6.123233995736766000E-017 ) ) ;
#214 = CARTESIAN_POINT ( 'NONE',  ( 0.8125000000000000000, 0.5000000000000000000, 0.0000000000000000000 ) ) ;
#215 = LINE ( 'NONE', #421, #200 ) ;
#216 = CYLINDRICAL_SURFACE ( 'NONE', #477, 0.02999999999999999500 ) ;
#217 = ORIENTED_EDGE ( 'NONE', *, *, #276, .F. ) ;
#218 = VECTOR ( 'NONE', #219, 39.37007874015748100 ) ;
#219 = DIRECTION ( 'NONE',  ( -0.0000000000000000000, -1.000000000000000000, -0.0000000000000000000 ) ) ;
#220 = LINE ( 'NONE', #267, #218 ) ;
#221 = DIRECTION ( 'NONE',  ( 1.041100607341563700E-016, 0.0000000000000000000, -1.000000000000000000 ) ) ;
#222 = FACE_OUTER_BOUND ( 'NONE', #396, .T. ) ;
#223 = DIRECTION ( 'NONE',  ( -0.0000000000000000000, -1.000000000000000000, -0.0000000000000000000 ) ) ;
#224 = CYLINDRICAL_SURFACE ( 'NONE', #391, 0.08199999999999990600 ) ;
#225 = FACE_OUTER_BOUND ( 'NONE', #370, .T. ) ;
#226 = DIRECTION ( 'NONE',  ( 1.000000000000000000, 0.0000000000000000000, 0.0000000000000000000 ) ) ;
#227 = FACE_BOUND ( 'NONE', #363, .T. ) ;
#228 = CALENDAR_DATE ( 2018, 26, 2 ) ;
#229 = VECTOR ( 'NONE', #67, 39.37007874015748100 ) ;
#230 = CARTESIAN_POINT ( 'NONE',  ( 0.8125000000000000000, 0.5000000000000000000, 0.0000000000000000000 ) ) ;
#231 = VECTOR ( 'NONE', #223, 39.37007874015748100 ) ;
#232 = ORIENTED_EDGE ( 'NONE', *, *, #28, .T. ) ;
#233 = CIRCLE ( 'NONE', #347, 0.08199999999999990600 ) ;
#234 = CIRCLE ( 'NONE', #29, 0.08199999999999997600 ) ;
#235 = EDGE_CURVE ( 'NONE', #54, #383, #34, .T. ) ;
#236 = FACE_OUTER_BOUND ( 'NONE', #404, .T. ) ;
#237 = FACE_OUTER_BOUND ( 'NONE', #32, .T. ) ;
#238 = CYLINDRICAL_SURFACE ( 'NONE', #48, 0.08999999999999999700 ) ;
#239 = FACE_BOUND ( 'NONE', #512, .T. ) ;
#240 = LINE ( 'NONE', #71, #229 ) ;
#241 = EDGE_CURVE ( 'NONE', #383, #346, #16, .T. ) ;
#242 = LINE ( 'NONE', #616, #250 ) ;
#243 = LINE ( 'NONE', #385, #231 ) ;
#244 = EDGE_LOOP ( 'NONE', ( #381, #348, #89, #117 ) ) ;
#245 = ORIENTED_EDGE ( 'NONE', *, *, #419, .F. ) ;
#246 = PERSON_AND_ORGANIZATION ( #619, #247 ) ;
#247 = ORGANIZATION ( 'UNSPECIFIED', 'UNSPECIFIED', '' ) ;
#248 = CARTESIAN_POINT ( 'NONE',  ( 0.6156496062992122800, -0.08200000000000000300, 0.0000000000000000000 ) ) ;
#249 = LINE ( 'NONE', #613, #277 ) ;
#250 = VECTOR ( 'NONE', #226, 39.37007874015748100 ) ;
#251 = DIRECTION ( 'NONE',  ( -1.000000000000000000, 0.0000000000000000000, -0.0000000000000000000 ) ) ;
#252 = EDGE_CURVE ( 'NONE', #49, #366, #191, .T. ) ;
#253 = VECTOR ( 'NONE', #466, 39.37007874015748100 ) ;
#254 = DIRECTION ( 'NONE',  ( 1.000000000000000000, -0.0000000000000000000, 6.123233995736766000E-017 ) ) ;
#255 = CIRCLE ( 'NONE', #85, 0.02999999999999998800 ) ;
#256 = CYLINDRICAL_SURFACE ( 'NONE', #321, 0.08200000000000000300 ) ;
#257 = CARTESIAN_POINT ( 'NONE',  ( 0.09000000000000001100, -0.5000000000000000000, 0.0000000000000000000 ) ) ;
#258 = LINE ( 'NONE', #464, #266 ) ;
#259 = DIRECTION ( 'NONE',  ( 0.0000000000000000000, 0.0000000000000000000, -1.000000000000000000 ) ) ;
#260 = CARTESIAN_POINT ( 'NONE',  ( 0.08999999999999999700, 0.5000000000000000000, 0.08999999999999999700 ) ) ;
#261 = CARTESIAN_POINT ( 'NONE',  ( 0.09000000000000001100, 0.5000000000000000000, 0.0000000000000000000 ) ) ;
#262 = EDGE_CURVE ( 'NONE', #118, #578, #459, .T. ) ;
#263 = DIRECTION ( 'NONE',  ( -0.0000000000000000000, -1.000000000000000000, -0.0000000000000000000 ) ) ;
#264 = DIRECTION ( 'NONE',  ( -0.0000000000000000000, -0.0000000000000000000, 1.000000000000000000 ) ) ;
#265 = FACE_OUTER_BOUND ( 'NONE', #244, .T. ) ;
#266 = VECTOR ( 'NONE', #37, 39.37007874015748100 ) ;
#267 = CARTESIAN_POINT ( 'NONE',  ( 0.0000000000000000000, 0.5000000000000000000, 0.08999999999999999700 ) ) ;
#268 = DIRECTION ( 'NONE',  ( -1.000000000000000000, 0.0000000000000000000, 0.0000000000000000000 ) ) ;
#269 = LINE ( 'NONE', #544, #253 ) ;
#270 = CARTESIAN_POINT ( 'NONE',  ( 0.6156496062992122800, -8.022489681379700900E-017, 0.06000000000000004600 ) ) ;
#271 = LINE ( 'NONE', #178, #287 ) ;
#272 = EDGE_CURVE ( 'NONE', #171, #564, #187, .T. ) ;
#273 = VERTEX_POINT ( 'NONE', #597 ) ;
#274 = DIRECTION ( 'NONE',  ( -0.0000000000000000000, -1.000000000000000000, -0.0000000000000000000 ) ) ;
#275 = DIRECTION ( 'NONE',  ( -1.000000000000000000, 0.0000000000000000000, 0.0000000000000000000 ) ) ;
#276 = EDGE_CURVE ( 'NONE', #140, #54, #185, .T. ) ;
#277 = VECTOR ( 'NONE', #340, 39.37007874015748100 ) ;
#278 = LINE ( 'NONE', #128, #301 ) ;
#279 = LINE ( 'NONE', #338, #281 ) ;
#280 = VECTOR ( 'NONE', #580, 39.37007874015748100 ) ;
#281 = VECTOR ( 'NONE', #282, 39.37007874015748100 ) ;
#282 = DIRECTION ( 'NONE',  ( 0.0000000000000000000, 0.0000000000000000000, -1.000000000000000000 ) ) ;
#283 = EDGE_CURVE ( 'NONE', #578, #400, #182, .T. ) ;
#284 = VECTOR ( 'NONE', #569, 39.37007874015748100 ) ;
#285 = LINE ( 'NONE', #84, #280 ) ;
#286 = CARTESIAN_POINT ( 'NONE',  ( 0.05999999999999995600, 1.004210375300830000E-017, 0.4545393700787400700 ) ) ;
#287 = VECTOR ( 'NONE', #125, 39.37007874015748100 ) ;
#288 = EDGE_CURVE ( 'NONE', #303, #131, #170, .T. ) ;
#289 = CIRCLE ( 'NONE', #491, 0.08200000000000000300 ) ;
#290 = LINE ( 'NONE', #374, #284 ) ;
#291 = ORIENTED_EDGE ( 'NONE', *, *, #511, .F. ) ;
#292 = LINE ( 'NONE', #319, #295 ) ;
#293 = LINE ( 'NONE', #360, #181 ) ;
#294 = CIRCLE ( 'NONE', #330, 0.08200000000000000300 ) ;
#295 = VECTOR ( 'NONE', #153, 39.37007874015748100 ) ;
#296 = PERSON_AND_ORGANIZATION ( #619, #247 ) ;
#297 = EDGE_CURVE ( 'NONE', #324, #412, #293, .T. ) ;
#298 = AXIS2_PLACEMENT_3D ( 'NONE', #316, #327, #367 ) ;
#299 = LINE ( 'NONE', #18, #337 ) ;
#300 = CARTESIAN_POINT ( 'NONE',  ( 0.6156496062992122800, -8.022489681379700900E-017, 0.6875000000000000000 ) ) ;
#301 = VECTOR ( 'NONE', #531, 39.37007874015748100 ) ;
#302 = DATE_AND_TIME ( #384, #625 ) ;
#303 = VERTEX_POINT ( 'NONE', #488 ) ;
#304 = VECTOR ( 'NONE', #606, 39.37007874015748100 ) ;
#305 = PRODUCT_DEFINITION_SHAPE ( 'NONE', 'NONE',  #410 ) ;
#306 = CARTESIAN_POINT ( 'NONE',  ( 0.2186889763779525400, -8.537024980200822600E-017, 0.06000000000000004600 ) ) ;
#307 = CARTESIAN_POINT ( 'NONE',  ( 0.08999999999999999700, 0.5000000000000000000, 0.0000000000000000000 ) ) ;
#308 = DIRECTION ( 'NONE',  ( 1.000000000000000000, -0.0000000000000000000, 6.123233995736766000E-017 ) ) ;
#309 = PERSON_AND_ORGANIZATION_ROLE ( 'creator' ) ;
#310 = ORIENTED_EDGE ( 'NONE', *, *, #406, .F. ) ;
#311 = ORIENTED_EDGE ( 'NONE', *, *, #592, .F. ) ;
#312 = EDGE_LOOP ( 'NONE', ( #192, #345, #92, #115, #310, #390, #90, #472 ) ) ;
#313 = AXIS2_PLACEMENT_3D ( 'NONE', #433, #492, #201 ) ;
#314 = ORIENTED_EDGE ( 'NONE', *, *, #33, .T. ) ;
#315 = APPLICATION_CONTEXT ( 'configuration controlled 3d designs of mechanical parts and assemblies' ) ;
#316 = CARTESIAN_POINT ( 'NONE',  ( 0.08999999999999999700, 0.5000000000000000000, 0.08999999999999999700 ) ) ;
#317 = DIRECTION ( 'NONE',  ( 0.0000000000000000000, 0.0000000000000000000, 1.000000000000000000 ) ) ;
#318 = APPROVAL_STATUS ( 'not_yet_approved' ) ;
#319 = CARTESIAN_POINT ( 'NONE',  ( 0.05999999999999999800, 0.5000000000000000000, 0.08999999999999999700 ) ) ;
#320 = CARTESIAN_POINT ( 'NONE',  ( 0.6156496062992122800, 0.08199999999999992000, 0.0000000000000000000 ) ) ;
#321 = AXIS2_PLACEMENT_3D ( 'NONE', #486, #74, #17 ) ;
#322 = CARTESIAN_POINT ( 'NONE',  ( 0.09000000000000001100, 0.5000000000000000000, 0.05999999999999999100 ) ) ;
#323 = DIRECTION ( 'NONE',  ( 1.000000000000000000, 0.0000000000000000000, 0.0000000000000000000 ) ) ;
#324 = VERTEX_POINT ( 'NONE', #523 ) ;
#325 = CIRCLE ( 'NONE', #88, 0.08199999999999990600 ) ;
#326 = DIRECTION ( 'NONE',  ( 1.000000000000000000, 0.0000000000000000000, 0.0000000000000000000 ) ) ;
#327 = DIRECTION ( 'NONE',  ( 0.0000000000000000000, -1.000000000000000000, -0.0000000000000000000 ) ) ;
#328 = ORIENTED_EDGE ( 'NONE', *, *, #288, .T. ) ;
#329 = ORIENTED_EDGE ( 'NONE', *, *, #574, .F. ) ;
#330 = AXIS2_PLACEMENT_3D ( 'NONE', #116, #605, #64 ) ;
#331 = ORIENTED_EDGE ( 'NONE', *, *, #283, .T. ) ;
#332 = EDGE_LOOP ( 'NONE', ( #469, #5, #567, #75 ) ) ;
#333 = DATE_AND_TIME ( #137, #604 ) ;
#334 = ORIENTED_EDGE ( 'NONE', *, *, #622, .T. ) ;
#335 = CARTESIAN_POINT ( 'NONE',  ( 0.05999999999999999100, -0.5000000000000000000, 0.6875000000000000000 ) ) ;
#336 = ORIENTED_EDGE ( 'NONE', *, *, #21, .F. ) ;
#337 = VECTOR ( 'NONE', #268, 39.37007874015748100 ) ;
#338 = CARTESIAN_POINT ( 'NONE',  ( 0.6156496062992122800, -0.08200000000000000300, 0.6875000000000000000 ) ) ;
#339 =( GEOMETRIC_REPRESENTATION_CONTEXT ( 3 ) GLOBAL_UNCERTAINTY_ASSIGNED_CONTEXT ( ( #621 ) ) GLOBAL_UNIT_ASSIGNED_CONTEXT ( ( #156, #161, #562 ) ) REPRESENTATION_CONTEXT ( 'NONE', 'WORKASPACE' ) );
#340 = DIRECTION ( 'NONE',  ( -1.000000000000000000, -0.0000000000000000000, -0.0000000000000000000 ) ) ;
#341 = AXIS2_PLACEMENT_3D ( 'NONE', #382, #426, #441 ) ;
#342 = LINE ( 'NONE', #101, #42 ) ;
#343 = ORIENTED_EDGE ( 'NONE', *, *, #450, .T. ) ;
#344 = VERTEX_POINT ( 'NONE', #371 ) ;
#345 = ORIENTED_EDGE ( 'NONE', *, *, #414, .F. ) ;
#346 = VERTEX_POINT ( 'NONE', #248 ) ;
#347 = AXIS2_PLACEMENT_3D ( 'NONE', #561, #23, #326 ) ;
#348 = ORIENTED_EDGE ( 'NONE', *, *, #297, .F. ) ;
#349 = ORIENTED_EDGE ( 'NONE', *, *, #262, .F. ) ;
#350 = ORIENTED_EDGE ( 'NONE', *, *, #618, .T. ) ;
#351 = PERSON_AND_ORGANIZATION ( #619, #247 ) ;
#352 = ORIENTED_EDGE ( 'NONE', *, *, #283, .F. ) ;
#353 = CC_DESIGN_DATE_AND_TIME_ASSIGNMENT ( #302, #556, ( #410 ) ) ;
#354 = EDGE_CURVE ( 'NONE', #420, #7, #162, .T. ) ;
#355 = CIRCLE ( 'NONE', #341, 0.02999999999999998800 ) ;
#356 = FACE_OUTER_BOUND ( 'NONE', #413, .T. ) ;
#357 = DATE_AND_TIME ( #41, #51 ) ;
#358 = LINE ( 'NONE', #30, #102 ) ;
#359 = AXIS2_PLACEMENT_3D ( 'NONE', #497, #528, #533 ) ;
#360 = CARTESIAN_POINT ( 'NONE',  ( 0.8124999999999997800, 0.5000000000000000000, 0.05999999999999999100 ) ) ;
#361 = DIRECTION ( 'NONE',  ( 1.000000000000000000, -0.0000000000000000000, 6.123233995736766000E-017 ) ) ;
#362 = CARTESIAN_POINT ( 'NONE',  ( -2.059002306409831800E-017, 0.0000000000000000000, 0.2905393700787400900 ) ) ;
#363 = EDGE_LOOP ( 'NONE', ( #524, #350 ) ) ;
#364 = DIMENSIONAL_EXPONENTS ( 1.000000000000000000, 0.0000000000000000000, 0.0000000000000000000, 0.0000000000000000000, 0.0000000000000000000, 0.0000000000000000000, 0.0000000000000000000 ) ;
#365 = ORIENTED_EDGE ( 'NONE', *, *, #549, .F. ) ;
#366 = VERTEX_POINT ( 'NONE', #434 ) ;
#367 = DIRECTION ( 'NONE',  ( 0.0000000000000000000, 0.0000000000000000000, 1.000000000000000000 ) ) ;
#368 = ORIENTED_EDGE ( 'NONE', *, *, #129, .F. ) ;
#369 = AXIS2_PLACEMENT_3D ( 'NONE', #526, #254, #440 ) ;
#370 = EDGE_LOOP ( 'NONE', ( #352, #349, #65, #63 ) ) ;
#371 = CARTESIAN_POINT ( 'NONE',  ( 0.05999999999999999800, -0.5000000000000000000, 0.08999999999999999700 ) ) ;
#372 = EDGE_CURVE ( 'NONE', #476, #49, #521, .T. ) ;
#373 = CC_DESIGN_APPROVAL ( #506, ( #410 ) ) ;
#374 = CARTESIAN_POINT ( 'NONE',  ( 0.08999999999999999700, 0.5000000000000000000, 0.05999999999999999100 ) ) ;
#375 = CARTESIAN_POINT ( 'NONE',  ( -3.063212681710661100E-017, 1.004210375300830000E-017, 0.4545393700787400700 ) ) ;
#376 = DIRECTION ( 'NONE',  ( -1.000000000000000000, 0.0000000000000000000, 0.0000000000000000000 ) ) ;
#377 = ADVANCED_FACE ( 'NONE', ( #146 ), #157, .F. ) ;
#378 = ADVANCED_FACE ( 'NONE', ( #160 ), #134, .F. ) ;
#379 =( LENGTH_UNIT ( ) NAMED_UNIT ( * ) SI_UNIT ( $, .METRE. ) );
#380 = PLANE ( 'NONE',  #542 ) ;
#381 = ORIENTED_EDGE ( 'NONE', *, *, #545, .T. ) ;
#382 = CARTESIAN_POINT ( 'NONE',  ( 0.08999999999999999700, -0.5000000000000000000, 0.08999999999999999700 ) ) ;
#383 = VERTEX_POINT ( 'NONE', #560 ) ;
#384 = CALENDAR_DATE ( 2018, 26, 2 ) ;
#385 = CARTESIAN_POINT ( 'NONE',  ( 0.09000000000000001100, 0.5000000000000000000, 0.0000000000000000000 ) ) ;
#386 = DESIGN_CONTEXT ( 'detailed design', #480, 'design' ) ;
#387 = EDGE_LOOP ( 'NONE', ( #314, #425, #73, #334 ) ) ;
#388 = LINE ( 'NONE', #190, #546 ) ;
#389 = VERTEX_POINT ( 'NONE', #540 ) ;
#390 = ORIENTED_EDGE ( 'NONE', *, *, #602, .F. ) ;
#391 = AXIS2_PLACEMENT_3D ( 'NONE', #499, #445, #166 ) ;
#392 = ORIENTED_EDGE ( 'NONE', *, *, #354, .F. ) ;
#393 = CARTESIAN_POINT ( 'NONE',  ( 0.08999999999999999700, 0.5000000000000000000, 0.05999999999999999100 ) ) ;
#394 = ADVANCED_FACE ( 'NONE', ( #159, #142 ), #555, .F. ) ;
#395 = CLOSED_SHELL ( 'NONE', ( #378, #452, #530, #408, #418, #490, #468, #510, #394, #451, #439, #416, #513, #458, #475, #377, #479 ) ) ;
#396 = EDGE_LOOP ( 'NONE', ( #95, #583, #403, #392 ) ) ;
#397 = COORDINATED_UNIVERSAL_TIME_OFFSET ( 6, 0, .BEHIND. ) ;
#398 = ORIENTED_EDGE ( 'NONE', *, *, #241, .F. ) ;
#399 = APPROVAL_DATE_TIME ( #45, #568 ) ;
#400 = VERTEX_POINT ( 'NONE', #601 ) ;
#401 = VERTEX_POINT ( 'NONE', #320 ) ;
#402 = ORIENTED_EDGE ( 'NONE', *, *, #470, .F. ) ;
#403 = ORIENTED_EDGE ( 'NONE', *, *, #38, .T. ) ;
#404 = EDGE_LOOP ( 'NONE', ( #78, #505, #232, #52 ) ) ;
#405 = ORIENTED_EDGE ( 'NONE', *, *, #584, .F. ) ;
#406 = EDGE_CURVE ( 'NONE', #93, #50, #136, .T. ) ;
#407 = COORDINATED_UNIVERSAL_TIME_OFFSET ( 6, 0, .BEHIND. ) ;
#408 = ADVANCED_FACE ( 'NONE', ( #175, #502 ), #196, .T. ) ;
#409 = ORIENTED_EDGE ( 'NONE', *, *, #622, .F. ) ;
#410 = PRODUCT_DEFINITION ( 'UNKNOWN', '', #623, #386 ) ;
#411 = ORIENTED_EDGE ( 'NONE', *, *, #552, .T. ) ;
#412 = VERTEX_POINT ( 'NONE', #203 ) ;
#413 = EDGE_LOOP ( 'NONE', ( #591, #411, #398, #61 ) ) ;
#414 = EDGE_CURVE ( 'NONE', #564, #324, #132, .T. ) ;
#415 = AXIS2_PLACEMENT_3D ( 'NONE', #27, #164, #503 ) ;
#416 = ADVANCED_FACE ( 'NONE', ( #138 ), #380, .T. ) ;
#417 = PERSON_AND_ORGANIZATION ( #619, #247 ) ;
#418 = ADVANCED_FACE ( 'NONE', ( #127 ), #103, .T. ) ;
#419 = EDGE_CURVE ( 'NONE', #93, #400, #202, .T. ) ;
#420 = VERTEX_POINT ( 'NONE', #535 ) ;
#421 = CARTESIAN_POINT ( 'NONE',  ( 0.0000000000000000000, -0.5000000000000000000, 0.6875000000000000000 ) ) ;
#422 = ORIENTED_EDGE ( 'NONE', *, *, #1, .T. ) ;
#423 = DIRECTION ( 'NONE',  ( -0.0000000000000000000, -1.000000000000000000, -0.0000000000000000000 ) ) ;
#424 = LOCAL_TIME ( 10, 28, 48.00000000000000000, #520 ) ;
#425 = ORIENTED_EDGE ( 'NONE', *, *, #133, .F. ) ;
#426 = DIRECTION ( 'NONE',  ( -0.0000000000000000000, -1.000000000000000000, -0.0000000000000000000 ) ) ;
#427 = APPROVAL_ROLE ( '' ) ;
#428 = DIRECTION ( 'NONE',  ( -0.0000000000000000000, -0.0000000000000000000, 1.000000000000000000 ) ) ;
#429 = APPLICATION_PROTOCOL_DEFINITION ( 'international standard', 'config_control_design', 1994, #315 ) ;
#430 = DIRECTION ( 'NONE',  ( 1.000000000000000000, 0.0000000000000000000, 0.0000000000000000000 ) ) ;
#431 = CARTESIAN_POINT ( 'NONE',  ( 0.08999999999999999700, -0.5000000000000000000, 0.08999999999999999700 ) ) ;
#432 = PERSON_AND_ORGANIZATION_ROLE ( 'creator' ) ;
#433 = CARTESIAN_POINT ( 'NONE',  ( 0.0000000000000000000, 0.5000000000000000000, 0.6875000000000000000 ) ) ;
#434 = CARTESIAN_POINT ( 'NONE',  ( 0.8125000000000000000, -0.5000000000000000000, 0.0000000000000000000 ) ) ;
#435 = VERTEX_POINT ( 'NONE', #58 ) ;
#436 = APPROVAL_STATUS ( 'not_yet_approved' ) ;
#437 = AXIS2_PLACEMENT_3D ( 'NONE', #449, #484, #376 ) ;
#438 = PRODUCT ( '15275A51', '15275A51', '', ( #14 ) ) ;
#439 = ADVANCED_FACE ( 'NONE', ( #195 ), #163, .F. ) ;
#440 = DIRECTION ( 'NONE',  ( 6.123233995736767300E-017, 0.0000000000000000000, -1.000000000000000000 ) ) ;
#441 = DIRECTION ( 'NONE',  ( 1.000000000000000000, 0.0000000000000000000, -1.138269997360110200E-015 ) ) ;
#442 = DIRECTION ( 'NONE',  ( 0.0000000000000000000, 0.0000000000000000000, -1.000000000000000000 ) ) ;
#443 = ORIENTED_EDGE ( 'NONE', *, *, #241, .T. ) ;
#444 = LOCAL_TIME ( 10, 28, 48.00000000000000000, #149 ) ;
#445 = DIRECTION ( 'NONE',  ( 0.0000000000000000000, 0.0000000000000000000, -1.000000000000000000 ) ) ;
#446 = DIRECTION ( 'NONE',  ( 6.123233995736767300E-017, 0.0000000000000000000, -1.000000000000000000 ) ) ;
#447 = CARTESIAN_POINT ( 'NONE',  ( 0.2186889763779525400, -8.537024980200822600E-017, 0.0000000000000000000 ) ) ;
#448 = APPROVAL_PERSON_ORGANIZATION ( #246, #568, #489 ) ;
#449 = CARTESIAN_POINT ( 'NONE',  ( 0.3006889763779524400, -8.537024980200822600E-017, 0.6875000000000000000 ) ) ;
#450 = EDGE_CURVE ( 'NONE', #400, #476, #215, .T. ) ;
#451 = ADVANCED_FACE ( 'NONE', ( #206 ), #216, .F. ) ;
#452 = ADVANCED_FACE ( 'NONE', ( #222 ), #177, .F. ) ;
#453 = PLANE ( 'NONE',  #313 ) ;
#454 = CARTESIAN_POINT ( 'NONE',  ( 0.05999999999999999100, 0.5000000000000000000, 0.6875000000000000000 ) ) ;
#455 = DIRECTION ( 'NONE',  ( 0.0000000000000000000, -0.0000000000000000000, -1.000000000000000000 ) ) ;
#456 = CARTESIAN_POINT ( 'NONE',  ( 0.0000000000000000000, 0.5000000000000000000, 0.08999999999999999700 ) ) ;
#457 = VERTEX_POINT ( 'NONE', #322 ) ;
#458 = ADVANCED_FACE ( 'NONE', ( #144 ), #224, .F. ) ;
#459 = LINE ( 'NONE', #454, #304 ) ;
#460 = ORIENTED_EDGE ( 'NONE', *, *, #549, .T. ) ;
#461 = ORIENTED_EDGE ( 'NONE', *, *, #235, .F. ) ;
#462 = EDGE_CURVE ( 'NONE', #50, #476, #220, .T. ) ;
#463 = CC_DESIGN_PERSON_AND_ORGANIZATION_ASSIGNMENT ( #351, #432, ( #410 ) ) ;
#464 = CARTESIAN_POINT ( 'NONE',  ( 0.05999999999999999100, 0.5000000000000000000, 0.6875000000000000000 ) ) ;
#465 = CIRCLE ( 'NONE', #595, 0.08200000000000000300 ) ;
#466 = DIRECTION ( 'NONE',  ( -4.553079989440439100E-015, 0.0000000000000000000, 1.000000000000000000 ) ) ;
#467 = CIRCLE ( 'NONE', #39, 0.08199999999999990600 ) ;
#468 = ADVANCED_FACE ( 'NONE', ( #227, #207 ), #453, .T. ) ;
#469 = ORIENTED_EDGE ( 'NONE', *, *, #252, .F. ) ;
#470 = EDGE_CURVE ( 'NONE', #548, #54, #233, .T. ) ;
#471 = ORIENTED_EDGE ( 'NONE', *, *, #372, .T. ) ;
#472 = ORIENTED_EDGE ( 'NONE', *, *, #4, .T. ) ;
#473 = ORIENTED_EDGE ( 'NONE', *, *, #114, .F. ) ;
#474 = ORIENTED_EDGE ( 'NONE', *, *, #288, .F. ) ;
#475 = ADVANCED_FACE ( 'NONE', ( #356 ), #572, .T. ) ;
#476 = VERTEX_POINT ( 'NONE', #212 ) ;
#477 = AXIS2_PLACEMENT_3D ( 'NONE', #260, #423, #603 ) ;
#478 = DIRECTION ( 'NONE',  ( 0.0000000000000000000, -1.000000000000000000, -0.0000000000000000000 ) ) ;
#479 = ADVANCED_FACE ( 'NONE', ( #237 ), #534, .T. ) ;
#480 = APPLICATION_CONTEXT ( 'configuration controlled 3d designs of mechanical parts and assemblies' ) ;
#481 = ORIENTED_EDGE ( 'NONE', *, *, #33, .F. ) ;
#482 = CARTESIAN_POINT ( 'NONE',  ( 0.05999999999999996300, 0.0000000000000000000, 0.3725393700787401100 ) ) ;
#483 = AXIS2_PLACEMENT_3D ( 'NONE', #209, #493, #558 ) ;
#484 = DIRECTION ( 'NONE',  ( 0.0000000000000000000, 0.0000000000000000000, -1.000000000000000000 ) ) ;
#485 = ADVANCED_BREP_SHAPE_REPRESENTATION ( '15275A51', ( #36, #483 ), #339 ) ;
#486 = CARTESIAN_POINT ( 'NONE',  ( -2.561107494060246800E-017, 0.0000000000000000000, 0.3725393700787401100 ) ) ;
#487 = CARTESIAN_POINT ( 'NONE',  ( 0.3006889763779524400, -0.08199999999999992000, 0.0000000000000000000 ) ) ;
#488 = CARTESIAN_POINT ( 'NONE',  ( 0.6156496062992122800, -0.08200000000000000300, 0.06000000000000004600 ) ) ;
#489 = APPROVAL_ROLE ( '' ) ;
#490 = ADVANCED_FACE ( 'NONE', ( #236 ), #238, .T. ) ;
#491 = AXIS2_PLACEMENT_3D ( 'NONE', #110, #68, #446 ) ;
#492 = DIRECTION ( 'NONE',  ( -1.000000000000000000, 0.0000000000000000000, 0.0000000000000000000 ) ) ;
#493 = DIRECTION ( 'NONE',  ( 0.0000000000000000000, 0.0000000000000000000, 1.000000000000000000 ) ) ;
#494 = DIRECTION ( 'NONE',  ( 1.000000000000000000, 0.0000000000000000000, 6.123233995736766000E-017 ) ) ;
#495 = DIRECTION ( 'NONE',  ( 1.000000000000000000, 0.0000000000000000000, 0.0000000000000000000 ) ) ;
#496 = CARTESIAN_POINT ( 'NONE',  ( 0.3006889763779524400, -8.537024980200822600E-017, 0.0000000000000000000 ) ) ;
#497 = CARTESIAN_POINT ( 'NONE',  ( 0.05999999999999999100, 0.5000000000000000000, 0.6875000000000000000 ) ) ;
#498 = AXIS2_PLACEMENT_3D ( 'NONE', #198, #66, #60 ) ;
#499 = CARTESIAN_POINT ( 'NONE',  ( 0.3006889763779524400, -8.537024980200822600E-017, 0.6875000000000000000 ) ) ;
#500 = DIRECTION ( 'NONE',  ( 1.041100607341563700E-016, 0.0000000000000000000, -1.000000000000000000 ) ) ;
#501 = ORIENTED_EDGE ( 'NONE', *, *, #262, .T. ) ;
#502 = FACE_BOUND ( 'NONE', #620, .T. ) ;
#503 = DIRECTION ( 'NONE',  ( 1.000000000000000000, 0.0000000000000000000, -0.0000000000000000000 ) ) ;
#504 = EDGE_CURVE ( 'NONE', #194, #140, #467, .T. ) ;
#505 = ORIENTED_EDGE ( 'NONE', *, *, #462, .F. ) ;
#506 = APPROVAL ( #9, 'UNSPECIFIED' ) ;
#507 = ORIENTED_EDGE ( 'NONE', *, *, #1, .F. ) ;
#508 = CARTESIAN_POINT ( 'NONE',  ( 0.3006889763779524400, 0.08199999999999990600, 0.0000000000000000000 ) ) ;
#509 = DIRECTION ( 'NONE',  ( 0.0000000000000000000, 0.0000000000000000000, -1.000000000000000000 ) ) ;
#510 = ADVANCED_FACE ( 'NONE', ( #225 ), #109, .T. ) ;
#511 = EDGE_CURVE ( 'NONE', #131, #194, #240, .T. ) ;
#512 = EDGE_LOOP ( 'NONE', ( #135, #291, #474, #405, #473 ) ) ;
#513 = ADVANCED_FACE ( 'NONE', ( #189 ), #256, .F. ) ;
#514 = EDGE_LOOP ( 'NONE', ( #336, #167 ) ) ;
#515 = ORIENTED_EDGE ( 'NONE', *, *, #551, .T. ) ;
#516 = AXIS2_PLACEMENT_3D ( 'NONE', #168, #208, #105 ) ;
#517 = PERSON_AND_ORGANIZATION ( #619, #247 ) ;
#518 = AXIS2_PLACEMENT_3D ( 'NONE', #270, #264, #275 ) ;
#519 = ORIENTED_EDGE ( 'NONE', *, *, #462, .T. ) ;
#520 = COORDINATED_UNIVERSAL_TIME_OFFSET ( 6, 0, .BEHIND. ) ;
#521 = CIRCLE ( 'NONE', #593, 0.08999999999999999700 ) ;
#522 = EDGE_CURVE ( 'NONE', #171, #49, #243, .T. ) ;
#523 = CARTESIAN_POINT ( 'NONE',  ( 0.8124999999999997800, 0.5000000000000000000, 0.05999999999999999100 ) ) ;
#524 = ORIENTED_EDGE ( 'NONE', *, *, #598, .T. ) ;
#525 = VERTEX_POINT ( 'NONE', #286 ) ;
#526 = CARTESIAN_POINT ( 'NONE',  ( -2.561107494060246800E-017, 0.0000000000000000000, 0.3725393700787401100 ) ) ;
#527 = CARTESIAN_POINT ( 'NONE',  ( 0.05999999999999999100, 0.5000000000000000000, 0.6875000000000000000 ) ) ;
#528 = DIRECTION ( 'NONE',  ( -1.000000000000000000, 0.0000000000000000000, 0.0000000000000000000 ) ) ;
#529 = PERSON_AND_ORGANIZATION_ROLE ( 'classification_officer' ) ;
#530 = ADVANCED_FACE ( 'NONE', ( #265, #239 ), #176, .F. ) ;
#531 = DIRECTION ( 'NONE',  ( 0.0000000000000000000, 0.0000000000000000000, -1.000000000000000000 ) ) ;
#532 = DIRECTION ( 'NONE',  ( 0.0000000000000000000, 0.0000000000000000000, 1.000000000000000000 ) ) ;
#533 = DIRECTION ( 'NONE',  ( 0.0000000000000000000, 0.0000000000000000000, 1.000000000000000000 ) ) ;
#534 = PLANE ( 'NONE',  #547 ) ;
#535 = CARTESIAN_POINT ( 'NONE',  ( -2.059002306409831800E-017, 0.0000000000000000000, 0.2905393700787400900 ) ) ;
#536 = DIRECTION ( 'NONE',  ( 1.000000000000000000, 0.0000000000000000000, 0.0000000000000000000 ) ) ;
#537 = DIRECTION ( 'NONE',  ( -1.000000000000000000, 0.0000000000000000000, 0.0000000000000000000 ) ) ;
#538 = CARTESIAN_POINT ( 'NONE',  ( 0.2186889763779525400, -8.537024980200822600E-017, 0.6875000000000000000 ) ) ;
#539 = ORIENTED_EDGE ( 'NONE', *, *, #252, .T. ) ;
#540 = CARTESIAN_POINT ( 'NONE',  ( 0.3006889763779524400, -0.08199999999999992000, 0.06000000000000004600 ) ) ;
#541 = CIRCLE ( 'NONE', #139, 0.08200000000000000300 ) ;
#542 = AXIS2_PLACEMENT_3D ( 'NONE', #70, #112, #108 ) ;
#543 = PERSON_AND_ORGANIZATION ( #619, #247 ) ;
#544 = CARTESIAN_POINT ( 'NONE',  ( 0.8125000000000000000, -0.5000000000000000000, 0.0000000000000000000 ) ) ;
#545 = EDGE_CURVE ( 'NONE', #273, #412, #242, .T. ) ;
#546 = VECTOR ( 'NONE', #152, 39.37007874015748100 ) ;
#547 = AXIS2_PLACEMENT_3D ( 'NONE', #599, #197, #455 ) ;
#548 = VERTEX_POINT ( 'NONE', #508 ) ;
#549 = EDGE_CURVE ( 'NONE', #366, #412, #269, .T. ) ;
#550 = AXIS2_PLACEMENT_3D ( 'NONE', #393, #509, #617 ) ;
#551 = EDGE_CURVE ( 'NONE', #401, #548, #249, .T. ) ;
#552 = EDGE_CURVE ( 'NONE', #303, #346, #279, .T. ) ;
#553 = PRODUCT_RELATED_PRODUCT_CATEGORY ( 'detail', '', ( #438 ) ) ;
#554 = ORIENTED_EDGE ( 'NONE', *, *, #297, .T. ) ;
#555 = PLANE ( 'NONE',  #359 ) ;
#556 = DATE_TIME_ROLE ( 'creation_date' ) ;
#557 = CC_DESIGN_SECURITY_CLASSIFICATION ( #588, ( #623 ) ) ;
#558 = DIRECTION ( 'NONE',  ( 1.000000000000000000, 0.0000000000000000000, 0.0000000000000000000 ) ) ;
#559 = CC_DESIGN_APPROVAL ( #568, ( #588 ) ) ;
#560 = CARTESIAN_POINT ( 'NONE',  ( 0.3006889763779524400, -0.08199999999999992000, 0.0000000000000000000 ) ) ;
#561 = CARTESIAN_POINT ( 'NONE',  ( 0.3006889763779524400, -8.537024980200822600E-017, 0.0000000000000000000 ) ) ;
#562 =( NAMED_UNIT ( * ) SI_UNIT ( $, .STERADIAN. ) SOLID_ANGLE_UNIT ( ) );
#563 = CARTESIAN_POINT ( 'NONE',  ( 0.0000000000000000000, 0.5000000000000000000, 0.6875000000000000000 ) ) ;
#564 = VERTEX_POINT ( 'NONE', #230 ) ;
#565 = DIRECTION ( 'NONE',  ( -1.000000000000000000, 0.0000000000000000000, 0.0000000000000000000 ) ) ;
#566 = CALENDAR_DATE ( 2018, 26, 2 ) ;
#567 = ORIENTED_EDGE ( 'NONE', *, *, #272, .T. ) ;
#568 = APPROVAL ( #318, 'UNSPECIFIED' ) ;
#569 = DIRECTION ( 'NONE',  ( 1.000000000000000000, 0.0000000000000000000, 0.0000000000000000000 ) ) ;
#570 = APPROVAL_DATE_TIME ( #357, #615 ) ;
#571 = DIRECTION ( 'NONE',  ( -4.553079989440439100E-015, 0.0000000000000000000, 1.000000000000000000 ) ) ;
#572 = PLANE ( 'NONE',  #516 ) ;
#573 = DIRECTION ( 'NONE',  ( 0.0000000000000000000, 0.0000000000000000000, -1.000000000000000000 ) ) ;
#574 = EDGE_CURVE ( 'NONE', #346, #401, #234, .T. ) ;
#575 = CC_DESIGN_DATE_AND_TIME_ASSIGNMENT ( #91, #608, ( #588 ) ) ;
#576 = DIRECTION ( 'NONE',  ( -0.0000000000000000000, -0.0000000000000000000, 1.000000000000000000 ) ) ;
#577 = ORIENTED_EDGE ( 'NONE', *, *, #276, .T. ) ;
#578 = VERTEX_POINT ( 'NONE', #335 ) ;
#579 = EDGE_CURVE ( 'NONE', #564, #366, #271, .T. ) ;
#580 = DIRECTION ( 'NONE',  ( 1.000000000000000000, 0.0000000000000000000, 0.0000000000000000000 ) ) ;
#581 = EDGE_CURVE ( 'NONE', #118, #435, #258, .T. ) ;
#582 = CC_DESIGN_PERSON_AND_ORGANIZATION_ASSIGNMENT ( #3, #529, ( #588 ) ) ;
#583 = ORIENTED_EDGE ( 'NONE', *, *, #143, .T. ) ;
#584 = EDGE_CURVE ( 'NONE', #389, #303, #285, .T. ) ;
#585 = AXIS2_PLACEMENT_3D ( 'NONE', #300, #442, #565 ) ;
#586 = APPROVAL_PERSON_ORGANIZATION ( #296, #615, #106 ) ;
#587 = EDGE_CURVE ( 'NONE', #457, #324, #290, .T. ) ;
#588 = SECURITY_CLASSIFICATION ( '', '', #59 ) ;
#589 = CC_DESIGN_PERSON_AND_ORGANIZATION_ASSIGNMENT ( #517, #62, ( #623 ) ) ;
#590 = EDGE_LOOP ( 'NONE', ( #217, #40, #180, #461 ) ) ;
#591 = ORIENTED_EDGE ( 'NONE', *, *, #584, .T. ) ;
#592 = EDGE_CURVE ( 'NONE', #194, #548, #278, .T. ) ;
#593 = AXIS2_PLACEMENT_3D ( 'NONE', #431, #478, #317 ) ;
#594 = ORIENTED_EDGE ( 'NONE', *, *, #574, .T. ) ;
#595 = AXIS2_PLACEMENT_3D ( 'NONE', #482, #494, #500 ) ;
#596 = CC_DESIGN_PERSON_AND_ORGANIZATION_ASSIGNMENT ( #417, #309, ( #623 ) ) ;
#597 = CARTESIAN_POINT ( 'NONE',  ( 0.09000000000000001100, -0.5000000000000000000, 0.05999999999999999100 ) ) ;
#598 = EDGE_CURVE ( 'NONE', #420, #55, #294, .T. ) ;
#599 = CARTESIAN_POINT ( 'NONE',  ( 0.3006889763779524400, 0.08199999999999992000, 0.6875000000000000000 ) ) ;
#600 = CARTESIAN_POINT ( 'NONE',  ( 0.08999999999999999700, -0.5000000000000000000, 0.0000000000000000000 ) ) ;
#601 = CARTESIAN_POINT ( 'NONE',  ( 0.0000000000000000000, -0.5000000000000000000, 0.6875000000000000000 ) ) ;
#602 = EDGE_CURVE ( 'NONE', #118, #93, #299, .T. ) ;
#603 = DIRECTION ( 'NONE',  ( 0.0000000000000000000, 0.0000000000000000000, -1.000000000000000000 ) ) ;
#604 = LOCAL_TIME ( 10, 28, 48.00000000000000000, #397 ) ;
#605 = DIRECTION ( 'NONE',  ( 1.000000000000000000, 0.0000000000000000000, 6.123233995736766000E-017 ) ) ;
#606 = DIRECTION ( 'NONE',  ( -0.0000000000000000000, -1.000000000000000000, -0.0000000000000000000 ) ) ;
#607 = CARTESIAN_POINT ( 'NONE',  ( 0.05999999999999999100, -0.5000000000000000000, 0.6875000000000000000 ) ) ;
#608 = DATE_TIME_ROLE ( 'classification_date' ) ;
#609 = CC_DESIGN_APPROVAL ( #615, ( #623 ) ) ;
#610 = CARTESIAN_POINT ( 'NONE',  ( 0.3006889763779524400, -8.537024980200822600E-017, 0.06000000000000004600 ) ) ;
#611 = CARTESIAN_POINT ( 'NONE',  ( 0.08999999999999999700, 0.5000000000000000000, 0.0000000000000000000 ) ) ;
#612 = DIRECTION ( 'NONE',  ( 0.0000000000000000000, 0.0000000000000000000, -1.000000000000000000 ) ) ;
#613 = CARTESIAN_POINT ( 'NONE',  ( 0.3006889763779524400, 0.08199999999999992000, 0.0000000000000000000 ) ) ;
#614 = AXIS2_PLACEMENT_3D ( 'NONE', #12, #8, #99 ) ;
#615 = APPROVAL ( #436, 'UNSPECIFIED' ) ;
#616 = CARTESIAN_POINT ( 'NONE',  ( 0.08999999999999999700, -0.5000000000000000000, 0.05999999999999999100 ) ) ;
#617 = DIRECTION ( 'NONE',  ( -1.000000000000000000, 0.0000000000000000000, -0.0000000000000000000 ) ) ;
#618 = EDGE_CURVE ( 'NONE', #55, #420, #289, .T. ) ;
#619 = PERSON ( 'UNSPECIFIED', 'UNSPECIFIED', 'UNSPECIFIED', ('UNSPECIFIED'), ('UNSPECIFIED'), ('UNSPECIFIED') ) ;
#620 = EDGE_LOOP ( 'NONE', ( #515, #179, #86, #443, #594 ) ) ;
#621 = UNCERTAINTY_MEASURE_WITH_UNIT (LENGTH_MEASURE( 1.000000000000000100E-005 ), #156, 'distance_accuracy_value', 'NONE');
#622 = EDGE_CURVE ( 'NONE', #435, #344, #292, .T. ) ;
#623 = PRODUCT_DEFINITION_FORMATION_WITH_SPECIFIED_SOURCE ( 'ANY', '', #438, .NOT_KNOWN. ) ;
#624 = ORIENTED_EDGE ( 'NONE', *, *, #581, .F. ) ;
#625 = LOCAL_TIME ( 10, 28, 48.00000000000000000, #204 ) ;
ENDSEC;
END-ISO-10303-21;
