(module "DIN41612_B_3x32_Horizontal" (layer F.Cu) (tedit 5EB83892)
  (descr "DIN 41612 connector, type B, horizontal, 32 pins wide, 2 rows, full configuration")
  (tags "DIN 41512 IEC 60603 B")
  (zone_connect 1)
  (fp_text reference "P1" (at -4.435 2.54 270) (layer F.SilkS)
    (effects (font (size 0.8128 0.8128) (thickness 0.1524)))
    (tstamp d82e9219-b5e8-483b-810c-c0a457d58961)
  )
  (fp_text value "DIN41612_M_3x32" (at 39.38 -3.712) (layer F.Fab)
    (effects (font (size 0.8128 0.8128) (thickness 0.1524)))
    (tstamp 53375e1a-2ec5-4575-bd29-b2693061f73e)
  )
  (fp_text user "Board edge" (at 39.37 -7.3 180) (layer Cmts.User)
    (effects (font (size 0.7 0.7) (thickness 0.1)))
    (tstamp 9f9bbe5a-fadc-450a-a3ef-235c5c614c37)
  )
  (fp_text user "${REFERENCE}" (at 39.37 -2.54 180) (layer F.Fab)
    (effects (font (size 0.8128 0.8128) (thickness 0.1524)))
    (tstamp 2600a0eb-2781-44dd-a37f-82165fac8b88)
  )
  (fp_line (start -4.38 -5.3) (end 83.12 -5.3) (layer Dwgs.User) (width 0.08) (tstamp e690888a-22e4-42cb-b6e4-ed75b015a238))
  (fp_line (start 39.17 -5.9) (end 39.37 -5.4) (layer Cmts.User) (width 0.1) (tstamp 81dc3218-8257-42b9-988f-ec92871c2831))
  (fp_line (start 39.37 -5.4) (end 39.57 -5.9) (layer Cmts.User) (width 0.1) (tstamp 8e886bbe-01fa-48a5-80c6-2afda0c29544))
  (fp_line (start 39.37 -6.8) (end 39.37 -5.4) (layer Cmts.User) (width 0.1) (tstamp e08f384f-48aa-4b61-9218-007d5e65959d))
  (fp_line (start 86.87 0.46) (end 80.87 0.46) (layer F.CrtYd) (width 0.05) (tstamp 00fe7dff-ed74-4afb-8340-5f03a34fc7cf))
  (fp_line (start -4.88 -5.54) (end -4.88 -13.24) (layer F.CrtYd) (width 0.05) (tstamp 23699bd5-f664-4de9-9a1a-9fc1ea6e07f5))
  (fp_line (start 80.09 0.46) (end 80.09 6.43) (layer F.CrtYd) (width 0.05) (tstamp 537ee43c-e48e-479a-b8be-3868299b1f1e))
  (fp_line (start -8.13 0.46) (end -8.13 -5.54) (layer F.CrtYd) (width 0.05) (tstamp 5bae9e52-3f41-4bed-82d8-3a87b4e93e3d))
  (fp_line (start -1.35 0.46) (end -8.13 0.46) (layer F.CrtYd) (width 0.05) (tstamp 5c4e59e4-b0ca-44e1-808c-b6e73bb69bbb))
  (fp_line (start 83.62 -5.54) (end 86.87 -5.54) (layer F.CrtYd) (width 0.05) (tstamp 658933fa-3dfb-467a-a380-b9ed81cc19b0))
  (fp_line (start -1.35 6.43) (end -1.35 0.46) (layer F.CrtYd) (width 0.05) (tstamp 845ac4aa-2120-4484-bbe4-492b5f2b2bab))
  (fp_line (start -4.88 -13.24) (end 83.62 -13.24) (layer F.CrtYd) (width 0.05) (tstamp 919a9b1f-08c8-405f-a154-1a9822c4c4fc))
  (fp_line (start 80.09 6.43) (end -1.35 6.43) (layer F.CrtYd) (width 0.05) (tstamp baad7170-0b5f-4d7e-8856-2aa4724196dd))
  (fp_line (start -8.13 -5.54) (end -4.88 -5.54) (layer F.CrtYd) (width 0.05) (tstamp c3545436-c467-4021-ac79-de2ca77981fe))
  (fp_line (start 83.62 -13.24) (end 83.62 -5.54) (layer F.CrtYd) (width 0.05) (tstamp d4d1e756-2cd3-4658-8c5d-dc361dd5b035))
  (fp_line (start 80.87 0.46) (end 80.09 0.46) (layer F.CrtYd) (width 0.05) (tstamp d62a588e-072d-4892-bda1-9813956e52a9))
  (fp_line (start 86.87 -5.54) (end 86.87 0.46) (layer F.CrtYd) (width 0.05) (tstamp e9a6a8d9-b193-477c-a548-132036321de5))
  (fp_line (start 83.12 -12.74) (end 83.12 -5.04) (layer F.Fab) (width 0.1) (tstamp 147e7dfa-c377-4ccf-a1ae-6490256df770))
  (fp_line (start -7.63 -5.04) (end -4.38 -5.04) (layer F.Fab) (width 0.1) (tstamp 199ff6bb-0dfb-4c8d-9f4d-c19b3ce50cb8))
  (fp_line (start -4.38 -5.04) (end -4.38 -12.74) (layer F.Fab) (width 0.1) (tstamp 655e5d82-86cf-4d32-a485-7db48f43a221))
  (fp_line (start 81.37 -0.04) (end 81.37 -0.54) (layer F.Fab) (width 0.1) (tstamp 889b671b-ab9f-480a-a5a6-62002ab73022))
  (fp_line (start 86.37 -0.04) (end 81.37 -0.04) (layer F.Fab) (width 0.1) (tstamp 9c85e9e1-23fd-4a1f-be6c-aecfe2fad670))
  (fp_line (start 81.37 -0.54) (end -2.63 -0.54) (layer F.Fab) (width 0.1) (tstamp 9f662ef3-b35e-488a-a394-557bc34df069))
  (fp_line (start -2.63 -0.04) (end -7.63 -0.04) (layer F.Fab) (width 0.1) (tstamp aa9de418-c954-4668-86ba-80b8b8448dd4))
  (fp_line (start 83.12 -5.04) (end 86.37 -5.04) (layer F.Fab) (width 0.1) (tstamp ab6320bd-32e1-4db0-96d8-e15b1022ccff))
  (fp_line (start -2.63 -0.54) (end -2.63 -0.04) (layer F.Fab) (width 0.1) (tstamp aeb470f5-0553-4c0d-a855-fc95f3a4abef))
  (fp_line (start 86.37 -5.04) (end 86.37 -0.04) (layer F.Fab) (width 0.1) (tstamp b3ee5bb2-2cf5-4411-97bc-739855539769))
  (fp_line (start -4.38 -12.74) (end 83.12 -12.74) (layer F.Fab) (width 0.1) (tstamp c80906e2-498a-4831-8617-c3fd7759a555))
  (fp_line (start -7.63 -0.04) (end -7.63 -5.04) (layer F.Fab) (width 0.1) (tstamp ef738d13-4c63-4b28-976d-db11b93c5288))
  (pad "" np_thru_hole circle (at 83.82 -2.54) (size 2.8 2.8) (drill 2.8) (layers *.Cu *.Mask)
    (zone_connect 1) (tstamp 0fd1bbb1-d30a-4fef-9889-427243c924f1))
  (pad "" np_thru_hole circle (at -5.08 -2.54) (size 2.8 2.8) (drill 2.8) (layers *.Cu *.Mask)
    (zone_connect 1) (tstamp e91b35ae-839b-4404-be81-ec8843b8c78a))
  (pad "A1" thru_hole rect (at 0 0) (size 1.7 1.7) (drill 1) (layers *.Cu *.Mask)
    (zone_connect 1) (tstamp 7a2fe1d9-2320-44a4-b307-ef39c1505c94))
  (pad "A2" thru_hole circle (at 2.54 0) (size 1.7 1.7) (drill 1) (layers *.Cu *.Mask)
    (zone_connect 1) (tstamp 01a82853-fd39-492e-8518-b662816eb489))
  (pad "A3" thru_hole circle (at 5.08 0) (size 1.7 1.7) (drill 1) (layers *.Cu *.Mask)
    (zone_connect 1) (tstamp dff880ad-5ae0-4cad-b73c-b8f9861d5318))
  (pad "A4" thru_hole circle (at 7.62 0) (size 1.7 1.7) (drill 1) (layers *.Cu *.Mask)
    (zone_connect 1) (tstamp a714b1f6-2e01-4afe-9df7-47cb3e94cf8c))
  (pad "A5" thru_hole circle (at 10.16 0) (size 1.7 1.7) (drill 1) (layers *.Cu *.Mask)
    (zone_connect 1) (tstamp d811490a-7045-48df-9bef-a2ee787a7ccd))
  (pad "A6" thru_hole circle (at 12.7 0) (size 1.7 1.7) (drill 1) (layers *.Cu *.Mask)
    (zone_connect 1) (tstamp 7106f163-1d68-42f8-8dbe-b27aadba9146))
  (pad "A7" thru_hole circle (at 15.24 0) (size 1.7 1.7) (drill 1) (layers *.Cu *.Mask) (remove_unused_layers) (keep_end_layers)
    (zone_connect 1) (tstamp c18f9fd4-a66f-45db-be61-7ce809cbbf71))
  (pad "A8" thru_hole circle (at 17.78 0) (size 1.7 1.7) (drill 1) (layers *.Cu *.Mask)
    (zone_connect 1) (tstamp 6dc87cfe-c53a-4563-a673-e3b8f9fabdef))
  (pad "A9" thru_hole circle (at 20.32 0) (size 1.7 1.7) (drill 1) (layers *.Cu *.Mask)
    (zone_connect 1) (tstamp 3e1ce0e2-afa5-43e1-b3df-f2b91cdb4aac))
  (pad "A10" thru_hole circle (at 22.86 0) (size 1.7 1.7) (drill 1) (layers *.Cu *.Mask)
    (zone_connect 1) (tstamp d5aea12b-b468-417b-b194-91d025372081))
  (pad "A11" thru_hole circle (at 25.4 0) (size 1.7 1.7) (drill 1) (layers *.Cu *.Mask)
    (zone_connect 1) (tstamp 56e0ab37-314c-4ba8-b6e3-546f0e2669ef))
  (pad "A12" thru_hole circle (at 27.94 0) (size 1.7 1.7) (drill 1) (layers *.Cu *.Mask)
    (zone_connect 1) (tstamp 39e6610e-0340-4ef4-9074-3aad95a972b7))
  (pad "A13" thru_hole circle (at 30.48 0) (size 1.7 1.7) (drill 1) (layers *.Cu *.Mask)
    (zone_connect 1) (tstamp c6f8ec15-642f-475e-9aa8-a0bb282e8aec))
  (pad "A14" thru_hole circle (at 33.02 0) (size 1.7 1.7) (drill 1) (layers *.Cu *.Mask)
    (zone_connect 1) (tstamp 36d6ac55-7bfe-4dce-a28a-91722fa10bff))
  (pad "A15" thru_hole circle (at 35.56 0) (size 1.7 1.7) (drill 1) (layers *.Cu *.Mask)
    (zone_connect 1) (tstamp 72a650be-262a-4f53-8f22-9568fe3611b5))
  (pad "A16" thru_hole circle (at 38.1 0) (size 1.7 1.7) (drill 1) (layers *.Cu *.Mask)
    (zone_connect 1) (tstamp 21490a5b-d209-4455-9519-57ac2101a226))
  (pad "A17" thru_hole circle (at 40.64 0) (size 1.7 1.7) (drill 1) (layers *.Cu *.Mask)
    (zone_connect 1) (tstamp 05464e94-d8f9-40e1-9c19-6c9427b2f429))
  (pad "A18" thru_hole circle (at 43.18 0) (size 1.7 1.7) (drill 1) (layers *.Cu *.Mask)
    (zone_connect 1) (tstamp ba64bc3b-ef44-49b5-b4ad-f6b57bf1cb72))
  (pad "A19" thru_hole circle (at 45.72 0) (size 1.7 1.7) (drill 1) (layers *.Cu *.Mask)
    (zone_connect 1) (tstamp 4af9f496-86ed-4656-943d-8895e4a17ffc))
  (pad "A20" thru_hole circle (at 48.26 0) (size 1.7 1.7) (drill 1) (layers *.Cu *.Mask)
    (zone_connect 1) (tstamp 28ff191c-5baf-4459-b028-17f7942cb0c2))
  (pad "A21" thru_hole circle (at 50.8 0) (size 1.7 1.7) (drill 1) (layers *.Cu *.Mask) (remove_unused_layers) (keep_end_layers)
    (zone_connect 1) (tstamp aa5bdb20-dd77-4284-bfff-43b1d76d5426))
  (pad "A22" thru_hole circle (at 53.34 0) (size 1.7 1.7) (drill 1) (layers *.Cu *.Mask)
    (zone_connect 1) (tstamp 4d7ff83e-005c-4027-8133-74c06cf8d186))
  (pad "A23" thru_hole circle (at 55.88 0) (size 1.7 1.7) (drill 1) (layers *.Cu *.Mask)
    (zone_connect 1) (tstamp d2d0a623-cc71-41e5-8d27-96a9a139ac36))
  (pad "A24" thru_hole circle (at 58.42 0) (size 1.7 1.7) (drill 1) (layers *.Cu *.Mask) (remove_unused_layers) (keep_end_layers)
    (zone_connect 1) (tstamp 011bc8c4-2eb3-4720-b167-0281b36e80d7))
  (pad "A25" thru_hole circle (at 60.96 0) (size 1.7 1.7) (drill 1) (layers *.Cu *.Mask)
    (zone_connect 1) (tstamp 387d957e-b4aa-4df7-a7b3-59b23fa10feb))
  (pad "A26" thru_hole circle (at 63.5 0) (size 1.7 1.7) (drill 1) (layers *.Cu *.Mask)
    (zone_connect 1) (tstamp 1f538824-3d2a-4dda-8fdf-95c4d3bd965d))
  (pad "A27" thru_hole circle (at 66.04 0) (size 1.7 1.7) (drill 1) (layers *.Cu *.Mask)
    (zone_connect 1) (tstamp 5e3cfbb2-af8d-4584-abda-77229f8d05fd))
  (pad "A28" thru_hole circle (at 68.58 0) (size 1.7 1.7) (drill 1) (layers *.Cu *.Mask)
    (zone_connect 1) (tstamp 65dcc1cb-e996-4790-b5c1-cc642482b364))
  (pad "A29" thru_hole circle (at 71.12 0) (size 1.7 1.7) (drill 1) (layers *.Cu *.Mask)
    (zone_connect 1) (tstamp 5a6b3fa7-e063-4af1-8e20-34dbbd97c7df))
  (pad "A30" thru_hole circle (at 73.66 0) (size 1.7 1.7) (drill 1) (layers *.Cu *.Mask) (remove_unused_layers) (keep_end_layers)
    (zone_connect 1) (tstamp a3106e43-d340-43ca-abbd-486fc19a77db))
  (pad "A31" thru_hole circle (at 76.2 0) (size 1.7 1.7) (drill 1) (layers *.Cu *.Mask) (remove_unused_layers) (keep_end_layers)
    (zone_connect 1) (tstamp 4b847b62-2966-460c-b70f-b7f58948670e))
  (pad "A32" thru_hole circle (at 78.74 0) (size 1.7 1.7) (drill 1) (layers *.Cu *.Mask)
    (zone_connect 1) (tstamp 64b8b4da-b997-4689-9fae-7259918be5b4))
  (pad "B1" thru_hole circle (at 0 2.54) (size 1.7 1.7) (drill 1) (layers *.Cu *.Mask)
    (zone_connect 1) (tstamp cb346397-3adc-4530-b013-a7fb54ecbde7))
  (pad "B2" thru_hole circle (at 2.54 2.54) (size 1.7 1.7) (drill 1) (layers *.Cu *.Mask)
    (zone_connect 1) (tstamp 00ee8bd5-75cb-4d50-8c40-60d93f21304b))
  (pad "B3" thru_hole circle (at 5.08 2.54) (size 1.7 1.7) (drill 1) (layers *.Cu *.Mask)
    (zone_connect 1) (tstamp a2baeafb-7021-4d6e-ab49-ef79fa5ef40e))
  (pad "B4" thru_hole circle (at 7.62 2.54) (size 1.7 1.7) (drill 1) (layers *.Cu *.Mask)
    (zone_connect 1) (tstamp 95ca1e78-eb4b-47d2-a048-e3f45ac31200))
  (pad "B5" thru_hole circle (at 10.16 2.54) (size 1.7 1.7) (drill 1) (layers *.Cu *.Mask)
    (zone_connect 1) (tstamp 95cce441-37e1-41e8-a2b8-f17df46484ec))
  (pad "B6" thru_hole circle (at 12.7 2.54) (size 1.7 1.7) (drill 1) (layers *.Cu *.Mask)
    (zone_connect 1) (tstamp f1fa78d3-8adb-4c23-a9bc-3a9f08729cc1))
  (pad "B7" thru_hole circle (at 15.24 2.54) (size 1.7 1.7) (drill 1) (layers *.Cu *.Mask)
    (zone_connect 1) (tstamp d7627b8d-0779-490c-91f2-6e7cd38dd9d0))
  (pad "B8" thru_hole circle (at 17.78 2.54) (size 1.7 1.7) (drill 1) (layers *.Cu *.Mask)
    (zone_connect 1) (tstamp 2ee4f132-02ef-4a0a-8be2-973ad6f06393))
  (pad "B9" thru_hole circle (at 20.32 2.54) (size 1.7 1.7) (drill 1) (layers *.Cu *.Mask)
    (zone_connect 1) (tstamp bdb7e1ea-d96c-4cb9-910b-dbbedb9f8772))
  (pad "B10" thru_hole circle (at 22.86 2.54) (size 1.7 1.7) (drill 1) (layers *.Cu *.Mask)
    (zone_connect 1) (tstamp 945b5281-d4ba-4950-b218-9cf1e5bd0351))
  (pad "B11" thru_hole circle (at 25.4 2.54) (size 1.7 1.7) (drill 1) (layers *.Cu *.Mask)
    (zone_connect 1) (tstamp a6eb558e-98e8-4e59-bc26-fe314ba0240f))
  (pad "B12" thru_hole circle (at 27.94 2.54) (size 1.7 1.7) (drill 1) (layers *.Cu *.Mask)
    (zone_connect 1) (tstamp ef1bea4a-3eba-47b1-b474-9b86014f012c))
  (pad "B13" thru_hole circle (at 30.48 2.54) (size 1.7 1.7) (drill 1) (layers *.Cu *.Mask)
    (zone_connect 1) (tstamp 3b393e47-f2b3-4763-ba0a-4faf9d1b771c))
  (pad "B14" thru_hole circle (at 33.02 2.54) (size 1.7 1.7) (drill 1) (layers *.Cu *.Mask) (remove_unused_layers) (keep_end_layers)
    (zone_connect 1) (tstamp 39e140d1-41d8-4812-a619-de15252b21d0))
  (pad "B15" thru_hole circle (at 35.56 2.54) (size 1.7 1.7) (drill 1) (layers *.Cu *.Mask)
    (zone_connect 1) (tstamp 66b2052b-242c-4710-9a54-912f7419ae88))
  (pad "B16" thru_hole circle (at 38.1 2.54) (size 1.7 1.7) (drill 1) (layers *.Cu *.Mask) (remove_unused_layers) (keep_end_layers)
    (zone_connect 1) (tstamp 5be1cd2a-9265-4f33-8bfc-650130cd3b72))
  (pad "B17" thru_hole circle (at 40.64 2.54) (size 1.7 1.7) (drill 1) (layers *.Cu *.Mask) (remove_unused_layers) (keep_end_layers)
    (zone_connect 1) (tstamp 72c75b28-2164-4489-833b-58e4fee4c0b9))
  (pad "B18" thru_hole circle (at 43.18 2.54) (size 1.7 1.7) (drill 1) (layers *.Cu *.Mask) (remove_unused_layers) (keep_end_layers)
    (zone_connect 1) (tstamp c37f521f-629f-4b56-916e-4673a74f8cb0))
  (pad "B19" thru_hole circle (at 45.72 2.54) (size 1.7 1.7) (drill 1) (layers *.Cu *.Mask) (remove_unused_layers) (keep_end_layers)
    (zone_connect 1) (tstamp cb19ec48-961f-41ba-b31f-6f3cb680b676))
  (pad "B20" thru_hole circle (at 48.26 2.54) (size 1.7 1.7) (drill 1) (layers *.Cu *.Mask)
    (zone_connect 1) (tstamp b08d14ca-e995-4b86-b7c9-a2ed7fea9569))
  (pad "B21" thru_hole circle (at 50.8 2.54) (size 1.7 1.7) (drill 1) (layers *.Cu *.Mask) (remove_unused_layers) (keep_end_layers)
    (zone_connect 1) (tstamp 7db14690-a2d1-45c6-80a7-425ad8740045))
  (pad "B22" thru_hole circle (at 53.34 2.54) (size 1.7 1.7) (drill 1) (layers *.Cu *.Mask) (remove_unused_layers) (keep_end_layers)
    (zone_connect 1) (tstamp 776e2ee4-9b5f-4b8d-8486-036b3645da1c))
  (pad "B23" thru_hole circle (at 55.88 2.54) (size 1.7 1.7) (drill 1) (layers *.Cu *.Mask) (remove_unused_layers) (keep_end_layers)
    (zone_connect 1) (tstamp 6d0be0b1-d4b5-4087-a97c-60c2536b8063))
  (pad "B24" thru_hole circle (at 58.42 2.54) (size 1.7 1.7) (drill 1) (layers *.Cu *.Mask) (remove_unused_layers) (keep_end_layers)
    (zone_connect 1) (tstamp 2cce3bfb-8ea9-4189-bfd2-a313587c7e91))
  (pad "B25" thru_hole circle (at 60.96 2.54) (size 1.7 1.7) (drill 1) (layers *.Cu *.Mask) (remove_unused_layers) (keep_end_layers)
    (zone_connect 1) (tstamp d19aa953-0a60-4966-88ca-d5f0bc5431c0))
  (pad "B26" thru_hole circle (at 63.5 2.54) (size 1.7 1.7) (drill 1) (layers *.Cu *.Mask) (remove_unused_layers) (keep_end_layers)
    (zone_connect 1) (tstamp f07954f7-715f-4fd4-9923-1041634b580b))
  (pad "B27" thru_hole circle (at 66.04 2.54) (size 1.7 1.7) (drill 1) (layers *.Cu *.Mask) (remove_unused_layers) (keep_end_layers)
    (zone_connect 1) (tstamp 69f2b2e8-c7cf-4d64-8417-08c63c5f54ea))
  (pad "B28" thru_hole circle (at 68.58 2.54) (size 1.7 1.7) (drill 1) (layers *.Cu *.Mask) (remove_unused_layers) (keep_end_layers)
    (zone_connect 1) (tstamp f1db2a37-4abf-4dd7-93ae-7b65a13064a8))
  (pad "B29" thru_hole circle (at 71.12 2.54) (size 1.7 1.7) (drill 1) (layers *.Cu *.Mask) (remove_unused_layers) (keep_end_layers)
    (zone_connect 1) (tstamp f996a213-7c77-4c31-970d-3c1b9d7950e3))
  (pad "B30" thru_hole circle (at 73.66 2.54) (size 1.7 1.7) (drill 1) (layers *.Cu *.Mask) (remove_unused_layers) (keep_end_layers)
    (zone_connect 1) (tstamp d9a96d18-831c-449d-8402-50581a2bb409))
  (pad "B31" thru_hole circle (at 76.2 2.54) (size 1.7 1.7) (drill 1) (layers *.Cu *.Mask) (remove_unused_layers) (keep_end_layers)
    (zone_connect 1) (tstamp 66596b36-7823-4db4-836a-00fc3f058ffc))
  (pad "B32" thru_hole circle (at 78.74 2.54) (size 1.7 1.7) (drill 1) (layers *.Cu *.Mask) (remove_unused_layers) (keep_end_layers)
    (zone_connect 1) (tstamp 90d42e40-0c4b-4731-afe1-8045cdfc4fa2))
  (pad "C1" thru_hole circle (at 0 5.08) (size 1.7 1.7) (drill 1) (layers *.Cu *.Mask) (remove_unused_layers) (keep_end_layers)
    (zone_connect 1) (tstamp 8d7646d9-ab9a-4186-8880-120d4e8f32bd))
  (pad "C2" thru_hole circle (at 2.54 5.08) (size 1.7 1.7) (drill 1) (layers *.Cu *.Mask)
    (zone_connect 1) (tstamp 425ad23e-6473-44fc-99b0-23ef9fbeea6e))
  (pad "C3" thru_hole circle (at 5.08 5.08) (size 1.7 1.7) (drill 1) (layers *.Cu *.Mask) (remove_unused_layers) (keep_end_layers)
    (zone_connect 1) (tstamp ddd12d59-b3f5-455f-875a-c8de2806ebfa))
  (pad "C4" thru_hole circle (at 7.62 5.08) (size 1.7 1.7) (drill 1) (layers *.Cu *.Mask)
    (zone_connect 1) (tstamp 20676f07-8712-4e94-86ce-e077b269b259))
  (pad "C5" thru_hole circle (at 10.16 5.08) (size 1.7 1.7) (drill 1) (layers *.Cu *.Mask) (remove_unused_layers) (keep_end_layers)
    (zone_connect 1) (tstamp 972c2881-2480-4c5c-9e6d-8edd87a4ffa8))
  (pad "C6" thru_hole circle (at 12.7 5.08) (size 1.7 1.7) (drill 1) (layers *.Cu *.Mask) (remove_unused_layers) (keep_end_layers)
    (zone_connect 1) (tstamp bd71312e-8feb-41cb-9031-c3dd331195c5))
  (pad "C7" thru_hole circle (at 15.24 5.08) (size 1.7 1.7) (drill 1) (layers *.Cu *.Mask) (remove_unused_layers) (keep_end_layers)
    (zone_connect 1) (tstamp 0bc2c6de-a7c1-4a94-9038-f3f94e550d83))
  (pad "C8" thru_hole circle (at 17.78 5.08) (size 1.7 1.7) (drill 1) (layers *.Cu *.Mask) (remove_unused_layers) (keep_end_layers)
    (zone_connect 1) (tstamp 86234eb5-ffcb-43ca-b364-c672dae41bef))
  (pad "C9" thru_hole circle (at 20.32 5.08) (size 1.7 1.7) (drill 1) (layers *.Cu *.Mask) (remove_unused_layers) (keep_end_layers)
    (zone_connect 1) (tstamp c2f79c63-ea8d-4cad-91dc-11053990cbbc))
  (pad "C10" thru_hole circle (at 22.86 5.08) (size 1.7 1.7) (drill 1) (layers *.Cu *.Mask) (remove_unused_layers) (keep_end_layers)
    (zone_connect 1) (tstamp f0725324-8592-4d1d-88f0-bd222a9842e7))
  (pad "C11" thru_hole circle (at 25.4 5.08) (size 1.7 1.7) (drill 1) (layers *.Cu *.Mask) (remove_unused_layers) (keep_end_layers)
    (zone_connect 1) (tstamp e4e9b07d-da3e-40c9-845e-3f7d2e949d25))
  (pad "C12" thru_hole circle (at 27.94 5.08) (size 1.7 1.7) (drill 1) (layers *.Cu *.Mask)
    (zone_connect 1) (tstamp d5f65846-d291-48eb-97cf-1912e0be7c39))
  (pad "C13" thru_hole circle (at 30.48 5.08) (size 1.7 1.7) (drill 1) (layers *.Cu *.Mask) (remove_unused_layers) (keep_end_layers)
    (zone_connect 1) (tstamp cc1bb631-e673-4c0f-98f0-8e8e969efdc6))
  (pad "C14" thru_hole circle (at 33.02 5.08) (size 1.7 1.7) (drill 1) (layers *.Cu *.Mask) (remove_unused_layers) (keep_end_layers)
    (zone_connect 1) (tstamp 561dde05-eb17-4122-aaf7-e5d969ef5b0b))
  (pad "C15" thru_hole circle (at 35.56 5.08) (size 1.7 1.7) (drill 1) (layers *.Cu *.Mask) (remove_unused_layers) (keep_end_layers)
    (zone_connect 1) (tstamp be1fe1ab-ddcd-45fe-80c9-c7bc59c50c3d))
  (pad "C16" thru_hole circle (at 38.1 5.08) (size 1.7 1.7) (drill 1) (layers *.Cu *.Mask) (remove_unused_layers) (keep_end_layers)
    (zone_connect 1) (tstamp 3dbda825-6e68-4678-81ba-4d6e8c87951a))
  (pad "C17" thru_hole circle (at 40.64 5.08) (size 1.7 1.7) (drill 1) (layers *.Cu *.Mask) (remove_unused_layers) (keep_end_layers)
    (zone_connect 1) (tstamp 888cd60b-891b-4689-9ba9-6d46f61ddb00))
  (pad "C18" thru_hole circle (at 43.18 5.08) (size 1.7 1.7) (drill 1) (layers *.Cu *.Mask) (remove_unused_layers) (keep_end_layers)
    (zone_connect 1) (tstamp 8a33deec-b850-4a4a-98b1-49f1dbee318b))
  (pad "C19" thru_hole circle (at 45.72 5.08) (size 1.7 1.7) (drill 1) (layers *.Cu *.Mask) (remove_unused_layers) (keep_end_layers)
    (zone_connect 1) (tstamp e3d0b0e4-275e-4472-a202-630e666b8467))
  (pad "C20" thru_hole circle (at 48.26 5.08) (size 1.7 1.7) (drill 1) (layers *.Cu *.Mask)
    (zone_connect 1) (tstamp 87420124-2afa-4316-a5ce-1d59ae9d5430))
  (pad "C21" thru_hole circle (at 50.8 5.08) (size 1.7 1.7) (drill 1) (layers *.Cu *.Mask) (remove_unused_layers) (keep_end_layers)
    (zone_connect 1) (tstamp 107b6e85-649b-4e73-a61b-220c3be3131f))
  (pad "C22" thru_hole circle (at 53.34 5.08) (size 1.7 1.7) (drill 1) (layers *.Cu *.Mask) (remove_unused_layers) (keep_end_layers)
    (zone_connect 1) (tstamp 474e4c13-72c1-47f6-8ec1-597d280f5065))
  (pad "C23" thru_hole circle (at 55.88 5.08) (size 1.7 1.7) (drill 1) (layers *.Cu *.Mask)
    (zone_connect 1) (tstamp 3ce79bc8-0980-436d-9fdf-ea66e495c524))
  (pad "C24" thru_hole circle (at 58.42 5.08) (size 1.7 1.7) (drill 1) (layers *.Cu *.Mask)
    (zone_connect 1) (tstamp bf789582-a58b-465c-9a57-064aa4b78d01))
  (pad "C25" thru_hole circle (at 60.96 5.08) (size 1.7 1.7) (drill 1) (layers *.Cu *.Mask) (remove_unused_layers) (keep_end_layers)
    (zone_connect 1) (tstamp bcc9eaa3-4e04-4e64-b8b9-e240a1c39b13))
  (pad "C26" thru_hole circle (at 63.5 5.08) (size 1.7 1.7) (drill 1) (layers *.Cu *.Mask) (remove_unused_layers) (keep_end_layers)
    (zone_connect 1) (tstamp 10b5d7a7-f81d-459c-b204-6fdf18e4f138))
  (pad "C27" thru_hole circle (at 66.04 5.08) (size 1.7 1.7) (drill 1) (layers *.Cu *.Mask) (remove_unused_layers) (keep_end_layers)
    (zone_connect 1) (tstamp 0b941bb7-ade4-437c-8b8d-aa309a213ca4))
  (pad "C28" thru_hole circle (at 68.58 5.08) (size 1.7 1.7) (drill 1) (layers *.Cu *.Mask)
    (zone_connect 1) (tstamp 259d3c24-8c4f-49a3-9920-bf97d6b38c2e))
  (pad "C29" thru_hole circle (at 71.12 5.08) (size 1.7 1.7) (drill 1) (layers *.Cu *.Mask)
    (zone_connect 1) (tstamp cfce60a4-f379-40c1-ae28-9f061d44685f))
  (pad "C30" thru_hole circle (at 73.66 5.08) (size 1.7 1.7) (drill 1) (layers *.Cu *.Mask) (remove_unused_layers) (keep_end_layers)
    (zone_connect 1) (tstamp 54492cd3-932a-4d20-8334-31a65484f75a))
  (pad "C31" thru_hole circle (at 76.2 5.08) (size 1.7 1.7) (drill 1) (layers *.Cu *.Mask) (remove_unused_layers) (keep_end_layers)
    (zone_connect 1) (tstamp ac256e38-7d77-4e11-a3cf-5aa9f88d3ebd))
  (pad "C32" thru_hole circle (at 78.74 5.08) (size 1.7 1.7) (drill 1) (layers *.Cu *.Mask) (remove_unused_layers) (keep_end_layers)
    (zone_connect 1) (tstamp f2e7e004-83b6-4486-9859-47ddab632e53))
  (model "${KISYS3DMOD}/Connector_DIN.3dshapes/DIN41612_B_2x32_Horizontal.wrl"
    (offset (xyz 0 0 0))
    (scale (xyz 1 1 1))
    (rotate (xyz 0 0 0))
  )
  (model "${KIPRJMOD}/86093967113755elf.stp"
    (offset (xyz -7.5 12.5 0))
    (scale (xyz 1 1 1))
    (rotate (xyz 180 0 0))
  )
)
