(module "Heatsink-WA-T264-101E" (layer F.Cu) (tedit 5F67D6F8)
  (fp_text reference "REF**" (at 0 -9.5 unlocked) (layer F.SilkS)
    (effects (font (size 1 1) (thickness 0.15)))
    (tstamp d2c227b3-baab-4967-9fc1-f8b96b2e87f2)
  )
  (fp_text value "Heatsink-WA-T264-101E" (at 0 -8 unlocked) (layer F.Fab)
    (effects (font (size 1 1) (thickness 0.15)))
    (tstamp b5224061-6d33-4da7-8a17-05ee739cb5f3)
  )
  (fp_text user "REF**" (at 0 -6.5 unlocked) (layer F.Fab)
    (effects (font (size 1 1) (thickness 0.15)))
    (tstamp 63408233-37c4-4918-9296-280abe851697)
  )
  (fp_line (start -10.2 -2.4) (end 10.2 -2.4) (layer F.SilkS) (width 0.12) (tstamp 34472d77-6394-4e9a-87fc-1f64d3fa6233))
  (fp_line (start -11.7 -11.5) (end -11.7 4.5) (layer F.SilkS) (width 0.12) (tstamp 547fe89c-c1f7-412e-a1ef-de03b3628598))
  (fp_line (start 10.2 -2.4) (end 10.2 4.5) (layer F.SilkS) (width 0.12) (tstamp 5ce6b043-c255-4c7e-94f1-628658706a87))
  (fp_line (start 11.7 4.5) (end 11.7 -11.5) (layer F.SilkS) (width 0.12) (tstamp afc82d34-453c-4c7b-978b-7f4fb1dd75bf))
  (fp_line (start 11.7 -11.5) (end -11.7 -11.5) (layer F.SilkS) (width 0.12) (tstamp c7d0b307-1bdb-4325-8689-345e905f0b80))
  (fp_line (start -11.7 4.5) (end -10.2 4.5) (layer F.SilkS) (width 0.12) (tstamp e4c76771-7627-43be-9898-ec01d7758602))
  (fp_line (start 10.2 4.5) (end 11.7 4.5) (layer F.SilkS) (width 0.12) (tstamp ea676287-b9b8-4d94-ad36-c954c67d5851))
  (fp_line (start -10.2 4.5) (end -10.2 -2.4) (layer F.SilkS) (width 0.12) (tstamp eb59cad1-1129-41da-a7bd-d17aa0576f16))
  (fp_line (start -10.2 0) (end 10.2 0) (layer Dwgs.User) (width 0.1) (tstamp 3cb46618-8db0-4b5d-a66e-d3ee166412a1))
  (pad "1" thru_hole circle (at -9.05 -4.6) (size 4 4) (drill 2) (layers *.Cu *.Mask) (tstamp 63315329-4231-4fa1-923a-c7e1ddcc8c34))
  (pad "2" thru_hole circle (at 9.05 -4.6) (size 4 4) (drill 2) (layers *.Cu *.Mask) (tstamp 4fa90820-b215-47b5-8ad9-2f2f1d6f4262))
)
