(module "SAMTEC_MCX-J-P-H-ST-EM1" (layer "F.Cu") (tedit 5F90F250)
  (attr through_hole)
  (fp_text reference "REF**" (at -1.06 -6.838) (layer "F.SilkS")
    (effects (font (size 0.8 0.8) (thickness 0.2)))
    (tstamp 1f0a60ff-c09a-4010-83bd-e2c8b409232f)
  )
  (fp_text value "SAMTEC_MCX-J-P-H-ST-EM1" (at 8.084 4.638) (layer "F.Fab")
    (effects (font (size 0.8 0.8) (thickness 0.2)))
    (tstamp a225d43c-9d60-40bc-aadc-085981602714)
  )
  (fp_text user "PCB~EDGE" (at 4.2 -5.6) (layer "F.Fab")
    (effects (font (size 0.48 0.48) (thickness 0.015)))
    (tstamp b987312e-290e-4697-a74f-8e7c1f3ef3b3)
  )
  (fp_poly (pts (xy 3.535 -5.84)
    (xy 3.535 3.3)
    (xy 2.085 3.3)
    (xy 2.085 0.38)
    (xy 2.475 0.38)
    (xy 2.475 -5.84)) (layer "F.Cu") (width 0.01) (tstamp 9c6ddf8c-1c3d-4599-8403-b02f2ab76c21))
  (fp_poly (pts (xy -3.535 -5.84)
    (xy -3.535 3.3)
    (xy -2.085 3.3)
    (xy -2.085 0.38)
    (xy -2.475 0.38)
    (xy -2.475 -5.84)) (layer "F.Cu") (width 0.01) (tstamp c4dba279-0edc-4546-9dc2-90ac515127a1))
  (fp_poly (pts (xy -3.535 -5.84)
    (xy -3.535 3.3)
    (xy -2.085 3.3)
    (xy -2.085 0.38)
    (xy -2.475 0.38)
    (xy -2.475 -5.84)) (layer "F.Paste") (width 0.01) (tstamp 8798f6b2-ef4c-4f4b-aab6-6e7f63ab769b))
  (fp_poly (pts (xy 3.535 -5.84)
    (xy 3.535 3.3)
    (xy 2.085 3.3)
    (xy 2.085 0.38)
    (xy 2.475 0.38)
    (xy 2.475 -5.84)) (layer "F.Paste") (width 0.01) (tstamp e539d9a6-6727-44ff-a7cc-a29cf2b81028))
  (fp_line (start 3.885 3.65) (end 3.885 -5.49) (layer "F.SilkS") (width 0.2) (tstamp 3418f89c-468b-4f6a-8f69-e20b67fbcccc))
  (fp_line (start -3.885 3.65) (end 3.885 3.65) (layer "F.SilkS") (width 0.2) (tstamp 5bbdb9e1-a487-40ec-baa4-1111d62dabe4))
  (fp_line (start -3.885 -5.49) (end -3.885 3.65) (layer "F.SilkS") (width 0.2) (tstamp ffcdd772-10a8-46e1-94e0-7b3b2604660e))
  (fp_poly (pts (xy -3.635 -5.94)
    (xy -3.635 3.4)
    (xy -1.985 3.4)
    (xy -1.985 0.28)
    (xy -2.475 0.28)
    (xy -2.475 -5.94)) (layer "F.Mask") (width 0.01) (tstamp b52c71f4-462a-4df7-a5c1-988b7b7ec16c))
  (fp_poly (pts (xy 3.635 -5.94)
    (xy 3.635 3.4)
    (xy 1.985 3.4)
    (xy 1.985 0.28)
    (xy 2.475 0.28)
    (xy 2.475 -5.94)) (layer "F.Mask") (width 0.01) (tstamp b87551d6-006d-4b3c-82fd-1a3dc28d0d6a))
  (fp_line (start 2.475 0) (end 2.475 -5.84) (layer "Edge.Cuts") (width 0.1) (tstamp 0e20e8b3-6762-4111-9fbd-d189f46dcc11))
  (fp_line (start 2.475 -5.84) (end 3.75 -5.84) (layer "Edge.Cuts") (width 0.1) (tstamp 3f77f800-ab20-43d9-bdc3-75aa032f84a3))
  (fp_line (start -2.475 0) (end 2.475 0) (layer "Edge.Cuts") (width 0.1) (tstamp 4bf7be06-7171-40ea-ab69-186a818172d1))
  (fp_line (start -2.475 -5.84) (end -2.475 0) (layer "Edge.Cuts") (width 0.1) (tstamp c5048048-9efe-4b17-8aa9-07a6cea19e15))
  (fp_line (start -2.475 -5.84) (end -3.75 -5.84) (layer "Edge.Cuts") (width 0.1) (tstamp d3e318f5-653e-4a8d-acae-fdf250b3bf94))
  (fp_line (start -3.785 3.55) (end -3.785 -6.5) (layer "F.CrtYd") (width 0.05) (tstamp 0b9ac6cf-0258-4cc8-96ec-5f34c346115f))
  (fp_line (start 3.785 -6.5) (end 3.785 3.55) (layer "F.CrtYd") (width 0.05) (tstamp 58d3db14-eec8-4bb2-bcdb-4a4854e7047c))
  (fp_line (start 3.785 3.55) (end -3.785 3.55) (layer "F.CrtYd") (width 0.05) (tstamp b2e58413-9a12-4f38-b82a-c942f7bcee87))
  (fp_line (start -3.785 -6.5) (end 3.785 -6.5) (layer "F.CrtYd") (width 0.05) (tstamp cf04331d-c8fe-460e-b396-dc66ab67a84a))
  (fp_line (start -3.35 3.05) (end 3.35 3.05) (layer "F.Fab") (width 0.1) (tstamp 1dc34228-341d-4ac6-87cb-3fb7f0eab497))
  (fp_line (start 3.35 3.05) (end 3.35 -6.25) (layer "F.Fab") (width 0.1) (tstamp 2150a236-aaaf-49e3-a4f4-84cbe04f5a7b))
  (fp_line (start 5.95 -5.84) (end -3.95 -5.84) (layer "F.Fab") (width 0.1) (tstamp 6991d43e-9c2a-4ee0-934d-47386debb45b))
  (fp_line (start -3.35 -6.25) (end -3.35 3.05) (layer "F.Fab") (width 0.1) (tstamp c9345088-0128-4a4a-a447-f8b0817a3869))
  (fp_line (start 3.35 -6.25) (end -3.35 -6.25) (layer "F.Fab") (width 0.1) (tstamp d8a223bb-cbcc-4ecb-bcc9-130f514108f7))
  (pad "1" smd rect (at 0 1.84) (size 1.35 2.92) (layers "F.Cu" "F.Paste" "F.Mask") (tstamp 39b7cf5c-7043-4499-8ad6-9f848c69d1c1))
  (pad "2" smd rect (at 2.8 1.84) (size 0.635 1.27) (layers "F.Cu") (tstamp 2e22cc7d-dbe3-4aa0-8d4c-7b3e8896e529))
  (pad "2" smd rect (at -2.8 1.84) (size 0.635 1.27) (layers "F.Cu") (tstamp b117c7e1-d1fa-4e78-ab28-2a30bf18b769))
  (model "${KIPRJMOD}/../../libraries/3d/MCX-J-P-H-ST-EM1.stp"
    (offset (xyz 0 0 0.4))
    (scale (xyz 1 1 1))
    (rotate (xyz 0 180 0))
  )
)
