(module "stock_pot" (layer "F.Cu") (tedit 5F9DCF68)
  (property "Adjustment" "HOFFSET")
  (property "Sheet file" "circuit.kicad_sch")
  (property "Sheet name" "Circuit")
  (attr through_hole)
  (fp_text reference "REF**" (at -4.445 -6.985) (layer "F.SilkS")
    (effects (font (size 0.8128 0.8128) (thickness 0.1524)))
    (tstamp f20d5927-d4f2-421a-9315-83ddb4ac343e)
  )
  (fp_text value "stock_pot" (at -1.905 -2.032) (layer "F.Fab")
    (effects (font (size 0.8128 0.8128) (thickness 0.1524)))
    (tstamp 72794fd2-1988-4038-9c0e-71e30127ed1a)
  )
  (fp_text user "${REFERENCE}" (at -1.905 -3.048 180) (layer "F.Fab")
    (effects (font (size 0.8128 0.8128) (thickness 0.1524)))
    (tstamp 9a058f57-e40a-4a3e-be71-9c06b836c261)
  )
  (fp_line (start -4.064 -6.858) (end -6.858 -4.318) (layer "F.CrtYd") (width 0.12) (tstamp 07ea974c-36f7-4643-ba93-96b107827f34))
  (fp_line (start 1.778 1.778) (end 1.778 -6.858) (layer "F.CrtYd") (width 0.12) (tstamp 8d654f39-0d04-4e04-9c7e-5b0ff2205dd4))
  (fp_line (start -6.858 -4.318) (end -6.858 -0.762) (layer "F.CrtYd") (width 0.12) (tstamp 943190a5-6851-423c-ac4d-38589dfbfcc5))
  (fp_line (start -6.858 -0.762) (end -4.064 1.778) (layer "F.CrtYd") (width 0.12) (tstamp 9efa5d7c-84d0-44d6-bffc-c2a16ff56caa))
  (fp_line (start 1.778 -6.858) (end -4.064 -6.858) (layer "F.CrtYd") (width 0.12) (tstamp c35e42bd-51e0-471b-9020-72567e98444b))
  (fp_line (start -4.064 1.778) (end 1.778 1.778) (layer "F.CrtYd") (width 0.12) (tstamp efbe7066-1bdd-4e34-a9a4-d9f92933529b))
  (fp_line (start 1.27 1.27) (end -3.81 1.27) (layer "F.Fab") (width 0.12) (tstamp 038b8f0f-95e1-46c3-8a28-6e94808d0e49))
  (fp_line (start -6.35 -4.064) (end -3.81 -6.35) (layer "F.Fab") (width 0.12) (tstamp 06e0231f-e094-4d11-916b-3990b3a78696))
  (fp_line (start -6.35 -1.016) (end -3.81 1.27) (layer "F.Fab") (width 0.12) (tstamp 26014770-2a65-4a24-9d65-56ebe960c296))
  (fp_line (start 1.27 -6.35) (end -3.81 -6.35) (layer "F.Fab") (width 0.12) (tstamp 2dead896-9223-48d5-9177-1b89f61dcb78))
  (fp_line (start -6.35 -4.064) (end -6.35 -1.016) (layer "F.Fab") (width 0.12) (tstamp b5334d1d-eac6-47d3-bb89-be30ec7eeddb))
  (fp_line (start 1.27 1.27) (end 1.27 -6.35) (layer "F.Fab") (width 0.12) (tstamp fcf66448-9650-4c57-82bb-70b28f58b7dd))
  (pad "1" thru_hole circle (at 0 0) (size 2 2) (drill 1.2) (layers *.Cu *.Mask) (tstamp f6cfb8ea-8402-48f2-9aa3-5e334967cbfc))
  (pad "2" thru_hole circle (at -5.08 -2.54) (size 2 2) (drill 1.2) (layers *.Cu *.Mask) (tstamp a48fac82-3b85-4f7f-a6aa-cc202f8c3d82))
  (pad "3" thru_hole circle (at 0 -5.08) (size 2 2) (drill 1.2) (layers *.Cu *.Mask) (tstamp f997866b-ec05-48b9-8e76-a13774e5e77f))
  (model "${KIPRJMOD}/../../libraries/3d/User Library-Trimmer, 3306F-1.STEP"
    (offset (xyz -2.5 2.5 0))
    (scale (xyz 1 1 1))
    (rotate (xyz 0 0 -90))
  )
)
