M48
; DRILL file {KiCad 5.99.0-unknown-2b9f7d6150~106~ubuntu20.10.1~~buster1} date Mon Jan  4 20:46:51 2021
; FORMAT={-:-/ absolute / inch / decimal}
; #@! TF.CreationDate,2021-01-04T20:46:51-07:00
; #@! TF.GenerationSoftware,Kicad,Pcbnew,5.99.0-unknown-2b9f7d6150~106~ubuntu20.10.1~~buster1
; #@! TF.FileFunction,Plated,1,2,PTH
FMAT,2
INCH
T1C0.0157
T2C0.0300
T3C0.0315
T4C0.0354
T5C0.0374
T6C0.0394
T7C0.0433
T8C0.0472
T9C0.0500
T10C0.0512
T11C0.0570
T12C0.0787
%
G90
G05
T1
X2.9921Y-5.3543
X3.1496Y-5.1969
X3.7402Y-5.1969
X3.7402Y-5.5512
X3.7402Y-5.9055
X3.937Y-5.1969
X3.937Y-5.5512
X3.937Y-5.9055
X4.6063Y-5.3839
X4.6555Y-5.3839
X4.7047Y-5.3839
X4.7539Y-5.3839
X4.8031Y-5.3839
X5.0984Y-5.9055
X5.0984Y-5.9646
X5.0984Y-6.0236
X5.0984Y-6.0827
X5.1378Y-5.9252
X5.1378Y-5.9843
X5.1378Y-6.0433
X5.315Y-6.3386
X5.3642Y-5.6988
X5.4429Y-4.8622
X5.4429Y-5.0197
X5.4429Y-5.1772
X5.502Y-4.8622
X5.502Y-5.0197
X5.502Y-5.1772
X5.502Y-6.2205
X5.502Y-6.3583
X5.5315Y-5.8465
X5.5413Y-5.9843
X5.5512Y-6.2205
X5.5512Y-6.3583
X5.6004Y-6.2205
X5.6004Y-6.3583
X5.6102Y-6.1614
X5.6791Y-5.7185
X5.7776Y-5.8071
X5.8268Y-6.0827
X5.8465Y-4.813
X6.0827Y-6.3386
X6.3091Y-2.6476
X6.4764Y-5.2756
X6.5157Y-6.3091
X6.5551Y-4.4685
X6.624Y-4.3898
X6.624Y-4.5374
X6.624Y-5.9646
X6.6535Y-5.7087
X6.6634Y-4.8622
X6.6634Y-5.0197
X6.6634Y-5.1772
X6.6732Y-3.9469
X6.6732Y-4.3898
X6.6732Y-4.5472
X6.6831Y-5.7382
X6.7126Y-5.7087
X6.7224Y-4.5472
X6.7224Y-4.8622
X6.7224Y-5.0197
X6.7224Y-5.1772
X6.7323Y-2.5197
X6.7323Y-4.3898
X6.7421Y-5.7382
X6.7421Y-6.063
X6.7618Y-3.3661
X6.7717Y-5.7087
X6.8012Y-5.7382
X6.8209Y-6.122
X6.8307Y-5.7087
X6.8602Y-3.7008
X6.8996Y-6.2992
X6.939Y-3.8878
X7.0177Y-3.5925
X7.0276Y-5.4429
X7.0669Y-5.4921
X7.0669Y-5.5512
X7.1339Y-3.8031
X7.1358Y-3.6713
X7.1949Y-3.5335
X7.2047Y-5.4528
X7.2638Y-5.6791
X7.2933Y-5.7382
X7.3031Y-3.8878
X7.3116Y-3.4281
X7.3622Y-3.7205
X7.372Y-5.2264
X7.4803Y-5.748
X7.4902Y-3.5925
X7.5689Y-4.9311
X7.7461Y-5.4921
X7.8346Y-3.4646
X7.8839Y-2.3524
X7.8839Y-2.4902
X7.9331Y-2.3524
X7.9331Y-2.4902
X7.9823Y-2.3524
X7.9823Y-2.4902
X8.002Y-3.0709
X8.0413Y-5.6201
X8.0512Y-5.3839
X8.189Y-2.9134
X8.1988Y-3.002
X8.2185Y-5.7579
X8.2185Y-5.8071
X8.376Y-3.7598
X8.3957Y-3.8681
X8.4055Y-3.9961
X8.4252Y-3.9134
X8.435Y-3.9567
X8.4843Y-5.1476
X8.4941Y-3.3268
X8.4941Y-5.9154
X8.5138Y-3.7697
X8.5433Y-5.7776
X8.5433Y-5.9154
X8.5531Y-5.3642
X8.563Y-5.187
X8.5728Y-5.4626
X8.5925Y-3.8386
X8.5925Y-5.9154
X8.6024Y-3.7008
X8.6417Y-5.1378
X8.7657Y-3.6575
X8.7874Y-3.8976
X8.7952Y-3.9947
X8.8091Y-3.9469
X8.937Y-3.7874
X8.9764Y-3.8268
T2
X4.9508Y-3.3661
X5.0492Y-3.3661
T3
X3.5827Y-2.5984
X3.5827Y-2.6969
X3.622Y-2.2835
X3.7535Y-1.9882
X3.7992Y-2.9331
X3.7992Y-3.0315
X3.8126Y-1.7323
X3.8189Y-2.4409
X3.8189Y-2.5394
X3.9173Y-1.8504
X4.022Y-2.2835
X4.1142Y-1.8504
X4.1535Y-1.9882
X4.1669Y-2.1457
X4.2126Y-1.7323
X4.5669Y-2.1457
X4.685Y-2.1457
X4.685Y-2.5457
X4.7047Y-5.1772
X4.7047Y-5.315
X4.7638Y-2.6969
X4.7638Y-2.7953
X4.8228Y-1.8638
X4.8228Y-2.2638
X4.8425Y-2.9528
X4.8425Y-3.0512
X4.9409Y-1.8638
X4.9409Y-2.2638
X5.249Y-3.2525
X5.4429Y-3.6024
X5.4951Y-3.6856
X5.5039Y-2.2244
X5.5039Y-2.4409
X5.6268Y-2.6575
X5.689Y-4.0354
X5.7742Y-4.154
X5.7972Y-2.9035
X5.7972Y-3.002
X5.8268Y-2.6575
X5.9039Y-3.2169
X5.9055Y-5.5906
X5.9055Y-5.7906
X5.9417Y-2.7953
X6.0039Y-2.2244
X6.0039Y-2.4409
X6.0039Y-3.1169
X6.0039Y-3.3169
X6.0055Y-5.6906
X6.0138Y-3.6909
X6.0138Y-3.7894
X6.1417Y-2.1228
X6.1417Y-2.3228
X6.1417Y-2.4378
X6.1417Y-2.6378
X6.1417Y-2.7953
X6.1713Y-4.2028
X6.1992Y-3.7484
X6.2831Y-4.2126
X6.2992Y-3.6484
X6.2992Y-3.8484
X6.3287Y-3.3465
X6.3287Y-3.5465
X6.3287Y-5.8563
X6.3287Y-6.3563
X6.4256Y-3.7484
X6.4469Y-3.3433
X6.4469Y-3.5433
X6.4665Y-3.2185
X6.4862Y-5.8563
X6.4862Y-6.0531
X6.5157Y-2.5657
X6.5157Y-2.7657
X6.5256Y-3.6484
X6.5256Y-3.8484
X6.5665Y-3.1185
X6.652Y-3.8272
X6.6665Y-3.2185
X6.6831Y-4.2126
X6.6929Y-3.4449
X6.6929Y-3.6449
X6.752Y-3.7272
X6.752Y-3.9272
X6.7587Y-3.1594
X6.7929Y-3.5449
X6.9488Y-4.9823
X6.9488Y-5.4823
X6.9587Y-3.1594
X6.9949Y-2.8937
X7.0571Y-2.4587
X7.1228Y-3.0217
X7.1555Y-2.4587
X7.1654Y-2.0669
X7.1654Y-2.2638
X7.1949Y-2.8937
X7.1949Y-5.0197
X7.1949Y-5.1575
X7.313Y-2.4016
X7.3228Y-3.0217
X7.3327Y-2.628
X7.3327Y-2.828
X7.4016Y-4.0157
X7.4492Y-3.0299
X7.4591Y-5.1559
X7.4606Y-2.6248
X7.4606Y-2.8248
X7.4803Y-4.0157
X7.5098Y-2.4016
X7.5492Y-2.9299
X7.5492Y-3.1299
X7.5591Y-5.0559
X7.5591Y-5.2559
X7.5984Y-3.4646
X7.6181Y-2.0866
X7.6181Y-2.2835
X7.6772Y-2.6673
X7.6772Y-2.7657
X7.6772Y-3.4646
X7.9035Y-2.0079
X7.9035Y-2.1063
X7.9921Y-4.8622
X7.9921Y-5.0
X8.4646Y-4.9311
X8.6614Y-4.9311
T4
X5.2543Y-6.122
X5.3543Y-6.122
X6.9488Y-4.5177
X6.9488Y-4.6177
T5
X6.7913Y-5.9646
X6.8898Y-5.9646
X6.9882Y-5.9646
X7.0866Y-5.9646
X7.0866Y-6.2992
X7.185Y-5.9646
X7.185Y-6.2992
X7.2835Y-5.9646
X7.2835Y-6.2992
X7.3819Y-5.9646
X7.3819Y-6.2992
X7.4803Y-5.9646
X7.4803Y-6.2992
X7.5787Y-5.9646
X7.5787Y-6.2992
X7.6772Y-5.9646
X7.6772Y-6.2992
T6
X2.9724Y-3.8189
X2.9724Y-4.0748
X2.9724Y-4.3307
X3.0709Y-3.248
X3.2677Y-3.8189
X3.2677Y-4.0748
X3.2677Y-4.3307
X3.3661Y-2.3315
X3.3661Y-2.6315
X3.3661Y-2.8315
X3.3661Y-2.9315
X3.3661Y-3.0315
X3.3661Y-3.248
X4.311Y-3.9961
X4.311Y-4.252
X4.5374Y-6.2205
X4.6063Y-3.9961
X4.6063Y-4.252
X4.6374Y-6.2205
X4.7374Y-6.2205
X4.9803Y-5.1181
X5.0787Y-2.2244
X5.0787Y-2.4409
X5.0787Y-2.6575
X5.1575Y-2.874
X5.1772Y-2.0079
X5.2756Y-5.1181
X5.374Y-2.2244
X5.374Y-2.4409
X5.374Y-2.6575
X5.4528Y-2.874
X5.4724Y-2.0079
X7.1161Y-4.6327
X7.1161Y-4.7327
X7.1161Y-4.8327
X8.3583Y-6.2992
X8.4583Y-6.2992
X8.5583Y-6.2992
X8.6583Y-6.2992
X8.7583Y-6.2992
X8.8583Y-6.2992
T7
X3.1496Y-2.5394
X3.1496Y-2.9394
X3.4843Y-3.8189
X3.4843Y-4.0945
X3.4843Y-4.3701
X3.6551Y-2.1457
X3.6748Y-3.9567
X3.6748Y-4.2323
X3.6748Y-4.5079
X3.8843Y-3.8189
X3.8843Y-4.0945
X3.8843Y-4.3701
X3.9701Y-3.4449
X4.0551Y-2.1457
X4.0748Y-3.9567
X4.0748Y-4.2323
X4.0748Y-4.5079
X4.1339Y-2.3228
X4.285Y-1.8504
X4.3701Y-3.4449
X4.5276Y-1.7126
X4.5339Y-2.3228
X4.685Y-1.8504
X4.9276Y-1.7126
X4.9803Y-5.374
X4.9803Y-5.774
X6.3126Y-5.4626
X6.7126Y-5.4626
T8
X2.9134Y-3.5236
X3.6126Y-3.248
X3.7992Y-3.5236
X3.9866Y-3.0315
X4.0551Y-3.6811
X4.2126Y-3.248
X4.4622Y-4.8228
X4.5866Y-3.0315
X4.8622Y-4.8228
X4.9409Y-3.6811
X5.2661Y-1.7913
X5.8661Y-1.7913
X5.9843Y-1.7913
X6.3094Y-2.126
X6.3094Y-2.4409
X6.5843Y-1.7913
X6.7031Y-1.7913
X6.9094Y-2.126
X6.9094Y-2.4409
X7.1555Y-3.189
X7.1555Y-3.3858
X7.3031Y-1.7913
T9
X4.452Y-5.2555
X4.452Y-5.5555
X4.452Y-5.8555
X6.1122Y-5.9252
T10
X7.6181Y-1.7126
X7.6181Y-1.9094
X8.163Y-4.439
X8.189Y-5.1378
X8.363Y-4.239
X8.363Y-4.639
X8.3858Y-5.1378
X8.463Y-4.139
X8.463Y-4.739
X8.663Y-4.139
X8.663Y-4.739
X8.763Y-4.239
X8.763Y-4.639
X8.8386Y-2.3524
X8.8386Y-2.5492
X8.937Y-2.4508
T11
X6.1402Y-3.0102
X6.2402Y-2.9102
X6.2402Y-3.1102
X6.3748Y-2.9134
X6.4748Y-3.0134
X6.5748Y-2.9134
X6.7094Y-2.7953
X6.8094Y-2.8953
X6.9094Y-2.7953
X7.0146Y-2.687
X7.1146Y-2.787
X7.2146Y-2.687
X7.2819Y-2.1835
X7.3819Y-2.0835
X7.3819Y-2.2835
T12
X2.9606Y-1.9488
X2.9606Y-5.7283
X3.2598Y-1.9488
X3.2598Y-5.7283
X8.3937Y-1.9488
X8.3937Y-5.7283
X8.6929Y-1.9488
X8.6929Y-5.7283
T0
M30
