M48
; DRILL file {KiCad (5.99.0-6780-gcd89951b64)} date Mon Nov  2 22:59:16 2020
; FORMAT={-:-/ absolute / inch / decimal}
; #@! TF.CreationDate,2020-11-02T22:59:16-07:00
; #@! TF.GenerationSoftware,Kicad,Pcbnew,(5.99.0-6780-gcd89951b64)
; #@! TF.FileFunction,NonPlated,1,4,NPTH
FMAT,2
INCH
%
G90
G05
T0
M30
