%TF.GenerationSoftware,KiCad,Pcbnew,5.99.0-unknown-2b9f7d6150~106~ubuntu20.10.1~~buster1*%
%TF.CreationDate,2021-01-04T20:39:32-07:00*%
%TF.ProjectId,PCB-007-crtcontrol,5043422d-3030-4372-9d63-7274636f6e74,rev?*%
%TF.SameCoordinates,Original*%
%TF.FileFunction,Copper,L4,Bot*%
%TF.FilePolarity,Positive*%
%FSLAX46Y46*%
G04 Gerber Fmt 4.6, Leading zero omitted, Abs format (unit mm)*
G04 Created by KiCad (PCBNEW 5.99.0-unknown-2b9f7d6150~106~ubuntu20.10.1~~buster1) date 2021-01-04 20:39:32*
%MOMM*%
%LPD*%
G01*
G04 APERTURE LIST*
G04 Aperture macros list*
%AMRoundRect*
0 Rectangle with rounded corners*
0 $1 Rounding radius*
0 $2 $3 $4 $5 $6 $7 $8 $9 X,Y pos of 4 corners*
0 Add a 4 corners polygon primitive as box body*
4,1,4,$2,$3,$4,$5,$6,$7,$8,$9,$2,$3,0*
0 Add four circle primitives for the rounded corners*
1,1,$1+$1,$2,$3,0*
1,1,$1+$1,$4,$5,0*
1,1,$1+$1,$6,$7,0*
1,1,$1+$1,$8,$9,0*
0 Add four rect primitives between the rounded corners*
20,1,$1+$1,$2,$3,$4,$5,0*
20,1,$1+$1,$4,$5,$6,$7,0*
20,1,$1+$1,$6,$7,$8,$9,0*
20,1,$1+$1,$8,$9,$2,$3,0*%
G04 Aperture macros list end*
%TA.AperFunction,ComponentPad*%
%ADD10C,2.340000*%
%TD*%
%TA.AperFunction,ComponentPad*%
%ADD11C,2.600000*%
%TD*%
%TA.AperFunction,ComponentPad*%
%ADD12R,1.700000X1.700000*%
%TD*%
%TA.AperFunction,ComponentPad*%
%ADD13C,1.700000*%
%TD*%
%TA.AperFunction,ComponentPad*%
%ADD14R,1.600000X1.600000*%
%TD*%
%TA.AperFunction,ComponentPad*%
%ADD15C,1.600000*%
%TD*%
%TA.AperFunction,ComponentPad*%
%ADD16O,1.700000X1.700000*%
%TD*%
%TA.AperFunction,ComponentPad*%
%ADD17C,2.800000*%
%TD*%
%TA.AperFunction,ComponentPad*%
%ADD18RoundRect,0.250000X-0.600000X-0.600000X0.600000X-0.600000X0.600000X0.600000X-0.600000X0.600000X0*%
%TD*%
%TA.AperFunction,ComponentPad*%
%ADD19C,2.050000*%
%TD*%
%TA.AperFunction,ComponentPad*%
%ADD20C,2.250000*%
%TD*%
%TA.AperFunction,ComponentPad*%
%ADD21C,0.800000*%
%TD*%
%TA.AperFunction,ComponentPad*%
%ADD22C,6.400000*%
%TD*%
%TA.AperFunction,ComponentPad*%
%ADD23RoundRect,0.250000X-0.600000X-0.725000X0.600000X-0.725000X0.600000X0.725000X-0.600000X0.725000X0*%
%TD*%
%TA.AperFunction,ComponentPad*%
%ADD24O,1.700000X1.950000*%
%TD*%
%TA.AperFunction,ComponentPad*%
%ADD25C,1.440000*%
%TD*%
%TA.AperFunction,SMDPad,CuDef*%
%ADD26RoundRect,0.250000X0.350000X0.450000X-0.350000X0.450000X-0.350000X-0.450000X0.350000X-0.450000X0*%
%TD*%
%TA.AperFunction,SMDPad,CuDef*%
%ADD27RoundRect,0.250000X-0.350000X-0.450000X0.350000X-0.450000X0.350000X0.450000X-0.350000X0.450000X0*%
%TD*%
%TA.AperFunction,SMDPad,CuDef*%
%ADD28RoundRect,0.250000X-0.337500X-0.475000X0.337500X-0.475000X0.337500X0.475000X-0.337500X0.475000X0*%
%TD*%
%TA.AperFunction,ViaPad*%
%ADD29C,0.812800*%
%TD*%
%TA.AperFunction,ViaPad*%
%ADD30C,0.660400*%
%TD*%
%TA.AperFunction,ViaPad*%
%ADD31C,0.800100*%
%TD*%
%TA.AperFunction,Conductor*%
%ADD32C,0.200000*%
%TD*%
%TA.AperFunction,Conductor*%
%ADD33C,0.600000*%
%TD*%
%TA.AperFunction,Conductor*%
%ADD34C,0.800000*%
%TD*%
%TA.AperFunction,Conductor*%
%ADD35C,0.400000*%
%TD*%
%TA.AperFunction,Conductor*%
%ADD36C,0.293370*%
%TD*%
%TA.AperFunction,Conductor*%
%ADD37C,1.200000*%
%TD*%
%TA.AperFunction,Conductor*%
%ADD38C,0.114808*%
%TD*%
G04 APERTURE END LIST*
D10*
%TO.P,RV11,1,1*%
%TO.N,+2V5*%
X173000000Y-48500000D03*
%TO.P,RV11,2,2*%
%TO.N,/ASTIG*%
X170500000Y-51000000D03*
%TO.P,RV11,3,3*%
%TO.N,GND*%
X168000000Y-48500000D03*
%TD*%
D11*
%TO.P,L1,1,1*%
%TO.N,Net-(C14-Pad2)*%
X232250000Y-104000000D03*
%TO.P,L1,2,2*%
%TO.N,Net-(L1-Pad2)*%
X227250000Y-104000000D03*
%TD*%
D12*
%TO.P,P1,A1,GND*%
%TO.N,GND*%
X243700000Y-54630000D03*
D13*
%TO.P,P1,A2,TS+*%
%TO.N,/H+*%
X243700000Y-57170000D03*
%TO.P,P1,A3,TS-*%
%TO.N,/H-*%
X243700000Y-59710000D03*
%TO.P,P1,A4,GND*%
%TO.N,GND*%
X243700000Y-62250000D03*
%TO.P,P1,A5,SS0*%
%TO.N,no_connect_194*%
X243700000Y-64790000D03*
%TO.P,P1,A6,SS1*%
%TO.N,no_connect_195*%
X243700000Y-67330000D03*
%TO.P,P1,A7,GND*%
%TO.N,GND*%
X243700000Y-69870000D03*
%TO.P,P1,A8,GND*%
X243700000Y-72410000D03*
%TO.P,P1,A9,SS2*%
%TO.N,/NOTEXT#*%
X243700000Y-74950000D03*
%TO.P,P1,A10,SS3*%
%TO.N,/NOSCALE#*%
X243700000Y-77490000D03*
%TO.P,P1,A11,GND*%
%TO.N,GND*%
X243700000Y-80030000D03*
%TO.P,P1,A12,GND*%
X243700000Y-82570000D03*
%TO.P,P1,A13,SS4*%
%TO.N,no_connect_180*%
X243700000Y-85110000D03*
%TO.P,P1,A14,SS5*%
%TO.N,no_connect_181*%
X243700000Y-87650000D03*
%TO.P,P1,A15,GND*%
%TO.N,GND*%
X243700000Y-90190000D03*
%TO.P,P1,A16,SA2*%
%TO.N,no_connect_182*%
X243700000Y-92730000D03*
%TO.P,P1,A17,GND*%
%TO.N,GND*%
X243700000Y-95270000D03*
%TO.P,P1,A18,SA7*%
%TO.N,no_connect_183*%
X243700000Y-97810000D03*
%TO.P,P1,A19,SA9*%
%TO.N,no_connect_184*%
X243700000Y-100350000D03*
%TO.P,P1,A20,SA11*%
%TO.N,/ZSEL*%
X243700000Y-102890000D03*
%TO.P,P1,A21,SA14*%
%TO.N,no_connect_185*%
X243700000Y-105430000D03*
%TO.P,P1,A22,CHAR1*%
%TO.N,no_connect_186*%
X243700000Y-107970000D03*
%TO.P,P1,A23,CHAR4*%
%TO.N,no_connect_187*%
X243700000Y-110510000D03*
%TO.P,P1,A24,CHAR7*%
%TO.N,no_connect_188*%
X243700000Y-113050000D03*
%TO.P,P1,A25,POS2*%
%TO.N,no_connect_189*%
X243700000Y-115590000D03*
%TO.P,P1,A26,nc*%
%TO.N,no_connect_190*%
X243700000Y-118130000D03*
%TO.P,P1,A27,nc*%
%TO.N,no_connect_191*%
X243700000Y-120670000D03*
%TO.P,P1,A28,+12V*%
%TO.N,/+12VIN*%
X243700000Y-123210000D03*
%TO.P,P1,A29,+12V*%
X243700000Y-125750000D03*
%TO.P,P1,A30,+5V*%
%TO.N,no_connect_192*%
X243700000Y-128290000D03*
%TO.P,P1,A31,+5V*%
%TO.N,no_connect_193*%
X243700000Y-130830000D03*
%TO.P,P1,A32,GND*%
%TO.N,GND*%
X243700000Y-133370000D03*
%TO.P,P1,B1,GND*%
X241160000Y-54630000D03*
%TO.P,P1,B2,GND*%
X241160000Y-57170000D03*
%TO.P,P1,B3,GND*%
X241160000Y-59710000D03*
%TO.P,P1,B4,GND*%
X241160000Y-62250000D03*
%TO.P,P1,B5,GND*%
X241160000Y-64790000D03*
%TO.P,P1,B6,GND*%
X241160000Y-67330000D03*
%TO.P,P1,B7,IN2+*%
%TO.N,no_connect_207*%
X241160000Y-69870000D03*
%TO.P,P1,B8,IN2-*%
%TO.N,no_connect_208*%
X241160000Y-72410000D03*
%TO.P,P1,B9,GND*%
%TO.N,GND*%
X241160000Y-74950000D03*
%TO.P,P1,B10,GND*%
X241160000Y-77490000D03*
%TO.P,P1,B11,IN4+*%
%TO.N,no_connect_196*%
X241160000Y-80030000D03*
%TO.P,P1,B12,IN4-*%
%TO.N,no_connect_197*%
X241160000Y-82570000D03*
%TO.P,P1,B13,GND*%
%TO.N,GND*%
X241160000Y-85110000D03*
%TO.P,P1,B14,GND*%
X241160000Y-87650000D03*
%TO.P,P1,B15,GND*%
X241160000Y-90190000D03*
%TO.P,P1,B16,SA1*%
%TO.N,no_connect_198*%
X241160000Y-92730000D03*
%TO.P,P1,B17,SA4*%
%TO.N,no_connect_199*%
X241160000Y-95270000D03*
%TO.P,P1,B18,SA6*%
%TO.N,no_connect_200*%
X241160000Y-97810000D03*
%TO.P,P1,B19,SA8*%
%TO.N,no_connect_201*%
X241160000Y-100350000D03*
%TO.P,P1,B20,GND*%
%TO.N,GND*%
X241160000Y-102890000D03*
%TO.P,P1,B21,SA13*%
%TO.N,/XY#*%
X241160000Y-105430000D03*
%TO.P,P1,B22,CHAR0*%
%TO.N,no_connect_202*%
X241160000Y-107970000D03*
%TO.P,P1,B23,CHAR3*%
%TO.N,no_connect_203*%
X241160000Y-110510000D03*
%TO.P,P1,B24,CHAR6*%
%TO.N,no_connect_204*%
X241160000Y-113050000D03*
%TO.P,P1,B25,POS1*%
%TO.N,no_connect_205*%
X241160000Y-115590000D03*
%TO.P,P1,B26,GND*%
%TO.N,GND*%
X241160000Y-118130000D03*
%TO.P,P1,B27,nc*%
%TO.N,no_connect_206*%
X241160000Y-120670000D03*
%TO.P,P1,B28,+15V*%
%TO.N,/+15VIN*%
X241160000Y-123210000D03*
%TO.P,P1,B29,GND*%
%TO.N,GND*%
X241160000Y-125750000D03*
%TO.P,P1,B30,GND*%
X241160000Y-128290000D03*
%TO.P,P1,B31,-15V*%
%TO.N,/-15VIN*%
X241160000Y-130830000D03*
%TO.P,P1,B32,GND*%
%TO.N,GND*%
X241160000Y-133370000D03*
%TO.P,P1,C1,GND*%
X238620000Y-54630000D03*
%TO.P,P1,C2,SIG+*%
%TO.N,/V+*%
X238620000Y-57170000D03*
%TO.P,P1,C3,SIG-*%
%TO.N,/V-*%
X238620000Y-59710000D03*
%TO.P,P1,C4,GND*%
%TO.N,GND*%
X238620000Y-62250000D03*
%TO.P,P1,C5,IN1+*%
%TO.N,/VSEP+*%
X238620000Y-64790000D03*
%TO.P,P1,C6,IN1-*%
%TO.N,/VSEP-*%
X238620000Y-67330000D03*
%TO.P,P1,C7,GND*%
%TO.N,GND*%
X238620000Y-69870000D03*
%TO.P,P1,C8,GND*%
X238620000Y-72410000D03*
%TO.P,P1,C9,IN3+*%
%TO.N,no_connect_219*%
X238620000Y-74950000D03*
%TO.P,P1,C10,IN3-*%
%TO.N,no_connect_209*%
X238620000Y-77490000D03*
%TO.P,P1,C11,GND*%
%TO.N,GND*%
X238620000Y-80030000D03*
%TO.P,P1,C12,GND*%
X238620000Y-82570000D03*
%TO.P,P1,C13,IN5+*%
%TO.N,no_connect_210*%
X238620000Y-85110000D03*
%TO.P,P1,C14,IN5-*%
%TO.N,no_connect_211*%
X238620000Y-87650000D03*
%TO.P,P1,C15,GND*%
%TO.N,GND*%
X238620000Y-90190000D03*
%TO.P,P1,C16,SA0*%
%TO.N,/POWER#*%
X238620000Y-92730000D03*
%TO.P,P1,C17,SA3*%
%TO.N,no_connect_212*%
X238620000Y-95270000D03*
%TO.P,P1,C18,SA5*%
%TO.N,/PS_SYNC*%
X238620000Y-97810000D03*
%TO.P,P1,C19,GND*%
%TO.N,GND*%
X238620000Y-100350000D03*
%TO.P,P1,C20,SA10*%
%TO.N,/SPEED*%
X238620000Y-102890000D03*
%TO.P,P1,C21,SA12*%
%TO.N,/INTEN#*%
X238620000Y-105430000D03*
%TO.P,P1,C22,SA15*%
%TO.N,/SLOWSWP#*%
X238620000Y-107970000D03*
%TO.P,P1,C23,CHAR2*%
%TO.N,no_connect_213*%
X238620000Y-110510000D03*
%TO.P,P1,C24,CHAR5*%
%TO.N,no_connect_214*%
X238620000Y-113050000D03*
%TO.P,P1,C25,POS0*%
%TO.N,no_connect_215*%
X238620000Y-115590000D03*
%TO.P,P1,C26,FIELD*%
%TO.N,no_connect_216*%
X238620000Y-118130000D03*
%TO.P,P1,C27,GND*%
%TO.N,GND*%
X238620000Y-120670000D03*
%TO.P,P1,C28,GND*%
X238620000Y-123210000D03*
%TO.P,P1,C29,nc*%
%TO.N,no_connect_217*%
X238620000Y-125750000D03*
%TO.P,P1,C30,GND*%
%TO.N,GND*%
X238620000Y-128290000D03*
%TO.P,P1,C31,nc*%
%TO.N,no_connect_218*%
X238620000Y-130830000D03*
%TO.P,P1,C32,GND*%
%TO.N,GND*%
X238620000Y-133370000D03*
%TD*%
D14*
%TO.P,C73,1*%
%TO.N,GND*%
X136000000Y-128000000D03*
D15*
%TO.P,C73,2*%
%TO.N,-15V*%
X138000000Y-128000000D03*
%TD*%
D12*
%TO.P,J2,1,Pin_1*%
%TO.N,/ROT+*%
X182750000Y-128000000D03*
D16*
%TO.P,J2,2,Pin_2*%
%TO.N,/ROT-*%
X182750000Y-130540000D03*
%TD*%
D14*
%TO.P,C16,1*%
%TO.N,GND*%
X218250000Y-107000000D03*
D15*
%TO.P,C16,2*%
%TO.N,Net-(C15-Pad2)*%
X218250000Y-103500000D03*
%TD*%
D12*
%TO.P,A2,1,Pin_1*%
%TO.N,+15V*%
X95000000Y-116000000D03*
D16*
%TO.P,A2,2,Pin_2*%
%TO.N,-15V*%
X97540000Y-116000000D03*
%TO.P,A2,3,Pin_3*%
%TO.N,GND*%
X100080000Y-116000000D03*
%TO.P,A2,4,Pin_4*%
%TO.N,/VDYNCENT*%
X102620000Y-116000000D03*
%TO.P,A2,5,Pin_5*%
%TO.N,/HDYNCENT*%
X105160000Y-116000000D03*
%TO.P,A2,6,Pin_6*%
%TO.N,/INTEN*%
X107700000Y-116000000D03*
%TO.P,A2,7,Pin_7*%
%TO.N,/FOCUS*%
X110240000Y-116000000D03*
%TO.P,A2,8,Pin_8*%
%TO.N,+2V5*%
X112780000Y-116000000D03*
%TD*%
D14*
%TO.P,C42,1*%
%TO.N,+2V5*%
X154000000Y-117000000D03*
D15*
%TO.P,C42,2*%
%TO.N,Net-(C42-Pad2)*%
X154000000Y-115000000D03*
%TD*%
D10*
%TO.P,RV2,1,1*%
%TO.N,+2V5*%
X184000000Y-139500000D03*
%TO.P,RV2,2,2*%
%TO.N,/Intensity Decoder/SSCLAMP*%
X186500000Y-137000000D03*
%TO.P,RV2,3,3*%
%TO.N,GND*%
X189000000Y-139500000D03*
%TD*%
D14*
%TO.P,C17,1*%
%TO.N,GND*%
X209250000Y-107000000D03*
D15*
%TO.P,C17,2*%
%TO.N,-2V*%
X209250000Y-103500000D03*
%TD*%
D12*
%TO.P,A3,1,Pin_1*%
%TO.N,+15V*%
X95000000Y-126000000D03*
D16*
%TO.P,A3,2,Pin_2*%
%TO.N,-15V*%
X97540000Y-126000000D03*
%TO.P,A3,3,Pin_3*%
%TO.N,GND*%
X100080000Y-126000000D03*
%TO.P,A3,4,Pin_4*%
%TO.N,/FOCUS_POT*%
X102620000Y-126000000D03*
%TO.P,A3,5,Pin_5*%
%TO.N,/FOCUS*%
X105160000Y-126000000D03*
%TO.P,A3,6,Pin_6*%
%TO.N,/INTEN*%
X107700000Y-126000000D03*
%TO.P,A3,7,Pin_7*%
%TO.N,no_connect_177*%
X110240000Y-126000000D03*
%TO.P,A3,8,Pin_8*%
%TO.N,+2V5*%
X112780000Y-126000000D03*
%TD*%
D14*
%TO.P,C43,1*%
%TO.N,Net-(C43-Pad1)*%
X159000000Y-114750000D03*
D15*
%TO.P,C43,2*%
%TO.N,-2V5*%
X159000000Y-112750000D03*
%TD*%
D10*
%TO.P,RV10,1,1*%
%TO.N,+2V5*%
X161000000Y-48500000D03*
%TO.P,RV10,2,2*%
%TO.N,/TRACE_SKEW_POT*%
X158500000Y-51000000D03*
%TO.P,RV10,3,3*%
%TO.N,GND*%
X156000000Y-48500000D03*
%TD*%
%TO.P,RV6,1,1*%
%TO.N,GND*%
X126000000Y-56500000D03*
%TO.P,RV6,2,2*%
%TO.N,Net-(R57-Pad2)*%
X123500000Y-59000000D03*
%TO.P,RV6,3,3*%
%TO.N,Net-(R55-Pad1)*%
X121000000Y-56500000D03*
%TD*%
D17*
%TO.P,TP1,1,1*%
%TO.N,Net-(R51-Pad2)*%
X106000000Y-99250000D03*
%TD*%
D14*
%TO.P,C41,1*%
%TO.N,Net-(C41-Pad1)*%
X144500000Y-126500000D03*
D15*
%TO.P,C41,2*%
%TO.N,GND*%
X142500000Y-126500000D03*
%TD*%
D14*
%TO.P,C12,1*%
%TO.N,GND*%
X228000000Y-119250000D03*
D15*
%TO.P,C12,2*%
%TO.N,-15V*%
X231500000Y-119250000D03*
%TD*%
D18*
%TO.P,J1,1,Pin_1*%
%TO.N,GND*%
X167000000Y-84000000D03*
D13*
%TO.P,J1,2,Pin_2*%
%TO.N,no_connect_179*%
X169540000Y-84000000D03*
%TO.P,J1,3,Pin_3*%
%TO.N,GND*%
X167000000Y-86540000D03*
%TO.P,J1,4,Pin_4*%
%TO.N,/FOCUS_POT*%
X169540000Y-86540000D03*
%TO.P,J1,5,Pin_5*%
%TO.N,/INTEN_B_POT*%
X167000000Y-89080000D03*
%TO.P,J1,6,Pin_6*%
%TO.N,/INTEN_A_POT*%
X169540000Y-89080000D03*
%TO.P,J1,7,Pin_7*%
%TO.N,/INTEN_READOUT_POT*%
X167000000Y-91620000D03*
%TO.P,J1,8,Pin_8*%
%TO.N,/INTEN_RECALL_POT*%
X169540000Y-91620000D03*
%TO.P,J1,9,Pin_9*%
%TO.N,/BEAMFIND*%
X167000000Y-94160000D03*
%TO.P,J1,10,Pin_10*%
%TO.N,/TRACE_ROT_POT*%
X169540000Y-94160000D03*
%TO.P,J1,11,Pin_11*%
%TO.N,+2V5*%
X167000000Y-96700000D03*
%TO.P,J1,12,Pin_12*%
%TO.N,/POWER#*%
X169540000Y-96700000D03*
%TO.P,J1,13,Pin_13*%
%TO.N,+2V5*%
X167000000Y-99240000D03*
%TO.P,J1,14,Pin_14*%
%TO.N,-2V5*%
X169540000Y-99240000D03*
%TO.P,J1,15,Pin_15*%
%TO.N,+12V*%
X167000000Y-101780000D03*
%TO.P,J1,16,Pin_16*%
%TO.N,GND*%
X169540000Y-101780000D03*
%TD*%
D14*
%TO.P,C72,1*%
%TO.N,+15V*%
X172000000Y-131000000D03*
D15*
%TO.P,C72,2*%
%TO.N,GND*%
X174000000Y-131000000D03*
%TD*%
D19*
%TO.P,J10,1,In*%
%TO.N,/CABLEH+*%
X196000000Y-57000000D03*
D20*
%TO.P,J10,2,Ext*%
%TO.N,+5V*%
X198540000Y-54460000D03*
X198540000Y-59540000D03*
X193460000Y-59540000D03*
X193460000Y-54460000D03*
%TD*%
D21*
%TO.P,H4,1*%
%TO.N,GND*%
X115697056Y-140697056D03*
X114000000Y-136600000D03*
X114000000Y-141400000D03*
X112302944Y-140697056D03*
X115697056Y-137302944D03*
X116400000Y-139000000D03*
X111600000Y-139000000D03*
D22*
X114000000Y-139000000D03*
D21*
X112302944Y-137302944D03*
%TD*%
%TO.P,H1,1*%
%TO.N,GND*%
X94000000Y-51400000D03*
X91600000Y-49000000D03*
X95697056Y-50697056D03*
X95697056Y-47302944D03*
X94000000Y-46600000D03*
X96400000Y-49000000D03*
X92302944Y-50697056D03*
D22*
X94000000Y-49000000D03*
D21*
X92302944Y-47302944D03*
%TD*%
D14*
%TO.P,C30,1*%
%TO.N,+5V*%
X209250000Y-128750000D03*
D15*
%TO.P,C30,2*%
%TO.N,GND*%
X207250000Y-128750000D03*
%TD*%
D19*
%TO.P,J11,1,In*%
%TO.N,/CABLEH-*%
X181000000Y-57000000D03*
D20*
%TO.P,J11,2,Ext*%
%TO.N,+5V*%
X178460000Y-59540000D03*
X183540000Y-54460000D03*
X178460000Y-54460000D03*
X183540000Y-59540000D03*
%TD*%
D14*
%TO.P,C11,1*%
%TO.N,GND*%
X209250000Y-121750000D03*
D15*
%TO.P,C11,2*%
%TO.N,-5V*%
X207250000Y-121750000D03*
%TD*%
D12*
%TO.P,J4,1,Pin_1*%
%TO.N,/PS_KICK*%
X127460000Y-137500000D03*
D16*
%TO.P,J4,2,Pin_2*%
%TO.N,/BLANK*%
X130000000Y-137500000D03*
%TO.P,J4,3,Pin_3*%
%TO.N,/INTEN*%
X132540000Y-137500000D03*
%TO.P,J4,4,Pin_4*%
%TO.N,/ASTIG*%
X135080000Y-137500000D03*
%TO.P,J4,5,Pin_5*%
%TO.N,/FOCUS*%
X137620000Y-137500000D03*
%TO.P,J4,6,Pin_6*%
%TO.N,GND*%
X140160000Y-137500000D03*
%TD*%
D10*
%TO.P,RV3,1,1*%
%TO.N,+2V5*%
X196000000Y-139500000D03*
%TO.P,RV3,2,2*%
%TO.N,/Intensity Decoder/XYCLAMP*%
X198500000Y-137000000D03*
%TO.P,RV3,3,3*%
%TO.N,GND*%
X201000000Y-139500000D03*
%TD*%
%TO.P,RV4,1,1*%
%TO.N,Net-(R22-Pad2)*%
X137000000Y-48500000D03*
%TO.P,RV4,2,2*%
%TO.N,Net-(R31-Pad2)*%
X134500000Y-51000000D03*
%TO.P,RV4,3,3*%
X132000000Y-48500000D03*
%TD*%
D12*
%TO.P,J7,1,In*%
%TO.N,/PANEL_INTEN*%
X112000000Y-76000000D03*
D16*
%TO.P,J7,2,Ext*%
%TO.N,GND*%
X109460000Y-76000000D03*
%TD*%
D23*
%TO.P,J3,1,Pin_1*%
%TO.N,-15V*%
X147920000Y-137500000D03*
D24*
%TO.P,J3,2,Pin_2*%
%TO.N,+15V*%
X150420000Y-137500000D03*
%TO.P,J3,3,Pin_3*%
%TO.N,GND*%
X152920000Y-137500000D03*
%TO.P,J3,4,Pin_4*%
%TO.N,+12V*%
X155420000Y-137500000D03*
%TO.P,J3,5,Pin_5*%
%TO.N,+100V*%
X157920000Y-137500000D03*
%TO.P,J3,6,Pin_6*%
%TO.N,+12V*%
X160420000Y-137500000D03*
%TO.P,J3,7,Pin_7*%
%TO.N,GND*%
X162920000Y-137500000D03*
%TD*%
D19*
%TO.P,J9,1,In*%
%TO.N,/CABLEV-*%
X211000000Y-57000000D03*
D20*
%TO.P,J9,2,Ext*%
%TO.N,+5V*%
X213540000Y-59540000D03*
X208460000Y-54460000D03*
X208460000Y-59540000D03*
X213540000Y-54460000D03*
%TD*%
D10*
%TO.P,RV1,1,1*%
%TO.N,+2V5*%
X172000000Y-139500000D03*
%TO.P,RV1,2,2*%
%TO.N,/Intensity Decoder/BFSSCLAMP*%
X174500000Y-137000000D03*
%TO.P,RV1,3,3*%
%TO.N,GND*%
X177000000Y-139500000D03*
%TD*%
D25*
%TO.P,RV9,1,1*%
%TO.N,Net-(R86-Pad1)*%
X185960000Y-49500000D03*
%TO.P,RV9,2,2*%
X188500000Y-49500000D03*
%TO.P,RV9,3,3*%
%TO.N,Net-(R87-Pad1)*%
X191040000Y-49500000D03*
%TD*%
D12*
%TO.P,J6,1,Pin_1*%
%TO.N,GND*%
X171000000Y-74000000D03*
D16*
%TO.P,J6,2,Pin_2*%
%TO.N,Net-(J6-Pad2)*%
X171000000Y-71460000D03*
%TO.P,J6,3,Pin_3*%
%TO.N,GND*%
X171000000Y-68920000D03*
%TO.P,J6,4,Pin_4*%
%TO.N,-15V*%
X171000000Y-66380000D03*
%TO.P,J6,5,Pin_5*%
%TO.N,+12V*%
X171000000Y-63840000D03*
%TO.P,J6,6,Pin_6*%
%TO.N,+15V*%
X171000000Y-61300000D03*
%TO.P,J6,7,Pin_7*%
%TO.N,GND*%
X171000000Y-58760000D03*
%TO.P,J6,8,Pin_8*%
%TO.N,+100V*%
X171000000Y-56220000D03*
%TD*%
D12*
%TO.P,J12,1,Pin_1*%
%TO.N,/SKEW+*%
X177750000Y-128000000D03*
D16*
%TO.P,J12,2,Pin_2*%
%TO.N,/SKEW-*%
X177750000Y-130540000D03*
%TD*%
D14*
%TO.P,C33,1*%
%TO.N,+15V*%
X226500000Y-127000000D03*
D15*
%TO.P,C33,2*%
%TO.N,GND*%
X223000000Y-127000000D03*
%TD*%
D19*
%TO.P,J8,1,In*%
%TO.N,/CABLEV+*%
X226000000Y-57000000D03*
D20*
%TO.P,J8,2,Ext*%
%TO.N,+5V*%
X228540000Y-54460000D03*
X223460000Y-59540000D03*
X228540000Y-59540000D03*
X223460000Y-54460000D03*
%TD*%
D12*
%TO.P,J5,1,Pin_1*%
%TO.N,GND*%
X165000000Y-74000000D03*
D16*
%TO.P,J5,2,Pin_2*%
%TO.N,Net-(J5-Pad2)*%
X165000000Y-71460000D03*
%TO.P,J5,3,Pin_3*%
%TO.N,GND*%
X165000000Y-68920000D03*
%TO.P,J5,4,Pin_4*%
%TO.N,-15V*%
X165000000Y-66380000D03*
%TO.P,J5,5,Pin_5*%
%TO.N,+12V*%
X165000000Y-63840000D03*
%TO.P,J5,6,Pin_6*%
%TO.N,+15V*%
X165000000Y-61300000D03*
%TO.P,J5,7,Pin_7*%
%TO.N,GND*%
X165000000Y-58760000D03*
%TO.P,J5,8,Pin_8*%
%TO.N,+100V*%
X165000000Y-56220000D03*
%TD*%
D14*
%TO.P,C36,1*%
%TO.N,+8V*%
X209250000Y-137250000D03*
D15*
%TO.P,C36,2*%
%TO.N,GND*%
X207250000Y-137250000D03*
%TD*%
D12*
%TO.P,A1,1,Pin_1*%
%TO.N,GND*%
X95000000Y-106000000D03*
D16*
%TO.P,A1,2,Pin_2*%
%TO.N,+2V5*%
X97540000Y-106000000D03*
%TO.P,A1,3,Pin_3*%
%TO.N,+15V*%
X100080000Y-106000000D03*
%TO.P,A1,4,Pin_4*%
%TO.N,-15V*%
X102620000Y-106000000D03*
%TO.P,A1,5,Pin_5*%
%TO.N,/SPEED*%
X105160000Y-106000000D03*
%TO.P,A1,6,Pin_6*%
%TO.N,/INTEN_A_PREDYN*%
X107700000Y-106000000D03*
%TO.P,A1,7,Pin_7*%
%TO.N,/DYNAMIC_INTEN*%
X110240000Y-106000000D03*
%TD*%
D10*
%TO.P,RV5,1,1*%
%TO.N,+5V*%
X149000000Y-48500000D03*
%TO.P,RV5,2,2*%
%TO.N,Net-(Q3-Pad1)*%
X146500000Y-51000000D03*
%TO.P,RV5,3,3*%
%TO.N,/INTEN#*%
X144000000Y-48500000D03*
%TD*%
D21*
%TO.P,H2,1*%
%TO.N,GND*%
X114000000Y-51400000D03*
X115697056Y-50697056D03*
X114000000Y-46600000D03*
X112302944Y-47302944D03*
X112302944Y-50697056D03*
X115697056Y-47302944D03*
X111600000Y-49000000D03*
D22*
X114000000Y-49000000D03*
D21*
X116400000Y-49000000D03*
%TD*%
D14*
%TO.P,C34,1*%
%TO.N,+12V*%
X226500000Y-136000000D03*
D15*
%TO.P,C34,2*%
%TO.N,GND*%
X223000000Y-136000000D03*
%TD*%
D25*
%TO.P,RV8,1,1*%
%TO.N,Net-(R84-Pad1)*%
X216000000Y-49500000D03*
%TO.P,RV8,2,2*%
X218540000Y-49500000D03*
%TO.P,RV8,3,3*%
%TO.N,Net-(R85-Pad1)*%
X221080000Y-49500000D03*
%TD*%
D21*
%TO.P,H3,1*%
%TO.N,GND*%
X96400000Y-139000000D03*
X95697056Y-140697056D03*
X92302944Y-140697056D03*
X91600000Y-139000000D03*
X94000000Y-136600000D03*
D22*
X94000000Y-139000000D03*
D21*
X92302944Y-137302944D03*
X94000000Y-141400000D03*
X95697056Y-137302944D03*
%TD*%
D26*
%TO.P,R92,1*%
%TO.N,Net-(C28-Pad1)*%
X215250000Y-57000000D03*
%TO.P,R92,2*%
%TO.N,/CABLEV-*%
X213250000Y-57000000D03*
%TD*%
%TO.P,R94,1*%
%TO.N,Net-(R90-Pad2)*%
X185250000Y-57000000D03*
%TO.P,R94,2*%
%TO.N,/CABLEH-*%
X183250000Y-57000000D03*
%TD*%
D27*
%TO.P,R79,1*%
%TO.N,Net-(R77-Pad1)*%
X224250000Y-67500000D03*
%TO.P,R79,2*%
%TO.N,Net-(R66-Pad1)*%
X226250000Y-67500000D03*
%TD*%
D28*
%TO.P,C19,1*%
%TO.N,/CableDrivers/VOCM*%
X224212500Y-65250000D03*
%TO.P,C19,2*%
%TO.N,GND*%
X226287500Y-65250000D03*
%TD*%
D27*
%TO.P,R95,1*%
%TO.N,Net-(R91-Pad1)*%
X191750000Y-57000000D03*
%TO.P,R95,2*%
%TO.N,/CABLEH+*%
X193750000Y-57000000D03*
%TD*%
%TO.P,R93,1*%
%TO.N,Net-(C29-Pad1)*%
X221750000Y-57000000D03*
%TO.P,R93,2*%
%TO.N,/CABLEV+*%
X223750000Y-57000000D03*
%TD*%
D26*
%TO.P,R74,1*%
%TO.N,Net-(R74-Pad1)*%
X212750000Y-67500000D03*
%TO.P,R74,2*%
%TO.N,Net-(R64-Pad2)*%
X210750000Y-67500000D03*
%TD*%
D29*
%TO.N,GND*%
X168250000Y-126500000D03*
D30*
%TO.N,/DYNAMIC_INTEN*%
X126000000Y-97350000D03*
X132650000Y-77800000D03*
%TO.N,/INTEN_A_PREDYN*%
X125300000Y-96700000D03*
X132300000Y-78800000D03*
%TO.N,-15V*%
X203350000Y-126950000D03*
D31*
X200800000Y-126850000D03*
D30*
%TO.N,+15V*%
X202250000Y-124750000D03*
X156100000Y-124200000D03*
%TO.N,+2V5*%
X150300000Y-128000000D03*
D31*
X149600000Y-134050000D03*
X97000000Y-81750000D03*
X133800000Y-119000000D03*
D30*
X176250000Y-87800000D03*
D29*
%TO.N,GND*%
X148750000Y-89500000D03*
X110850000Y-132000000D03*
X158250000Y-85000000D03*
D30*
X179500000Y-50000000D03*
X227500000Y-50000000D03*
D29*
X151500000Y-117750000D03*
D30*
X197500000Y-50000000D03*
D29*
X223250000Y-68750000D03*
X140750000Y-74000000D03*
D30*
X224250000Y-50000000D03*
D29*
X118000000Y-111500000D03*
D31*
X161500000Y-98300000D03*
D29*
X128250000Y-85500000D03*
X94000000Y-93250000D03*
X148750000Y-87250000D03*
D30*
X182500000Y-50000000D03*
D29*
X158250000Y-89500000D03*
X159250000Y-129000000D03*
X114000000Y-101000000D03*
X151450000Y-120450000D03*
D30*
X177500000Y-65500000D03*
D29*
X103000000Y-79250000D03*
X142500000Y-122750000D03*
X148750000Y-85000000D03*
X197500000Y-67500000D03*
D30*
X212750000Y-50000000D03*
D29*
X148750000Y-91750000D03*
X227500000Y-65250000D03*
X185000000Y-68750000D03*
X142500000Y-101750000D03*
X213500000Y-83000000D03*
X215500000Y-130250000D03*
X121750000Y-99500000D03*
X133250000Y-76000000D03*
X158250000Y-91750000D03*
X113750000Y-96500000D03*
X206000000Y-72000000D03*
D30*
X199750000Y-65750000D03*
D29*
X128750000Y-95750000D03*
X171050000Y-112850000D03*
X212250000Y-74500000D03*
X209000000Y-62750000D03*
X123250000Y-84250000D03*
X133750000Y-105250000D03*
X126000000Y-64500000D03*
X214750000Y-129500000D03*
D30*
X206000000Y-63500000D03*
D29*
X215500000Y-128750000D03*
X222000000Y-68750000D03*
X114000000Y-105500000D03*
X213750000Y-68750000D03*
X216250000Y-129500000D03*
D30*
X193950000Y-73500000D03*
D29*
X99750000Y-76250000D03*
X119500000Y-76500000D03*
X110800000Y-88950000D03*
X198000000Y-62750000D03*
X228000000Y-62750000D03*
X186750000Y-81750000D03*
X215500000Y-127250000D03*
D30*
X209250000Y-50000000D03*
D29*
X177750000Y-102750000D03*
X215000000Y-68750000D03*
X102000000Y-95750000D03*
X216250000Y-128000000D03*
X126750000Y-77500000D03*
X124850000Y-133700000D03*
X128250000Y-77500000D03*
X217000000Y-81250000D03*
X197500000Y-65250000D03*
X158250000Y-87250000D03*
X129950000Y-120500000D03*
X94000000Y-86250000D03*
X102000000Y-74750000D03*
X179000000Y-62750000D03*
X141500000Y-117000000D03*
X137250000Y-85250000D03*
X174250000Y-115000000D03*
X133750000Y-100750000D03*
X182250000Y-103500000D03*
X214750000Y-128000000D03*
D30*
X228000000Y-64000000D03*
D29*
X138250000Y-110050000D03*
X198750000Y-81250000D03*
X160000000Y-121000000D03*
X151750000Y-111000000D03*
D30*
X229500000Y-66000000D03*
D29*
X220000000Y-124550000D03*
X192000000Y-68750000D03*
X116050000Y-132800000D03*
X195000000Y-83000000D03*
X209500000Y-65250000D03*
X163300000Y-116900000D03*
X166400000Y-113700000D03*
X171750000Y-122250000D03*
X100250000Y-96750000D03*
X174250000Y-123000000D03*
X111500000Y-81750000D03*
X146750000Y-67000000D03*
X121200000Y-120600000D03*
X151550000Y-107050000D03*
X210000000Y-133500000D03*
X122750000Y-76500000D03*
D30*
X178750000Y-64000000D03*
D29*
X116450000Y-94050000D03*
D30*
X208000000Y-65750000D03*
D29*
X111500000Y-79500000D03*
X140000000Y-98750000D03*
D30*
X198250000Y-64250000D03*
D29*
X138250000Y-67000000D03*
X123000000Y-72750000D03*
X108000000Y-89250000D03*
D30*
X194500000Y-50000000D03*
D29*
X205000000Y-81750000D03*
X133250000Y-73750000D03*
X179500000Y-65250000D03*
X184000000Y-110450000D03*
X118000000Y-109500000D03*
D30*
%TO.N,/INTEN*%
X97850000Y-90600000D03*
%TO.N,/HDYNCENT*%
X205450000Y-98150000D03*
X193700000Y-79900000D03*
X205850000Y-94300000D03*
X104500000Y-109100000D03*
%TO.N,/VDYNCENT*%
X103950000Y-108300000D03*
X206600000Y-93750000D03*
X206250000Y-97650000D03*
X207000000Y-81750000D03*
%TO.N,/FOCUS_POT*%
X128500000Y-107050000D03*
X128500000Y-105150000D03*
X108850000Y-107750000D03*
D29*
%TO.N,/Intensity Decoder/A*%
X143250000Y-69500000D03*
X131750000Y-70500000D03*
%TO.N,-5V*%
X121650000Y-72550000D03*
X151600000Y-108800000D03*
X214600000Y-119550000D03*
X141750000Y-93650000D03*
X94350000Y-96750000D03*
X94400000Y-94400000D03*
X99600000Y-84600000D03*
X123200000Y-86850000D03*
X120000000Y-90950000D03*
X141800000Y-71900000D03*
%TO.N,Net-(C13-Pad1)*%
X217500000Y-113750000D03*
X220450000Y-99350000D03*
%TO.N,Net-(C15-Pad2)*%
X220250000Y-118250000D03*
D30*
%TO.N,-2V*%
X184350000Y-64900000D03*
X214150000Y-65000000D03*
%TO.N,/CableDrivers/VOCM*%
X199393750Y-70443750D03*
X192800000Y-66800000D03*
X222800000Y-66250000D03*
D29*
%TO.N,+12V*%
X178550000Y-108300000D03*
X178850000Y-116600000D03*
D30*
%TO.N,+8V*%
X192700000Y-65000000D03*
X222750000Y-64950000D03*
X207150000Y-68900000D03*
%TO.N,Net-(C28-Pad1)*%
X215596875Y-58303125D03*
%TO.N,Net-(C29-Pad1)*%
X221450000Y-58250000D03*
%TO.N,+5V*%
X206000000Y-62250000D03*
X179500000Y-52000000D03*
D29*
X128300000Y-82900000D03*
D30*
X212750000Y-52000000D03*
X133300000Y-130400000D03*
D29*
X145000000Y-98750000D03*
D30*
X230000000Y-61250000D03*
D29*
X124650000Y-122000000D03*
D30*
X194500000Y-52000000D03*
D29*
X105400000Y-76250000D03*
D31*
X151400000Y-102100000D03*
D30*
X197500000Y-52000000D03*
D29*
X128100000Y-66800000D03*
X143200000Y-68100000D03*
X146800000Y-89900000D03*
D31*
X143450000Y-112050000D03*
D29*
X123200000Y-81000000D03*
D30*
X182500000Y-52000000D03*
D29*
X140250000Y-119050000D03*
X160200000Y-101100000D03*
D30*
X177250000Y-61250000D03*
D29*
X98750000Y-87100000D03*
D30*
X120550000Y-125550000D03*
X120500000Y-129150000D03*
D29*
X126800000Y-99500000D03*
D30*
X133300000Y-124050000D03*
D29*
X147050000Y-105850000D03*
D30*
X227500000Y-52000000D03*
D29*
X145050000Y-100800000D03*
X163100000Y-114350000D03*
X103800000Y-88700000D03*
D30*
X209250000Y-52000000D03*
D29*
X111550000Y-84000000D03*
D30*
X202700000Y-62350000D03*
X224250000Y-52000000D03*
X201250000Y-62250000D03*
D29*
X133400000Y-122000000D03*
D31*
%TO.N,/TRACE_ROT_POT*%
X171150000Y-125000000D03*
X164400000Y-124400000D03*
D30*
%TO.N,/TRACE_SKEW_POT*%
X169550000Y-52750000D03*
X173000000Y-53150000D03*
%TO.N,-2V5*%
X159950000Y-127550000D03*
%TO.N,+3V*%
X151600000Y-119200000D03*
D29*
X146550000Y-74000000D03*
X144850000Y-82450000D03*
X116650000Y-88250000D03*
D30*
X197000000Y-72950000D03*
D29*
X131800000Y-89950000D03*
D30*
X210350000Y-73100000D03*
D29*
%TO.N,-3V*%
X139350000Y-81550000D03*
D30*
X189900000Y-83100000D03*
D29*
X138000000Y-88200000D03*
X120800000Y-94150000D03*
D30*
X157750000Y-119150000D03*
D29*
X109950000Y-98350000D03*
D30*
X209850000Y-84450000D03*
%TO.N,/Intensity Decoder/~BLANK*%
X147200000Y-102150000D03*
X130200000Y-104900000D03*
%TO.N,Net-(D9-Pad1)*%
X147900000Y-114100000D03*
X133300000Y-110600000D03*
D31*
%TO.N,/POWER#*%
X231750000Y-93950000D03*
%TO.N,/SLOWSWP#*%
X160100000Y-108350000D03*
D30*
%TO.N,/INTEN#*%
X183150000Y-101950000D03*
X169000000Y-53900000D03*
X173950000Y-54250000D03*
%TO.N,/PS_SYNC*%
X139300000Y-135000000D03*
X124450000Y-126500000D03*
%TO.N,/VSEP-*%
X227800000Y-69750000D03*
%TO.N,/VSEP+*%
X210750000Y-71250000D03*
%TO.N,/V-*%
X231800000Y-59500000D03*
%TO.N,/V+*%
X233150000Y-57200000D03*
D29*
%TO.N,/XY#*%
X161350000Y-108450000D03*
%TO.N,/ZSEL*%
X141700000Y-104450000D03*
D30*
X143000000Y-107800000D03*
X142200000Y-113800000D03*
%TO.N,/NOSCALE#*%
X235500000Y-78850000D03*
X131600000Y-79850000D03*
%TO.N,/NOTEXT#*%
X126500000Y-80950000D03*
%TO.N,Net-(C59-Pad1)*%
X146850000Y-71150000D03*
D31*
X153850000Y-72800000D03*
D30*
%TO.N,Net-(Q3-Pad1)*%
X134050000Y-53150000D03*
X138850000Y-52900000D03*
X114350000Y-82000000D03*
X112900000Y-82350000D03*
%TO.N,Net-(R18-Pad2)*%
X147550000Y-107400000D03*
X114450000Y-110150000D03*
%TO.N,Net-(R21-Pad2)*%
X139200000Y-111150000D03*
X116050000Y-110650000D03*
%TO.N,Net-(R22-Pad2)*%
X115950000Y-76300000D03*
X117250000Y-78600000D03*
%TO.N,Net-(R23-Pad2)*%
X126100000Y-113200000D03*
X136900000Y-109500000D03*
%TO.N,Net-(R31-Pad2)*%
X117150000Y-79750000D03*
X115300000Y-77000000D03*
%TO.N,Net-(R32-Pad1)*%
X133150000Y-71550000D03*
X143000000Y-77600000D03*
%TO.N,Net-(R64-Pad2)*%
X208150000Y-67600000D03*
D29*
%TO.N,Net-(R65-Pad2)*%
X191750000Y-73750000D03*
X179250000Y-67500000D03*
D30*
%TO.N,Net-(R66-Pad1)*%
X218600000Y-75550000D03*
%TO.N,Net-(R74-Pad1)*%
X214200000Y-67450000D03*
%TO.N,Net-(R77-Pad1)*%
X222800000Y-67450000D03*
%TO.N,Net-(R90-Pad2)*%
X185550000Y-58250000D03*
%TO.N,Net-(R91-Pad1)*%
X191600000Y-58200000D03*
D29*
%TO.N,Net-(R105-Pad1)*%
X128450000Y-125950000D03*
X115000000Y-124100000D03*
%TO.N,/Intensity Decoder/BFSSCLAMP*%
X155000000Y-109600000D03*
X189550000Y-114300000D03*
%TO.N,/Intensity Decoder/SSCLAMP*%
X190600000Y-113350000D03*
X155800000Y-108700000D03*
%TO.N,/Intensity Decoder/XYCLAMP*%
X191450000Y-112550000D03*
D31*
X160100000Y-106800000D03*
D30*
%TO.N,/Intensity Decoder/RECALL*%
X143300000Y-91100000D03*
X131650000Y-71900000D03*
%TO.N,Net-(U29-Pad4)*%
X108050000Y-77500000D03*
X116600000Y-81350000D03*
%TO.N,/Intensity Decoder/Z0*%
X128450000Y-73200000D03*
X122900000Y-106800000D03*
%TO.N,/Intensity Decoder/Z1*%
X121900000Y-106700000D03*
X128420000Y-74670000D03*
X113100000Y-78400000D03*
X118700000Y-77100000D03*
%TO.N,/Intensity Decoder/Z2*%
X128400000Y-75750000D03*
X121600000Y-104250000D03*
D29*
%TO.N,Net-(U26-Pad2)*%
X119100000Y-126150000D03*
X124500000Y-131550000D03*
%TD*%
D32*
%TO.N,/DYNAMIC_INTEN*%
X128478028Y-86554135D02*
X128826406Y-85984063D01*
X129800000Y-83300000D02*
X131600000Y-81550000D01*
X129350000Y-84100000D02*
X129800000Y-83300000D01*
X129072217Y-85375022D02*
X129200000Y-84800000D01*
X127650000Y-89750000D02*
X127846393Y-87903904D01*
X133300000Y-79350000D02*
X133100000Y-78350000D01*
X126350000Y-95250000D02*
X127300000Y-91300000D01*
X133200000Y-79950000D02*
X133300000Y-79350000D01*
X133100000Y-78350000D02*
X132650000Y-77800000D01*
X127300000Y-91300000D02*
X127650000Y-89750000D01*
X129200000Y-84800000D02*
X129350000Y-84100000D01*
X128187086Y-86982420D02*
X128419548Y-86644293D01*
X131600000Y-81550000D02*
X133200000Y-79950000D01*
X126000000Y-97350000D02*
X126350000Y-95250000D01*
X128419548Y-86644293D02*
G75*
G03*
X128478028Y-86554135I-1647216J1132494D01*
G01*
X129072217Y-85375022D02*
G75*
G02*
X128826406Y-85984063I-1952333J433843D01*
G01*
X128187087Y-86982421D02*
G75*
G03*
X127846394Y-87903904I1648068J-1133050D01*
G01*
%TO.N,/INTEN_A_PREDYN*%
X132650000Y-79550000D02*
X132300000Y-78800000D01*
X127654288Y-84618568D02*
X127825490Y-84361765D01*
X129050000Y-83250000D02*
X130850000Y-81650000D01*
X125300000Y-96700000D02*
X127050000Y-90150000D01*
X132450000Y-80050000D02*
X132650000Y-79550000D01*
X127050000Y-90150000D02*
X127450000Y-85950000D01*
X128001361Y-84161860D02*
X129050000Y-83250000D01*
X130850000Y-81650000D02*
X132450000Y-80050000D01*
X127450000Y-85950000D02*
X127487369Y-85127861D01*
X128001361Y-84161861D02*
G75*
G03*
X127825491Y-84361765I656149J-754577D01*
G01*
X127487370Y-85127861D02*
G75*
G02*
X127654289Y-84618568I998981J-45413D01*
G01*
%TO.N,/SPEED*%
X205150000Y-97000000D02*
X212250000Y-96350000D01*
X129282071Y-107596805D02*
X131050000Y-107250000D01*
X220250000Y-96050000D02*
X223324754Y-95960877D01*
X212250000Y-96350000D02*
X220250000Y-96050000D01*
X177600000Y-100000000D02*
X179960921Y-99635458D01*
X118300000Y-107850000D02*
X119250000Y-108000000D01*
X171350000Y-105400000D02*
X175050000Y-102100000D01*
X119250000Y-108000000D02*
X120450000Y-108150000D01*
X155099299Y-104866392D02*
X148896990Y-104621444D01*
X132900000Y-107000000D02*
X137050000Y-106750000D01*
X111000000Y-109050000D02*
X118300000Y-107850000D01*
X139000000Y-105800000D02*
X137700000Y-106650000D01*
X193250000Y-98100000D02*
X205150000Y-97000000D01*
X176150000Y-100950000D02*
X177600000Y-100000000D01*
X143900000Y-104600000D02*
X141850000Y-105150000D01*
X121850496Y-108388580D02*
X123398983Y-108286180D01*
X175050000Y-102100000D02*
X176150000Y-100950000D01*
X165100000Y-105700000D02*
X171350000Y-105400000D01*
X162498584Y-105183093D02*
X155099299Y-104866392D01*
X123398983Y-108286180D02*
X125695950Y-108100898D01*
X141200000Y-105200000D02*
X140150000Y-105350000D01*
X105160000Y-106000000D02*
X106800000Y-108100000D01*
X230083684Y-97334205D02*
X234400000Y-100400000D01*
X224072663Y-95995276D02*
X227791357Y-96447080D01*
X148896990Y-104621444D02*
X146047501Y-104550796D01*
X235850000Y-101500000D02*
X238620000Y-102890000D01*
X179960921Y-99635458D02*
X193250000Y-98100000D01*
X127348515Y-107888709D02*
X129282071Y-107596805D01*
X137050000Y-106750000D02*
X137700000Y-106650000D01*
X131050000Y-107250000D02*
X132900000Y-107000000D01*
X165100000Y-105700000D02*
X162498584Y-105183093D01*
X140150000Y-105350000D02*
X139000000Y-105800000D01*
X141850000Y-105150000D02*
X141200000Y-105200000D01*
X146047501Y-104550796D02*
X143900000Y-104600000D01*
X120450000Y-108150000D02*
X121850496Y-108388580D01*
X125695950Y-108100898D02*
X127348515Y-107888709D01*
X106800000Y-108100000D02*
X111000000Y-109050000D01*
X234400000Y-100400000D02*
X235850000Y-101500000D01*
X224072663Y-95995276D02*
G75*
G03*
X223324754Y-95960877I-603037J-4963561D01*
G01*
X227791357Y-96447080D02*
G75*
G02*
X230083684Y-97334205I-603043J-4963505D01*
G01*
D33*
%TO.N,-15V*%
X98509084Y-124038848D02*
X97988612Y-124417373D01*
X176706910Y-126135007D02*
X176153811Y-126390429D01*
X143461314Y-134340679D02*
X138000000Y-128000000D01*
X146122654Y-135326747D02*
X144557252Y-134990977D01*
X132792745Y-123095882D02*
X126507905Y-124088225D01*
X175600000Y-131800000D02*
X175179626Y-132850935D01*
X108771555Y-122221407D02*
X98932856Y-123861190D01*
X203350000Y-126950000D02*
X200800000Y-126850000D01*
X184100000Y-126000000D02*
X177120020Y-126042894D01*
X170302596Y-137197945D02*
X172663845Y-135328623D01*
X200800000Y-126850000D02*
X184100000Y-126000000D01*
X97577846Y-125180005D02*
X97540000Y-126000000D01*
X175595264Y-127088768D02*
X175427786Y-127870335D01*
X138000000Y-128000000D02*
X135406351Y-124243680D01*
X148600000Y-139300000D02*
X149600000Y-140400000D01*
X165412492Y-140292338D02*
X167426859Y-139384453D01*
X175406969Y-128132423D02*
X175500000Y-129900000D01*
X147920000Y-137500000D02*
X148600000Y-139300000D01*
X151800000Y-141100000D02*
X164688868Y-140466565D01*
X149600000Y-140400000D02*
X151800000Y-141100000D01*
X175500000Y-129900000D02*
X175600000Y-131800000D01*
X167841268Y-139133285D02*
X170297396Y-137202047D01*
X147920000Y-137500000D02*
X147576437Y-136581550D01*
X134612151Y-123570424D02*
X133956263Y-123261771D01*
X125089201Y-124108425D02*
X110232441Y-122194364D01*
X174635030Y-133617365D02*
X172734797Y-135269742D01*
D34*
X165000000Y-66380000D02*
X171000000Y-66380000D01*
D33*
X98932856Y-123861191D02*
G75*
G03*
X98509085Y-124038849I164407J-986410D01*
G01*
X167841268Y-139133285D02*
G75*
G02*
X167426859Y-139384453I-1236212J1572204D01*
G01*
X175406970Y-128132423D02*
G75*
G02*
X175427787Y-127870335I998657J52550D01*
G01*
X125089201Y-124108424D02*
G75*
G03*
X126507905Y-124088224I638888J4959011D01*
G01*
X144557252Y-134990977D02*
G75*
G02*
X143461314Y-134340679I419446J1955519D01*
G01*
X133956263Y-123261772D02*
G75*
G03*
X132792745Y-123095883I-851594J-1809634D01*
G01*
X110232441Y-122194364D02*
G75*
G03*
X108771555Y-122221408I-638896J-4958943D01*
G01*
X147576437Y-136581550D02*
G75*
G03*
X146122654Y-135326747I-1873233J-700721D01*
G01*
X164688868Y-140466564D02*
G75*
G03*
X165412492Y-140292337I-98177J1997605D01*
G01*
X175595265Y-127088768D02*
G75*
G02*
X176153811Y-126390429I977803J-209530D01*
G01*
X172734797Y-135269742D02*
G75*
G02*
X172663845Y-135328623I-1313684J1510808D01*
G01*
X97577847Y-125180005D02*
G75*
G02*
X97988613Y-124417374I998931J-46102D01*
G01*
X174635030Y-133617365D02*
G75*
G03*
X175179626Y-132850935I-1312353J1509207D01*
G01*
X134612151Y-123570424D02*
G75*
G02*
X135406351Y-124243680I-851597J-1809642D01*
G01*
X177120020Y-126042895D02*
G75*
G03*
X176706910Y-126135008I6148J-999991D01*
G01*
X170297396Y-137202046D02*
G75*
G03*
X170302596Y-137197944I-1206413J1534685D01*
G01*
%TO.N,+15V*%
X151000000Y-139000000D02*
X152400000Y-139600000D01*
X148228237Y-134828930D02*
X145607800Y-134263513D01*
X108438522Y-121056147D02*
X107000000Y-121200000D01*
X133273637Y-120814727D02*
X134077162Y-120975432D01*
D35*
X153953150Y-130575911D02*
X150000000Y-136000000D01*
D33*
X164745691Y-139358584D02*
X168663703Y-137236328D01*
X172000000Y-131000000D02*
X173600000Y-127300000D01*
X128900000Y-122200000D02*
X126673840Y-122826107D01*
D35*
X154494975Y-129544319D02*
X155300000Y-127250000D01*
D33*
X138300000Y-124900000D02*
X135136836Y-121561105D01*
X107000000Y-121200000D02*
X96575887Y-123245854D01*
D34*
X165000000Y-61300000D02*
X171000000Y-61300000D01*
D33*
X178700000Y-125100000D02*
X202250000Y-124750000D01*
X150420000Y-137500000D02*
X151000000Y-139000000D01*
X132622727Y-120792687D02*
X132091335Y-120861999D01*
D35*
X155300000Y-127250000D02*
X156100000Y-124200000D01*
D33*
X95074853Y-124802360D02*
X95000000Y-126000000D01*
X144400377Y-133468468D02*
X138300000Y-124900000D01*
X174360041Y-126189171D02*
X173600000Y-127300000D01*
X150000000Y-136000000D02*
X150420000Y-137500000D01*
X152400000Y-139600000D02*
X163793125Y-139600000D01*
X169375237Y-136587145D02*
X171597436Y-133253846D01*
X124696283Y-122973785D02*
X109559870Y-121070403D01*
X131531904Y-121020181D02*
X128900000Y-122200000D01*
X171930256Y-132255386D02*
X172000000Y-131000000D01*
X96092750Y-123489979D02*
X95397181Y-124127584D01*
X178700000Y-125100000D02*
X175853251Y-125324743D01*
X148228237Y-134828930D02*
X150000000Y-136000000D01*
X169375236Y-136587144D02*
G75*
G02*
X168663703Y-137236327I-1664087J1109386D01*
G01*
X135136835Y-121561106D02*
G75*
G03*
X134077162Y-120975433I-1451905J-1375486D01*
G01*
D35*
X154494975Y-129544319D02*
G75*
G02*
X153953150Y-130575911I-3774351J1324322D01*
G01*
D33*
X96092750Y-123489979D02*
G75*
G02*
X96575887Y-123245854I675726J-737159D01*
G01*
X144400377Y-133468468D02*
G75*
G03*
X145607800Y-134263513I1629259J1159962D01*
G01*
X124696283Y-122973784D02*
G75*
G03*
X126673840Y-122826106I623822J4960973D01*
G01*
X175853251Y-125324744D02*
G75*
G03*
X174360041Y-126189171I157407J-1993801D01*
G01*
X109559870Y-121070403D02*
G75*
G03*
X108438522Y-121056147I-623833J-4960858D01*
G01*
X171930256Y-132255386D02*
G75*
G02*
X171597436Y-133253846I-1996921J110940D01*
G01*
X132622727Y-120792687D02*
G75*
G02*
X133273637Y-120814728I258675J-1983230D01*
G01*
X163793125Y-139599999D02*
G75*
G03*
X164745691Y-139358583I2J1999991D01*
G01*
X95397181Y-124127584D02*
G75*
G03*
X95074853Y-124802360I675724J-737154D01*
G01*
X131531904Y-121020181D02*
G75*
G02*
X132091335Y-120861999I818100J-1824976D01*
G01*
%TO.N,+2V5*%
X154900000Y-118350000D02*
X154000000Y-117000000D01*
X133800000Y-119000000D02*
X112780000Y-116000000D01*
D35*
X167550000Y-95750000D02*
X167000000Y-96700000D01*
X169450000Y-95450000D02*
X168300000Y-95500000D01*
D33*
X97500000Y-87450000D02*
X97200000Y-86300000D01*
D32*
X150300000Y-128000000D02*
X154000000Y-117000000D01*
D33*
X99200000Y-90000000D02*
X98850000Y-89050000D01*
X149600000Y-134050000D02*
X152702254Y-130368659D01*
X97200000Y-86300000D02*
X97000000Y-81750000D01*
X97540000Y-106000000D02*
X97050000Y-96600000D01*
X98100000Y-88200000D02*
X97500000Y-87450000D01*
X97500000Y-93600000D02*
X98900000Y-91200000D01*
X98900000Y-91200000D02*
X99200000Y-90000000D01*
D35*
X168300000Y-95500000D02*
X167550000Y-95750000D01*
D33*
X154900000Y-122250000D02*
X154900000Y-118350000D01*
X151700000Y-116550000D02*
X154000000Y-117000000D01*
X153557417Y-128616441D02*
X154900000Y-122250000D01*
D35*
X176250000Y-87800000D02*
X172133041Y-94333436D01*
X170755193Y-95242355D02*
X169450000Y-95450000D01*
D33*
X98850000Y-89050000D02*
X98100000Y-88200000D01*
X133800000Y-119000000D02*
X151700000Y-116550000D01*
X112780000Y-116000000D02*
X97540000Y-106000000D01*
X97050000Y-96600000D02*
X97500000Y-93600000D01*
D35*
X170755193Y-95242354D02*
G75*
G03*
X172133040Y-94333435I-314230J1975160D01*
G01*
D33*
X153557417Y-128616441D02*
G75*
G02*
X152702254Y-130368659I-3913902J825376D01*
G01*
D36*
%TO.N,GND*%
X227500000Y-65250000D02*
X226287500Y-65250000D01*
D32*
%TO.N,/FOCUS*%
X105160000Y-126000000D02*
X105736941Y-127136400D01*
X121211150Y-131027805D02*
X119454474Y-129798132D01*
X122552618Y-132636062D02*
X123166407Y-133973244D01*
X123677733Y-137752634D02*
X123811770Y-138188254D01*
X113150000Y-128650000D02*
X117562253Y-129095273D01*
X126322874Y-140130139D02*
X131900000Y-140400000D01*
X123528540Y-135499151D02*
X123590565Y-137235846D01*
X107035203Y-128171300D02*
X107950000Y-128400000D01*
X107950000Y-128400000D02*
X113150000Y-128650000D01*
X131900000Y-140400000D02*
X135712630Y-140046979D01*
X124508427Y-139188797D02*
X125204635Y-139721191D01*
X137620000Y-137500000D02*
X137510691Y-138319824D01*
X123528540Y-135499151D02*
G75*
G03*
X123166407Y-133973244I-3997423J-142756D01*
G01*
X125204635Y-139721191D02*
G75*
G03*
X126322874Y-140130139I1214899J1588709D01*
G01*
X107035203Y-128171300D02*
G75*
G02*
X105736941Y-127136400I485067J1940279D01*
G01*
X137510690Y-138319824D02*
G75*
G02*
X135712630Y-140046978I-1982457J264328D01*
G01*
X123590565Y-137235846D02*
G75*
G03*
X123677733Y-137752634I1998709J71382D01*
G01*
X124508427Y-139188797D02*
G75*
G02*
X123811770Y-138188254I1214902J1588716D01*
G01*
X117562253Y-129095274D02*
G75*
G02*
X119454474Y-129798133I-401636J-3979802D01*
G01*
X122552618Y-132636062D02*
G75*
G03*
X121211150Y-131027805I-3635307J-1668660D01*
G01*
%TO.N,/INTEN*%
X109800000Y-128000000D02*
X108700000Y-127600000D01*
X115750000Y-128300000D02*
X111400000Y-128050000D01*
X121876850Y-130841134D02*
X121837214Y-130812658D01*
X111400000Y-128050000D02*
X109800000Y-128000000D01*
X124100000Y-135200000D02*
X124262313Y-137310077D01*
X121659551Y-130692113D02*
X119395605Y-129243188D01*
X124560426Y-138216681D02*
X124594271Y-138270833D01*
X123180973Y-132426865D02*
X123679592Y-133517778D01*
X96800000Y-91150000D02*
X97850000Y-90600000D01*
X125113925Y-138828309D02*
X125428459Y-139057061D01*
X96250000Y-92250000D02*
X96800000Y-91150000D01*
X108700000Y-127600000D02*
X108100000Y-127100000D01*
X97300000Y-107650000D02*
X96550000Y-106950000D01*
X95900000Y-95900000D02*
X96250000Y-92250000D01*
X123987165Y-134522990D02*
X124100000Y-135200000D01*
X107400000Y-114550000D02*
X106750000Y-113600000D01*
X96250000Y-105900000D02*
X96350000Y-104650000D01*
X118357073Y-128607752D02*
X117450000Y-128450000D01*
X108100000Y-127100000D02*
X107700000Y-126000000D01*
X119112978Y-129044598D02*
X118795442Y-128800340D01*
X132540000Y-137500000D02*
X132521596Y-137802364D01*
X130402446Y-139677074D02*
X126481959Y-139435813D01*
X107700000Y-116000000D02*
X107400000Y-114550000D01*
X117450000Y-128450000D02*
X115750000Y-128300000D01*
X96350000Y-104650000D02*
X95900000Y-95900000D01*
X96550000Y-106950000D02*
X96250000Y-105900000D01*
X106750000Y-113600000D02*
X99250000Y-109000000D01*
X99250000Y-109000000D02*
X97300000Y-107650000D01*
X123987164Y-134522990D02*
G75*
G03*
X123679591Y-133517778I-3945567J-657597D01*
G01*
X130402446Y-139677073D02*
G75*
G03*
X132521595Y-137802364I122844J1996224D01*
G01*
X119112978Y-129044598D02*
G75*
G03*
X119395605Y-129243188I2438516J3170011D01*
G01*
X118795442Y-128800341D02*
G75*
G03*
X118357073Y-128607753I-609712J-792623D01*
G01*
X124560427Y-138216681D02*
G75*
G02*
X124262314Y-137310077I1695979J1059994D01*
G01*
X126481959Y-139435813D02*
G75*
G02*
X125428459Y-139057061I122843J1996222D01*
G01*
X121659551Y-130692113D02*
G75*
G02*
X121837214Y-130812658I-2156207J-3369080D01*
G01*
X125113925Y-138828309D02*
G75*
G02*
X124594271Y-138270833I1176354J1617481D01*
G01*
X123180972Y-132426865D02*
G75*
G03*
X121876850Y-130841135I-3637993J-1662799D01*
G01*
%TO.N,/HDYNCENT*%
X120500000Y-109150000D02*
X122100000Y-109200000D01*
X118550000Y-108800000D02*
X119390242Y-108849786D01*
X175726862Y-102580786D02*
X176400000Y-102050000D01*
X149000000Y-106200000D02*
X149700000Y-105900000D01*
X171450000Y-106300000D02*
X172250000Y-105900000D01*
X141051213Y-106153747D02*
X143200000Y-105800000D01*
X205651550Y-86254650D02*
X205382974Y-85448922D01*
X149700000Y-105900000D02*
X151000000Y-105650000D01*
X104500000Y-109100000D02*
X109650000Y-109900000D01*
X109650000Y-109900000D02*
X111250000Y-109900000D01*
X156600000Y-105850000D02*
X162150000Y-106100000D01*
X118000000Y-108750000D02*
X118550000Y-108800000D01*
X139450000Y-106700000D02*
X141051213Y-106153747D01*
X196000000Y-81900000D02*
X194500000Y-81100000D01*
X164450000Y-106500000D02*
X165250000Y-106600000D01*
X200463226Y-82659698D02*
X196000000Y-81900000D01*
X179600000Y-100550000D02*
X184905551Y-99898798D01*
X172250000Y-105900000D02*
X175726862Y-102580786D01*
X204278480Y-84245253D02*
X200920500Y-82795216D01*
X122100000Y-109200000D02*
X126950000Y-108800000D01*
X143200000Y-105800000D02*
X144900000Y-105950000D01*
X147550000Y-106650000D02*
X148150000Y-106550000D01*
X184905551Y-99898798D02*
X196400000Y-98750000D01*
X144900000Y-105950000D02*
X146000000Y-106350000D01*
X138300000Y-107350000D02*
X139450000Y-106700000D01*
X178100000Y-101050000D02*
X179600000Y-100550000D01*
X162150000Y-106100000D02*
X164450000Y-106500000D01*
X176400000Y-102050000D02*
X178100000Y-101050000D01*
X146000000Y-106350000D02*
X146900000Y-106650000D01*
X146900000Y-106650000D02*
X147550000Y-106650000D01*
X148150000Y-106550000D02*
X149000000Y-106200000D01*
X194500000Y-81100000D02*
X193700000Y-79900000D01*
X111250000Y-109900000D02*
X112150000Y-109850000D01*
X151000000Y-105650000D02*
X156600000Y-105850000D01*
X205268936Y-98052581D02*
X205450000Y-98150000D01*
X205850000Y-94300000D02*
X205754017Y-86861301D01*
X119390242Y-108849786D02*
X120500000Y-109150000D01*
X196400000Y-98750000D02*
X204697731Y-97937965D01*
X126950000Y-108800000D02*
X131800000Y-108000000D01*
X131800000Y-108000000D02*
X137350000Y-107600000D01*
X137350000Y-107600000D02*
X138300000Y-107350000D01*
X165250000Y-106600000D02*
X171450000Y-106300000D01*
X112150000Y-109850000D02*
X118000000Y-108750000D01*
X204278480Y-84245253D02*
G75*
G02*
X205382974Y-85448922I-792871J-1836123D01*
G01*
X204697731Y-97937965D02*
G75*
G02*
X205268936Y-98052581I97402J-995231D01*
G01*
X200920500Y-82795216D02*
G75*
G03*
X200463226Y-82659698I-792886J-1836169D01*
G01*
X205754016Y-86861301D02*
G75*
G03*
X205651550Y-86254650I-1999878J-25812D01*
G01*
%TO.N,/VDYNCENT*%
X109750000Y-109450000D02*
X111800000Y-109450000D01*
X176300000Y-101550000D02*
X177700000Y-100750000D01*
X136900000Y-107200000D02*
X137500000Y-107100000D01*
X177700000Y-100750000D02*
X179501701Y-100111011D01*
X115656545Y-108689814D02*
X118200000Y-108300000D01*
X128449560Y-108147338D02*
X125840944Y-108490204D01*
X121801856Y-108790580D02*
X121954635Y-108793394D01*
X131600000Y-107600000D02*
X128449560Y-108147338D01*
X131600000Y-107600000D02*
X136900000Y-107200000D01*
X205980240Y-97566997D02*
X206250000Y-97650000D01*
X187950000Y-99150000D02*
X199250000Y-98050000D01*
X179501701Y-100111011D02*
X187950000Y-99150000D01*
X125840944Y-108490204D02*
X123895927Y-108650618D01*
X162550000Y-105700000D02*
X164500000Y-106050000D01*
X146100000Y-105100000D02*
X148550000Y-105150000D01*
X103950000Y-108300000D02*
X109750000Y-109450000D01*
X206350000Y-85950000D02*
X207000000Y-81750000D01*
X143550000Y-105300000D02*
X146100000Y-105100000D01*
X164500000Y-106050000D02*
X165250000Y-106150000D01*
X123895927Y-108650618D02*
X121954635Y-108793394D01*
X111800000Y-109450000D02*
X115656545Y-108689814D01*
X199250000Y-98050000D02*
X205203930Y-97487424D01*
X141000000Y-105750000D02*
X143550000Y-105300000D01*
X148550000Y-105150000D02*
X153850000Y-105300000D01*
X165250000Y-106150000D02*
X171450000Y-105850000D01*
X118200000Y-108300000D02*
X118989927Y-108363798D01*
X137500000Y-107100000D02*
X138000000Y-107000000D01*
X138000000Y-107000000D02*
X139300000Y-106300000D01*
X153850000Y-105300000D02*
X162550000Y-105700000D01*
X120450000Y-108650000D02*
X121801856Y-108790580D01*
X139300000Y-106300000D02*
X141000000Y-105750000D01*
X171450000Y-105850000D02*
X172000000Y-105550000D01*
X174804386Y-102854917D02*
X176300000Y-101550000D01*
X118989927Y-108363798D02*
X120450000Y-108650000D01*
X172000000Y-105550000D02*
X174804386Y-102854917D01*
X206600000Y-93750000D02*
X206350000Y-85950000D01*
X205203930Y-97487425D02*
G75*
G02*
X205980240Y-97566998I188138J-1991141D01*
G01*
%TO.N,/FOCUS_POT*%
X132750000Y-105000000D02*
X133200000Y-104600000D01*
X165250000Y-88650000D02*
X165600000Y-88100000D01*
X136645750Y-105400251D02*
X137200000Y-105250000D01*
X118250000Y-107450000D02*
X118700000Y-107450000D01*
X136150000Y-105400000D02*
X136645750Y-105400251D01*
X140900000Y-102850000D02*
X142100000Y-102700000D01*
X164400000Y-103000000D02*
X164900000Y-102100000D01*
X166650000Y-87800000D02*
X167700000Y-87750000D01*
X118700000Y-107450000D02*
X119350000Y-107600000D01*
X137200000Y-105250000D02*
X137856238Y-104837484D01*
X108850000Y-107750000D02*
X110409839Y-108506501D01*
X134850000Y-105050000D02*
X135550000Y-105300000D01*
X167700000Y-87750000D02*
X168250000Y-87450000D01*
X158850000Y-103300000D02*
X163550000Y-103400000D01*
X150300000Y-103000000D02*
X158850000Y-103300000D01*
X125550000Y-107600000D02*
X128000000Y-107300000D01*
X135550000Y-105300000D02*
X136150000Y-105400000D01*
X133650000Y-104450000D02*
X134100000Y-104500000D01*
X137856238Y-104837484D02*
X139117983Y-103954263D01*
X164900000Y-102100000D02*
X165250000Y-88650000D01*
X142100000Y-102700000D02*
X143200571Y-102784164D01*
X121200000Y-107800000D02*
X122400000Y-107800000D01*
X128500000Y-105150000D02*
X129250000Y-105550000D01*
X110409839Y-108506501D02*
X111193893Y-108612854D01*
X117999046Y-107494198D02*
X118250000Y-107450000D01*
X163550000Y-103400000D02*
X164400000Y-103000000D01*
X119350000Y-107600000D02*
X121200000Y-107800000D01*
X111193893Y-108612854D02*
X112621748Y-108378138D01*
X134100000Y-104500000D02*
X134500000Y-104750000D01*
X112621748Y-108378138D02*
X117999046Y-107494198D01*
X139117983Y-103954263D02*
X140900000Y-102850000D01*
X131501023Y-105682463D02*
X132050000Y-105450000D01*
X129250000Y-105550000D02*
X130308002Y-105612852D01*
X165600000Y-88100000D02*
X166650000Y-87800000D01*
X134500000Y-104750000D02*
X134850000Y-105050000D01*
X143200571Y-102784164D02*
X150300000Y-103000000D01*
X130308002Y-105612852D02*
X131501023Y-105682463D01*
X122400000Y-107800000D02*
X125550000Y-107600000D01*
X128000000Y-107300000D02*
X128500000Y-107050000D01*
X132050000Y-105450000D02*
X132750000Y-105000000D01*
X168250000Y-87450000D02*
X169540000Y-86540000D01*
X133200000Y-104600000D02*
X133650000Y-104450000D01*
%TO.N,/Intensity Decoder/A*%
X143250000Y-69500000D02*
X131750000Y-70500000D01*
D37*
%TO.N,-5V*%
X159600000Y-111050000D02*
X158650000Y-110950000D01*
D33*
X207250000Y-121750000D02*
X207398347Y-121222542D01*
D37*
X169850000Y-113800000D02*
X167500000Y-112550000D01*
X207250000Y-121750000D02*
X181200000Y-116650000D01*
X160553067Y-111564932D02*
X159600000Y-111050000D01*
X181200000Y-116650000D02*
X179450000Y-115450000D01*
X167500000Y-112550000D02*
X160553067Y-111564932D01*
X179450000Y-115450000D02*
X174400000Y-113500000D01*
D33*
X208770731Y-119841982D02*
X210942644Y-119217185D01*
X211769870Y-119158135D02*
X214600000Y-119550000D01*
D37*
X172650000Y-113900000D02*
X170950000Y-114150000D01*
X174400000Y-113500000D02*
X172650000Y-113900000D01*
X158650000Y-110950000D02*
X156650000Y-111100000D01*
X156650000Y-111100000D02*
X154600000Y-110900000D01*
X152250000Y-109800000D02*
X151600000Y-108800000D01*
X170950000Y-114150000D02*
X169850000Y-113800000D01*
X154600000Y-110900000D02*
X152250000Y-109800000D01*
D33*
X208770731Y-119841983D02*
G75*
G03*
X207398348Y-121222542I552915J-1922048D01*
G01*
X211769870Y-119158135D02*
G75*
G03*
X210942644Y-119217185I-274301J-1981135D01*
G01*
D35*
%TO.N,Net-(C13-Pad1)*%
X216500000Y-103328427D02*
X216500000Y-109503789D01*
X220450000Y-99350000D02*
X220064214Y-99350000D01*
X219357107Y-99642893D02*
X217085787Y-101914213D01*
X216559715Y-109988860D02*
X217500000Y-113750000D01*
X217085787Y-101914213D02*
G75*
G03*
X216500000Y-103328427I1414213J-1414214D01*
G01*
X219357107Y-99642893D02*
G75*
G02*
X220064214Y-99350000I707106J-707106D01*
G01*
X216559715Y-109988860D02*
G75*
G02*
X216500000Y-109503789I1940304J485074D01*
G01*
%TO.N,Net-(C15-Pad2)*%
X219309998Y-104162499D02*
X218250000Y-103500000D01*
X220250000Y-118250000D02*
X220250000Y-105858495D01*
X220250000Y-105858495D02*
G75*
G03*
X219309998Y-104162499I-1999998J0D01*
G01*
D34*
%TO.N,-2V*%
X198250000Y-66500000D02*
X198750000Y-66750000D01*
D37*
X191750000Y-62500000D02*
X188000000Y-63750000D01*
X200000000Y-67000000D02*
X202750000Y-66750000D01*
X195000000Y-64750000D02*
X194750000Y-63500000D01*
X207500000Y-64500000D02*
X209250000Y-64000000D01*
X188000000Y-63750000D02*
X184350000Y-64900000D01*
X209250000Y-64000000D02*
X210250000Y-64000000D01*
D34*
X196250000Y-66000000D02*
X197250000Y-66250000D01*
D37*
X202750000Y-66750000D02*
X206000000Y-65250000D01*
D34*
X197250000Y-66250000D02*
X198250000Y-66500000D01*
D37*
X193750000Y-62500000D02*
X191750000Y-62500000D01*
X206000000Y-65250000D02*
X207500000Y-64500000D01*
X198750000Y-66750000D02*
X200000000Y-67000000D01*
X194750000Y-63500000D02*
X193750000Y-62500000D01*
X210250000Y-64000000D02*
X212500000Y-64750000D01*
X212500000Y-64750000D02*
X214150000Y-65000000D01*
X195000000Y-64750000D02*
X196250000Y-66000000D01*
D35*
%TO.N,/CableDrivers/VOCM*%
X220000000Y-67250000D02*
X221250000Y-66550000D01*
X215300000Y-71250000D02*
X216850000Y-70750000D01*
X221250000Y-66550000D02*
X222050000Y-66250000D01*
X210500000Y-70350000D02*
X211400000Y-70500000D01*
X199393750Y-70443750D02*
X210500000Y-70350000D01*
X212950000Y-71350000D02*
X215300000Y-71250000D01*
X211400000Y-70500000D02*
X211950000Y-71050000D01*
X222800000Y-66250000D02*
X224212500Y-65250000D01*
X222050000Y-66250000D02*
X222800000Y-66250000D01*
X211950000Y-71050000D02*
X212950000Y-71350000D01*
X216850000Y-70750000D02*
X218100000Y-69500000D01*
X218100000Y-69500000D02*
X220000000Y-67250000D01*
D34*
%TO.N,+12V*%
X165000000Y-63840000D02*
X171000000Y-63840000D01*
D37*
%TO.N,+8V*%
X219000000Y-66500000D02*
X220500000Y-65500000D01*
D34*
X209400000Y-68850000D02*
X200050000Y-69000000D01*
X213000000Y-70250000D02*
X209400000Y-68850000D01*
D37*
X197500000Y-69000000D02*
X200050000Y-69000000D01*
X213000000Y-70250000D02*
X215750000Y-70000000D01*
X195500000Y-67750000D02*
X197500000Y-69000000D01*
X217000000Y-69000000D02*
X219000000Y-66500000D01*
X215750000Y-70000000D02*
X217000000Y-69000000D01*
X192700000Y-65000000D02*
X195500000Y-67750000D01*
X220500000Y-65500000D02*
X222750000Y-64950000D01*
D36*
%TO.N,/CABLEV-*%
X213250000Y-57000000D02*
X211000000Y-57000000D01*
%TO.N,Net-(C28-Pad1)*%
X215596875Y-58303125D02*
X215250000Y-57000000D01*
%TO.N,/CABLEV+*%
X223750000Y-57000000D02*
X226000000Y-57000000D01*
%TO.N,Net-(C29-Pad1)*%
X221450000Y-58250000D02*
X221750000Y-57000000D01*
D32*
%TO.N,+5V*%
X118200000Y-127000000D02*
X118100000Y-126250000D01*
D37*
X179950000Y-118300000D02*
X204597207Y-123151040D01*
X163100000Y-114350000D02*
X179950000Y-118300000D01*
D32*
X118100000Y-126250000D02*
X118250000Y-125650000D01*
X118850000Y-128000000D02*
X118200000Y-127000000D01*
X119150000Y-125200000D02*
X119750000Y-125350000D01*
X133300000Y-130400000D02*
X133300000Y-124050000D01*
X119750000Y-125350000D02*
X120550000Y-125550000D01*
X120500000Y-129150000D02*
X118850000Y-128000000D01*
X118250000Y-125650000D02*
X118600000Y-125300000D01*
X118600000Y-125300000D02*
X119150000Y-125200000D01*
D37*
X205493257Y-123578544D02*
X208415362Y-126019796D01*
X209124870Y-127373574D02*
X209250000Y-128750000D01*
X209124869Y-127373574D02*
G75*
G03*
X208415362Y-126019796I-1991786J-181071D01*
G01*
X205493257Y-123578544D02*
G75*
G03*
X204597207Y-123151040I-1282276J-1534842D01*
G01*
D32*
%TO.N,/TRACE_ROT_POT*%
X171150000Y-125000000D02*
X164400000Y-124400000D01*
%TO.N,/TRACE_SKEW_POT*%
X169550000Y-52750000D02*
X173000000Y-53150000D01*
%TO.N,-2V5*%
X161050000Y-119750000D02*
X160450000Y-114450000D01*
X159950000Y-127550000D02*
X161100000Y-121750000D01*
X159850000Y-113250000D02*
X159000000Y-112750000D01*
X160450000Y-114450000D02*
X159850000Y-113250000D01*
X161100000Y-121750000D02*
X161050000Y-119750000D01*
D37*
%TO.N,+3V*%
X175550000Y-77450000D02*
X195300000Y-74750000D01*
X161150000Y-76900000D02*
X175550000Y-77450000D01*
X208400000Y-73800000D02*
X210350000Y-73100000D01*
X146550000Y-74000000D02*
X161150000Y-76900000D01*
X195300000Y-74750000D02*
X208400000Y-73800000D01*
X195300000Y-74750000D02*
X197000000Y-72950000D01*
%TO.N,-3V*%
X161800000Y-78550000D02*
X175500000Y-79100000D01*
X192350000Y-76850000D02*
X203850000Y-76000000D01*
X145000000Y-78850000D02*
X151400000Y-77750000D01*
X175500000Y-79100000D02*
X192350000Y-76850000D01*
X192350000Y-76850000D02*
X189900000Y-83100000D01*
X203850000Y-76000000D02*
X207250000Y-76550000D01*
X151400000Y-77750000D02*
X157000000Y-78050000D01*
X157000000Y-78050000D02*
X161800000Y-78550000D01*
X207250000Y-76550000D02*
X209350000Y-79250000D01*
X209350000Y-79250000D02*
X209850000Y-84450000D01*
X139350000Y-81550000D02*
X145000000Y-78850000D01*
D32*
%TO.N,/Intensity Decoder/~BLANK*%
X140850000Y-102000000D02*
X141250000Y-101500000D01*
X140500000Y-102200000D02*
X140850000Y-102000000D01*
X132400000Y-104250000D02*
X133100000Y-103900000D01*
X137800000Y-103950000D02*
X139750000Y-102600000D01*
X134600000Y-103950000D02*
X135100000Y-104250000D01*
X144600000Y-101950000D02*
X145500000Y-102150000D01*
X131750000Y-104800000D02*
X132400000Y-104250000D01*
X143700000Y-101600000D02*
X144600000Y-101950000D01*
X141250000Y-101500000D02*
X141700000Y-101050000D01*
X133900000Y-103800000D02*
X134600000Y-103950000D01*
X141700000Y-101050000D02*
X142200000Y-100900000D01*
X142850000Y-100950000D02*
X143100000Y-101100000D01*
X135600000Y-104500000D02*
X136150000Y-104600000D01*
X131150000Y-104950000D02*
X131750000Y-104800000D01*
X142200000Y-100900000D02*
X142850000Y-100950000D01*
X143100000Y-101100000D02*
X143700000Y-101600000D01*
X139750000Y-102600000D02*
X140500000Y-102200000D01*
X136150000Y-104600000D02*
X136800000Y-104500000D01*
X136800000Y-104500000D02*
X137800000Y-103950000D01*
X145500000Y-102150000D02*
X147200000Y-102150000D01*
X133100000Y-103900000D02*
X133900000Y-103800000D01*
X135100000Y-104250000D02*
X135600000Y-104500000D01*
X130200000Y-104900000D02*
X131150000Y-104950000D01*
%TO.N,Net-(D9-Pad1)*%
X140950000Y-113450000D02*
X141300000Y-114150000D01*
X146850000Y-114050000D02*
X147900000Y-114100000D01*
X136150000Y-110100000D02*
X137100000Y-110300000D01*
X137650000Y-110600000D02*
X138150000Y-111150000D01*
X141750000Y-114500000D02*
X142350000Y-114500000D01*
X135600000Y-110100000D02*
X136150000Y-110100000D01*
X141300000Y-114150000D02*
X141750000Y-114500000D01*
X137100000Y-110300000D02*
X137650000Y-110600000D01*
X140100000Y-112650000D02*
X140950000Y-113450000D01*
X138150000Y-111150000D02*
X138650000Y-111700000D01*
X139100000Y-112050000D02*
X140100000Y-112650000D01*
X133300000Y-110600000D02*
X134150000Y-110200000D01*
X134150000Y-110200000D02*
X135600000Y-110100000D01*
X144050000Y-114250000D02*
X146850000Y-114050000D01*
X138650000Y-111700000D02*
X139100000Y-112050000D01*
X142350000Y-114500000D02*
X144050000Y-114250000D01*
%TO.N,/POWER#*%
X169540000Y-96700000D02*
X170786914Y-97075576D01*
X174800000Y-99100000D02*
X176650000Y-98400000D01*
X171392935Y-97585871D02*
X171550000Y-97900000D01*
X206900000Y-95100000D02*
X214050000Y-94500000D01*
X173114490Y-99272873D02*
X174800000Y-99100000D01*
X189150000Y-96800000D02*
X206900000Y-95100000D01*
X172366289Y-99085421D02*
X172606961Y-99192185D01*
X176650000Y-98400000D02*
X189150000Y-96800000D01*
X214050000Y-94500000D02*
X231750000Y-93950000D01*
X171550000Y-97900000D02*
X171861422Y-98585129D01*
X171392934Y-97585871D02*
G75*
G03*
X170786914Y-97075577I-894426J-447213D01*
G01*
X172606961Y-99192184D02*
G75*
G03*
X173114490Y-99272872I405500J914072D01*
G01*
X171861422Y-98585129D02*
G75*
G03*
X172366289Y-99085421I910368J413805D01*
G01*
D34*
%TO.N,+100V*%
X165000000Y-56220000D02*
X171000000Y-56220000D01*
D36*
%TO.N,/CABLEH+*%
X193750000Y-57000000D02*
X196000000Y-57000000D01*
%TO.N,/CABLEH-*%
X181000000Y-57000000D02*
X183250000Y-57000000D01*
D32*
%TO.N,/SLOWSWP#*%
X204950000Y-100800000D02*
X211850000Y-99200000D01*
X160977338Y-109122662D02*
X161450000Y-109200000D01*
X220500000Y-98400000D02*
X223650000Y-98500000D01*
X223650000Y-98500000D02*
X230750000Y-100400000D01*
X230750000Y-100400000D02*
X234100000Y-102650000D01*
X174700000Y-108300000D02*
X181750000Y-105450000D01*
X160650000Y-108900000D02*
X160977338Y-109122662D01*
X161450000Y-109200000D02*
X162150000Y-109250000D01*
X181750000Y-105450000D02*
X185100000Y-103200000D01*
X160100000Y-108350000D02*
X160650000Y-108900000D01*
X236650000Y-107000000D02*
X237200000Y-107700000D01*
X237200000Y-107700000D02*
X238620000Y-107970000D01*
X234100000Y-102650000D02*
X235908199Y-104622581D01*
X185100000Y-103200000D02*
X186500000Y-102500000D01*
X211850000Y-99200000D02*
X217100000Y-98500000D01*
X217100000Y-98500000D02*
X220500000Y-98400000D01*
X186500000Y-102500000D02*
X204950000Y-100800000D01*
X236402433Y-105620702D02*
X236650000Y-107000000D01*
X162150000Y-109250000D02*
X174700000Y-108300000D01*
X236402433Y-105620702D02*
G75*
G03*
X235908199Y-104622581I-1968526J-353320D01*
G01*
%TO.N,/INTEN#*%
X169000000Y-53900000D02*
X173950000Y-54250000D01*
X238620000Y-105430000D02*
X235700000Y-103500000D01*
X233750000Y-101650000D02*
X231300000Y-100000000D01*
X184850000Y-101900000D02*
X183150000Y-101950000D01*
X231300000Y-100000000D02*
X224200000Y-97900000D01*
X204850000Y-100200000D02*
X194150000Y-101150000D01*
X235700000Y-103500000D02*
X233750000Y-101650000D01*
X224200000Y-97900000D02*
X215200000Y-98000000D01*
X215200000Y-98000000D02*
X204850000Y-100200000D01*
X194150000Y-101150000D02*
X184850000Y-101900000D01*
%TO.N,/PS_SYNC*%
X139300000Y-135000000D02*
X129294612Y-134383555D01*
X124250000Y-128050000D02*
X124450000Y-126500000D01*
X125800000Y-131850000D02*
X124500000Y-130200000D01*
X126900000Y-133100000D02*
X125800000Y-131850000D01*
X124500000Y-130200000D02*
X124250000Y-128050000D01*
X128297886Y-134044518D02*
X126900000Y-133100000D01*
X128297886Y-134044518D02*
G75*
G03*
X129294612Y-134383555I1119713J1657172D01*
G01*
D38*
%TO.N,/VSEP-*%
X232087595Y-70040819D02*
X232113158Y-70114908D01*
X235653900Y-66743618D02*
X235843716Y-67592299D01*
X232229861Y-67429630D02*
X232238975Y-67351787D01*
X234287659Y-67049191D02*
X234820077Y-69429673D01*
X234820077Y-69429673D02*
X234845640Y-69503762D01*
X236105909Y-67856787D02*
X236183750Y-67865901D01*
X230788325Y-70487025D02*
X230843502Y-70542686D01*
X234971457Y-66740640D02*
X234997666Y-66666777D01*
X235503199Y-69276885D02*
X234970780Y-66896402D01*
X231403797Y-70349368D02*
X231412912Y-70271525D01*
X229477262Y-70848258D02*
X229543442Y-70890245D01*
X234970780Y-66896402D02*
X234962343Y-66818483D01*
X230863620Y-67735203D02*
X230872734Y-67657360D01*
X233945880Y-69974850D02*
X234012423Y-69933441D01*
X235039652Y-66600598D02*
X235095313Y-66545420D01*
X229847157Y-70891569D02*
X229913700Y-70850160D01*
X235465572Y-66505336D02*
X235531753Y-66547324D01*
X234110071Y-69812084D02*
X234136279Y-69738221D01*
X229696893Y-67726304D02*
X229770983Y-67700742D01*
X233716027Y-69999734D02*
X233793871Y-70008849D01*
X230000608Y-67727629D02*
X230066789Y-67769617D01*
X231488206Y-67519705D02*
X231529615Y-67586248D01*
X232503465Y-67089596D02*
X232581384Y-67081161D01*
X234962343Y-66818483D02*
X234971457Y-66740640D01*
X228903107Y-69538796D02*
X228976970Y-69565004D01*
X229422085Y-70792597D02*
X229477262Y-70848258D01*
X234887048Y-69570305D02*
X234942225Y-69625966D01*
X233596102Y-67124056D02*
X233605216Y-67046213D01*
X233479399Y-69809335D02*
X233520807Y-69875878D01*
X235843716Y-67592299D02*
X235869278Y-67666387D01*
X229098327Y-69662652D02*
X229139735Y-69729195D01*
X235082268Y-69694161D02*
X235160112Y-69703276D01*
X230843502Y-70542686D02*
X230909682Y-70584673D01*
X235008405Y-69667953D02*
X235082268Y-69694161D01*
X233947625Y-66775587D02*
X234025468Y-66784702D01*
X228976970Y-69565004D02*
X229043150Y-69606991D01*
X232701843Y-70183837D02*
X232743830Y-70117657D01*
X235511635Y-69354805D02*
X235503199Y-69276885D01*
X230898943Y-67583497D02*
X230940929Y-67517318D01*
X233520807Y-69875878D02*
X233575984Y-69931539D01*
X235391709Y-66479129D02*
X235465572Y-66505336D01*
X231063134Y-67420731D02*
X231137224Y-67395169D01*
X231404476Y-70193605D02*
X230872057Y-67813122D01*
X229770983Y-67700742D02*
X229848902Y-67692307D01*
X235434325Y-69572691D02*
X235476312Y-69506511D01*
X235628338Y-66669528D02*
X235653900Y-66743618D01*
X235238032Y-69694840D02*
X235312121Y-69669277D01*
X234012423Y-69933441D02*
X234068084Y-69878264D01*
X233871791Y-70000413D02*
X233945880Y-69974850D01*
X234942225Y-69625966D02*
X235008405Y-69667953D01*
X232854447Y-67214132D02*
X232895856Y-67280675D01*
X230746917Y-70420482D02*
X230788325Y-70487025D01*
X232743830Y-70117657D02*
X232770038Y-70043794D01*
X230163374Y-67891821D02*
X230188936Y-67965911D01*
X229497379Y-68040776D02*
X229506493Y-67962933D01*
X229380676Y-70726054D02*
X229422085Y-70792597D01*
X234262097Y-66975101D02*
X234287659Y-67049191D01*
X229355113Y-70651964D02*
X229380676Y-70726054D01*
X229543442Y-70890245D02*
X229617305Y-70916453D01*
X233729072Y-66850993D02*
X233795616Y-66809584D01*
X235910687Y-67732931D02*
X235965865Y-67788592D01*
X232895856Y-67280675D02*
X232921418Y-67354765D01*
X229913700Y-70850160D02*
X229969361Y-70794983D01*
X231412912Y-70271525D02*
X231404476Y-70193605D01*
X231137224Y-67395169D02*
X231215143Y-67386734D01*
X232265184Y-67277924D02*
X232307170Y-67211745D01*
X229043150Y-69606991D02*
X229098327Y-69662652D01*
X234025468Y-66784702D02*
X234099331Y-66810909D01*
X233793871Y-70008849D02*
X233871791Y-70000413D01*
X232505550Y-70305986D02*
X232579639Y-70280423D01*
X233453836Y-69735246D02*
X233479399Y-69809335D01*
X229926745Y-67701422D02*
X230000608Y-67727629D01*
X232429375Y-67115158D02*
X232503465Y-67089596D01*
X233575984Y-69931539D02*
X233642164Y-69973526D01*
X231555177Y-67660338D02*
X232087595Y-70040819D01*
X232581384Y-67081161D02*
X232659227Y-67090276D01*
X228747344Y-69538117D02*
X228825263Y-69529681D01*
X232209743Y-70237112D02*
X232275923Y-70279099D01*
X234997666Y-66666777D02*
X235039652Y-66600598D01*
X232733090Y-67116483D02*
X232799271Y-67158471D01*
X229969361Y-70794983D02*
X230011348Y-70728803D01*
X230940929Y-67517318D02*
X230996590Y-67462140D01*
X236261671Y-67857466D02*
X236940417Y-67705655D01*
X233631425Y-66972350D02*
X233673411Y-66906171D01*
X230996590Y-67462140D02*
X231063134Y-67420731D01*
X231529615Y-67586248D02*
X231555177Y-67660338D01*
X231213398Y-70585997D02*
X231279941Y-70544588D01*
X234068084Y-69878264D02*
X234110071Y-69812084D01*
X229574688Y-67822891D02*
X229630349Y-67767713D01*
X231366849Y-67422056D02*
X231433030Y-67464044D01*
X231377589Y-70423231D02*
X231403797Y-70349368D01*
X231335602Y-70489411D02*
X231377589Y-70423231D01*
X234136279Y-69738221D02*
X234145394Y-69660378D01*
X233673411Y-66906171D02*
X233729072Y-66850993D01*
X235476312Y-69506511D02*
X235502520Y-69432648D01*
X235965865Y-67788592D02*
X236032044Y-67830580D01*
X229848902Y-67692307D02*
X229926745Y-67701422D01*
X233604539Y-67201975D02*
X233596102Y-67124056D01*
X232646182Y-70239014D02*
X232701843Y-70183837D01*
X227800000Y-69750000D02*
X228747344Y-69538117D01*
X232238298Y-67507549D02*
X232229861Y-67429630D01*
X235313866Y-66470014D02*
X235391709Y-66479129D01*
X232770717Y-69888031D02*
X232238298Y-67507549D01*
X232113158Y-70114908D02*
X232154566Y-70181451D01*
X233869706Y-66784022D02*
X233947625Y-66775587D01*
X232362831Y-67156567D02*
X232429375Y-67115158D01*
X231061389Y-70619996D02*
X231139309Y-70611560D01*
X236183750Y-67865901D02*
X236261671Y-67857466D01*
X231215143Y-67386734D02*
X231292986Y-67395849D01*
X234136958Y-69582458D02*
X233604539Y-67201975D01*
X229532702Y-67889070D02*
X229574688Y-67822891D01*
X235095313Y-66545420D02*
X235161857Y-66504011D01*
X235869278Y-67666387D02*
X235910687Y-67732931D01*
X232799271Y-67158471D02*
X232854447Y-67214132D01*
X235502520Y-69432648D02*
X235511635Y-69354805D01*
X235160112Y-69703276D02*
X235238032Y-69694840D01*
X233642164Y-69973526D02*
X233716027Y-69999734D01*
X229773068Y-70917132D02*
X229847157Y-70891569D01*
X234220688Y-66908558D02*
X234262097Y-66975101D01*
X230188936Y-67965911D02*
X230721354Y-70346393D01*
X235312121Y-69669277D02*
X235378664Y-69627868D01*
X229165298Y-69803284D02*
X229355113Y-70651964D01*
X231433030Y-67464044D02*
X231488206Y-67519705D01*
X232349786Y-70305307D02*
X232427630Y-70314422D01*
X230983545Y-70610881D02*
X231061389Y-70619996D01*
X235235947Y-66478449D02*
X235313866Y-66470014D01*
X235378664Y-69627868D02*
X235434325Y-69572691D01*
X229695148Y-70925568D02*
X229773068Y-70917132D01*
X232770038Y-70043794D02*
X232779153Y-69965951D01*
X233795616Y-66809584D02*
X233869706Y-66784022D01*
X229617305Y-70916453D02*
X229695148Y-70925568D01*
X230038235Y-70499177D02*
X229505816Y-68118695D01*
X230066789Y-67769617D02*
X230121965Y-67825278D01*
X235531753Y-66547324D02*
X235586929Y-66602985D01*
X230037556Y-70654940D02*
X230046671Y-70577097D01*
X235161857Y-66504011D02*
X235235947Y-66478449D01*
X236940417Y-67705655D02*
X238620000Y-67330000D01*
X230872734Y-67657360D02*
X230898943Y-67583497D01*
X232154566Y-70181451D02*
X232209743Y-70237112D01*
X229506493Y-67962933D02*
X229532702Y-67889070D01*
X231292986Y-67395849D02*
X231366849Y-67422056D01*
X230121965Y-67825278D02*
X230163374Y-67891821D01*
X235586929Y-66602985D02*
X235628338Y-66669528D01*
X234099331Y-66810909D02*
X234165512Y-66852897D01*
X232307170Y-67211745D02*
X232362831Y-67156567D01*
X234145394Y-69660378D02*
X234136958Y-69582458D01*
X230909682Y-70584673D02*
X230983545Y-70610881D01*
X230872057Y-67813122D02*
X230863620Y-67735203D01*
X231139309Y-70611560D02*
X231213398Y-70585997D01*
X228825263Y-69529681D02*
X228903107Y-69538796D01*
X230011348Y-70728803D02*
X230037556Y-70654940D01*
X233605216Y-67046213D02*
X233631425Y-66972350D01*
X229139735Y-69729195D02*
X229165298Y-69803284D01*
X234845640Y-69503762D02*
X234887048Y-69570305D01*
X232579639Y-70280423D02*
X232646182Y-70239014D01*
X230046671Y-70577097D02*
X230038235Y-70499177D01*
X232238975Y-67351787D02*
X232265184Y-67277924D01*
X232921418Y-67354765D02*
X233453836Y-69735246D01*
X229630349Y-67767713D02*
X229696893Y-67726304D01*
X236032044Y-67830580D02*
X236105909Y-67856787D01*
X232275923Y-70279099D02*
X232349786Y-70305307D01*
X232427630Y-70314422D02*
X232505550Y-70305986D01*
X230721354Y-70346393D02*
X230746917Y-70420482D01*
X234165512Y-66852897D02*
X234220688Y-66908558D01*
X229505816Y-68118695D02*
X229497379Y-68040776D01*
X231279941Y-70544588D02*
X231335602Y-70489411D01*
X232659227Y-67090276D02*
X232733090Y-67116483D01*
X232779153Y-69965951D02*
X232770717Y-69888031D01*
%TO.N,/VSEP+*%
X238074794Y-68737603D02*
X237628406Y-68960797D01*
X235204243Y-71780350D02*
X220095969Y-76153798D01*
X238620000Y-64790000D02*
X239636381Y-66037752D01*
X237199782Y-69372619D02*
X236399803Y-70824431D01*
X239836282Y-68018333D02*
X239679514Y-68309474D01*
X217718825Y-76106275D02*
X216350000Y-75650000D01*
X239277627Y-68570951D02*
X238445310Y-68634976D01*
X239860564Y-66638076D02*
X239895802Y-67765666D01*
X216350000Y-75650000D02*
X210750000Y-71250000D01*
X239895801Y-67765666D02*
G75*
G02*
X239836281Y-68018333I-499756J-15618D01*
G01*
X238445310Y-68634977D02*
G75*
G03*
X238074794Y-68737604I76702J-997071D01*
G01*
X236399803Y-70824431D02*
G75*
G02*
X235204243Y-71780350I-1751679J965212D01*
G01*
X217718825Y-76106275D02*
G75*
G03*
X220095969Y-76153798I1264910J3794741D01*
G01*
X237199782Y-69372619D02*
G75*
G02*
X237628406Y-68960797I875838J-482605D01*
G01*
X239277627Y-68570951D02*
G75*
G03*
X239679513Y-68309474I-38344J498520D01*
G01*
X239860563Y-66638076D02*
G75*
G03*
X239636380Y-66037753I-999504J-31231D01*
G01*
%TO.N,/V-*%
X231800000Y-59500000D02*
X238620000Y-59710000D01*
%TO.N,/V+*%
X237435590Y-57176438D02*
X238620000Y-57170000D01*
X234667497Y-58035507D02*
X234724573Y-58070939D01*
X234724573Y-58070939D02*
X234788101Y-58092781D01*
X235158738Y-57422058D02*
X235180581Y-57358529D01*
X235153262Y-57798314D02*
X235151580Y-57488854D01*
X234788101Y-58092781D02*
X234854897Y-58099940D01*
X235151580Y-57488854D02*
X235158738Y-57422058D01*
X235124260Y-57928638D02*
X235146103Y-57865110D01*
X234553271Y-57801575D02*
X234561156Y-57868289D01*
X234561156Y-57868289D02*
X234583688Y-57931577D01*
X234521174Y-57362114D02*
X234543706Y-57425401D01*
X235319943Y-57217644D02*
X235383230Y-57195112D01*
X234543706Y-57425401D02*
X234551590Y-57492116D01*
X234921611Y-58092055D02*
X234984898Y-58069523D01*
X235263256Y-57253694D02*
X235319943Y-57217644D01*
X235146103Y-57865110D02*
X235153262Y-57798314D01*
X235449947Y-57187229D02*
X237435590Y-57176438D01*
X233100000Y-57200000D02*
X234249965Y-57193751D01*
X234249965Y-57193751D02*
X234316761Y-57200909D01*
X235041585Y-58033473D02*
X235088829Y-57985713D01*
X234485124Y-57305427D02*
X234521174Y-57362114D01*
X235180581Y-57358529D02*
X235216013Y-57301454D01*
X235383230Y-57195112D02*
X235449947Y-57187229D01*
X234984898Y-58069523D02*
X235041585Y-58033473D01*
X233100000Y-57200000D02*
X233150000Y-57200000D01*
X235216013Y-57301454D02*
X235263256Y-57253694D01*
X234551590Y-57492116D02*
X234553271Y-57801575D01*
X234316761Y-57200909D02*
X234380289Y-57222752D01*
X234437364Y-57258184D02*
X234485124Y-57305427D01*
X235088829Y-57985713D02*
X235124260Y-57928638D01*
X234619737Y-57988263D02*
X234667497Y-58035507D01*
X234854897Y-58099940D02*
X234921611Y-58092055D01*
X234380289Y-57222752D02*
X234437364Y-57258184D01*
X234583688Y-57931577D02*
X234619737Y-57988263D01*
D32*
%TO.N,/XY#*%
X216000000Y-97350000D02*
X222450000Y-97250000D01*
X241160000Y-105430000D02*
X239450000Y-104200000D01*
X181500000Y-102450000D02*
X181200000Y-103900000D01*
X187700000Y-101000000D02*
X183500000Y-101150000D01*
X180550000Y-105100000D02*
X179250000Y-105900000D01*
X224250000Y-97250000D02*
X231250000Y-99100000D01*
X205950000Y-99200000D02*
X191050000Y-100650000D01*
X167600000Y-108400000D02*
X162200000Y-108800000D01*
X183500000Y-101150000D02*
X182450000Y-101350000D01*
X179250000Y-105900000D02*
X176450000Y-107100000D01*
X232700000Y-100050000D02*
X231250000Y-99100000D01*
X181200000Y-103900000D02*
X180550000Y-105100000D01*
X213350000Y-97550000D02*
X216000000Y-97350000D01*
X222450000Y-97250000D02*
X224250000Y-97250000D01*
X237009558Y-103641298D02*
X232700000Y-100050000D01*
X182450000Y-101350000D02*
X181500000Y-102450000D01*
X239450000Y-104200000D02*
X238136533Y-104098965D01*
X191050000Y-100650000D02*
X187700000Y-101000000D01*
X176450000Y-107100000D02*
X174550000Y-107850000D01*
X162200000Y-108800000D02*
X161350000Y-108450000D01*
X174550000Y-107850000D02*
X167600000Y-108400000D01*
X205950000Y-99200000D02*
X213350000Y-97550000D01*
X238136533Y-104098964D02*
G75*
G02*
X237009559Y-103641297I153402J1994125D01*
G01*
%TO.N,/ZSEL*%
X179954237Y-99233153D02*
X188357582Y-98159326D01*
X208100000Y-96250000D02*
X213350000Y-95800000D01*
X162900000Y-104800000D02*
X165050000Y-105000000D01*
X188357582Y-98159326D02*
X208100000Y-96250000D01*
X230146886Y-96612506D02*
X232050000Y-97700000D01*
X238450000Y-101500000D02*
X236400000Y-101000000D01*
X241730451Y-101752343D02*
X238450000Y-101500000D01*
X176442056Y-99930875D02*
X177659758Y-99526355D01*
X219752095Y-95564833D02*
X223900000Y-95500000D01*
X243700000Y-102890000D02*
X242833464Y-102190353D01*
X174550000Y-101500000D02*
X171000000Y-104750000D01*
X177659758Y-99526355D02*
X179954237Y-99233153D01*
X174550000Y-101500000D02*
X175350000Y-100650000D01*
X223900000Y-95500000D02*
X228223446Y-95984872D01*
X144000000Y-104100000D02*
X150050000Y-104250000D01*
X213350000Y-95800000D02*
X219752095Y-95564833D01*
X175350000Y-100650000D02*
X176442056Y-99930875D01*
X236400000Y-101000000D02*
X232050000Y-97700000D01*
X141700000Y-104450000D02*
X144000000Y-104100000D01*
X171000000Y-104750000D02*
X165050000Y-105000000D01*
X150050000Y-104250000D02*
X162900000Y-104800000D01*
X143000000Y-107800000D02*
X142200000Y-113800000D01*
X242833464Y-102190353D02*
G75*
G03*
X241730451Y-101752343I-1256409J-1556107D01*
G01*
X228223446Y-95984872D02*
G75*
G02*
X230146886Y-96612506I-557265J-4968881D01*
G01*
%TO.N,/NOSCALE#*%
X132600137Y-106147183D02*
X137250000Y-105750000D01*
X142250000Y-103150000D02*
X164400000Y-103950000D01*
X230650000Y-94550000D02*
X231500000Y-94700000D01*
X127050000Y-82700000D02*
X127050000Y-84400000D01*
X170350000Y-103750000D02*
X172100000Y-102200000D01*
X123950000Y-100000000D02*
X123950000Y-102530391D01*
X126400000Y-89000000D02*
X126050000Y-90750000D01*
X139250000Y-104350000D02*
X141050000Y-103250000D01*
X175850000Y-99150000D02*
X176800000Y-98800000D01*
X173650000Y-100900000D02*
X175100000Y-99700000D01*
X125365261Y-105148914D02*
X126278348Y-105611652D01*
X232837683Y-94393781D02*
X233529776Y-93959211D01*
X141900000Y-103150000D02*
X141050000Y-103250000D01*
X178350000Y-98600000D02*
X183355739Y-97944835D01*
X141900000Y-103150000D02*
X142250000Y-103150000D01*
X235350000Y-90400000D02*
X235750000Y-80150000D01*
X126050000Y-90750000D02*
X124050000Y-98200000D01*
X235750000Y-80150000D02*
X235500000Y-78850000D01*
X124050000Y-98200000D02*
X123950000Y-100000000D01*
X124082099Y-103245196D02*
X124401458Y-104079733D01*
X231500000Y-94700000D02*
X231774148Y-94700000D01*
X126850000Y-86250000D02*
X126400000Y-89000000D01*
X234817192Y-92249155D02*
X235350000Y-90400000D01*
X172100000Y-102200000D02*
X173650000Y-100900000D01*
X213106753Y-94980467D02*
X228105077Y-94463361D01*
X183355739Y-97944835D02*
X187957150Y-97355854D01*
X164400000Y-103950000D02*
X170350000Y-103750000D01*
X131600000Y-79850000D02*
X128237847Y-81257412D01*
X127050000Y-84400000D02*
X126850000Y-86250000D01*
X187957150Y-97355854D02*
X192359041Y-96894392D01*
X127064511Y-82639054D02*
X127050000Y-82700000D01*
X176800000Y-98800000D02*
X178350000Y-98600000D01*
X192359041Y-96894392D02*
X213106753Y-94980467D01*
X175100000Y-99700000D02*
X175850000Y-99150000D01*
X137250000Y-105750000D02*
X139250000Y-104350000D01*
X127065945Y-105824269D02*
X132600137Y-106147183D01*
X228105077Y-94463361D02*
X230650000Y-94550000D01*
X127065945Y-105824268D02*
G75*
G02*
X126278348Y-105611651I116502J1996614D01*
G01*
X231774148Y-94700000D02*
G75*
G03*
X232837683Y-94393781I-1J2000004D01*
G01*
X124082099Y-103245196D02*
G75*
G02*
X123950000Y-102530391I1867906J714806D01*
G01*
X127064511Y-82639054D02*
G75*
G02*
X128237847Y-81257412I1945612J-463239D01*
G01*
X234817192Y-92249155D02*
G75*
G02*
X233529776Y-93959211I-2882707J830603D01*
G01*
X124401459Y-104079733D02*
G75*
G03*
X125365261Y-105148913I1867900J714805D01*
G01*
%TO.N,/NOTEXT#*%
X236830401Y-77028988D02*
X236850232Y-77004983D01*
X213650410Y-95361867D02*
X208753108Y-95783686D01*
X170650000Y-104200000D02*
X174150000Y-101150000D01*
X139300000Y-104900000D02*
X140500000Y-104200000D01*
X137400000Y-106250000D02*
X139300000Y-104900000D01*
X132650000Y-106550000D02*
X137400000Y-106250000D01*
X224850000Y-95000000D02*
X213650410Y-95361867D01*
X140500000Y-104200000D02*
X141200000Y-103750000D01*
X123750000Y-97350000D02*
X123400000Y-98550000D01*
X123604817Y-103414275D02*
X124027856Y-104409661D01*
X164150000Y-104450000D02*
X170650000Y-104200000D01*
X190108639Y-97532406D02*
X177450000Y-99150000D01*
X124910813Y-105383171D02*
X126097583Y-106030500D01*
X230098932Y-94931379D02*
X228100000Y-94900000D01*
X233468547Y-94614675D02*
X234027092Y-94238264D01*
X141752358Y-103570034D02*
X141200000Y-103750000D01*
X155150000Y-104050000D02*
X145848911Y-103680153D01*
X231555880Y-95117570D02*
X230700000Y-95050000D01*
X238982746Y-76200000D02*
X241411370Y-76200000D01*
X230700000Y-95050000D02*
X230098932Y-94931379D01*
X125850000Y-89600000D02*
X123750000Y-97350000D01*
X126957842Y-106272333D02*
X132650000Y-106550000D01*
X177450000Y-99150000D02*
X176500000Y-99450000D01*
X242642657Y-75776049D02*
X243700000Y-74950000D01*
X126500000Y-80950000D02*
X126600000Y-84700000D01*
X235213971Y-92645290D02*
X235900000Y-90450000D01*
X208753108Y-95783686D02*
X190108639Y-97532406D01*
X145848911Y-103680153D02*
X141752358Y-103570034D01*
X123400000Y-98550000D02*
X123445602Y-102654214D01*
X176500000Y-99450000D02*
X175250000Y-100100000D01*
X238127827Y-76296290D02*
X238718417Y-76217545D01*
X235900000Y-90450000D02*
X236373826Y-78225289D01*
X175250000Y-100100000D02*
X174150000Y-101150000D01*
X126600000Y-84700000D02*
X125850000Y-89600000D01*
X164150000Y-104450000D02*
X155150000Y-104050000D01*
X228100000Y-94900000D02*
X224850000Y-95000000D01*
X123445602Y-102654214D02*
G75*
G03*
X123604817Y-103414275I1999892J22224D01*
G01*
X126957842Y-106272332D02*
G75*
G02*
X126097583Y-106030499I97434J1997589D01*
G01*
X238127827Y-76296291D02*
G75*
G03*
X236850232Y-77004983I264331J-1982459D01*
G01*
X124910813Y-105383171D02*
G75*
G02*
X124027856Y-104409661I957711J1755796D01*
G01*
X231555880Y-95117569D02*
G75*
G03*
X233468547Y-94614674I236108J2990688D01*
G01*
X238718417Y-76217545D02*
G75*
G02*
X238982746Y-76200000I264328J-1982366D01*
G01*
X235213970Y-92645290D02*
G75*
G02*
X234027092Y-94238263I-2863429J894817D01*
G01*
X236373827Y-78225289D02*
G75*
G02*
X236830402Y-77028988I1998493J-77459D01*
G01*
X242642657Y-75776049D02*
G75*
G02*
X241411370Y-76200000I-1231283J1576036D01*
G01*
%TO.N,Net-(C59-Pad1)*%
X151750000Y-72650000D02*
X153850000Y-72800000D01*
X146885593Y-71452541D02*
X146850000Y-71150000D01*
X147908323Y-72458329D02*
X147447289Y-72237834D01*
X151750000Y-72650000D02*
X148312392Y-72555819D01*
X148312392Y-72555818D02*
G75*
G02*
X147908323Y-72458328I27377J999593D01*
G01*
X147447289Y-72237834D02*
G75*
G02*
X146885594Y-71452541I431457J902136D01*
G01*
%TO.N,Net-(Q3-Pad1)*%
X138850000Y-52900000D02*
X134050000Y-53150000D01*
X114350000Y-82000000D02*
X112900000Y-82350000D01*
%TO.N,Net-(R18-Pad2)*%
X145250000Y-106900000D02*
X144300000Y-106550000D01*
X116100000Y-109700000D02*
X116700000Y-109800000D01*
X127450000Y-109250000D02*
X124650000Y-109500000D01*
X144300000Y-106550000D02*
X143150000Y-106450000D01*
X137700000Y-108200000D02*
X136000000Y-108350000D01*
X124650000Y-109500000D02*
X121500000Y-109650000D01*
X147550000Y-107400000D02*
X146200000Y-107200000D01*
X136000000Y-108350000D02*
X133050000Y-108450000D01*
X138750000Y-107950000D02*
X137700000Y-108200000D01*
X146200000Y-107200000D02*
X145250000Y-106900000D01*
X114450000Y-110150000D02*
X115200000Y-109850000D01*
X121500000Y-109650000D02*
X119950000Y-109900000D01*
X143150000Y-106450000D02*
X141350000Y-106800000D01*
X133050000Y-108450000D02*
X130100000Y-108850000D01*
X141350000Y-106800000D02*
X139850000Y-107300000D01*
X117700000Y-110200000D02*
X118281250Y-110281250D01*
X117100000Y-110000000D02*
X117700000Y-110200000D01*
X116700000Y-109800000D02*
X117100000Y-110000000D01*
X130100000Y-108850000D02*
X127450000Y-109250000D01*
X139850000Y-107300000D02*
X138750000Y-107950000D01*
X118850000Y-110200000D02*
X118281250Y-110281250D01*
X119950000Y-109900000D02*
X118850000Y-110200000D01*
X115200000Y-109850000D02*
X116100000Y-109700000D01*
%TO.N,Net-(R21-Pad2)*%
X127650000Y-109800000D02*
X131150000Y-109150000D01*
X137300000Y-108850000D02*
X138100000Y-109000000D01*
X116050000Y-110650000D02*
X117550000Y-110650000D01*
X131150000Y-109150000D02*
X132950000Y-108950000D01*
X132950000Y-108950000D02*
X135200000Y-108900000D01*
X121062208Y-110125687D02*
X122050000Y-110050000D01*
X138100000Y-109000000D02*
X138700000Y-109250000D01*
X118700000Y-110700000D02*
X119550000Y-110500000D01*
X139000000Y-109800000D02*
X139150000Y-111000000D01*
X139150000Y-111000000D02*
X139200000Y-111150000D01*
X117550000Y-110650000D02*
X118700000Y-110700000D01*
X135200000Y-108900000D02*
X137300000Y-108850000D01*
X119550000Y-110500000D02*
X121062208Y-110125687D01*
X122050000Y-110050000D02*
X127650000Y-109800000D01*
X138700000Y-109250000D02*
X139000000Y-109800000D01*
%TO.N,Net-(R22-Pad2)*%
X115950000Y-76300000D02*
X117250000Y-78600000D01*
%TO.N,Net-(R23-Pad2)*%
X127300000Y-110850000D02*
X128400000Y-110200000D01*
X126100000Y-113200000D02*
X126200000Y-112450000D01*
X128400000Y-110200000D02*
X129650000Y-109900000D01*
X131400000Y-109550000D02*
X133150000Y-109350000D01*
X135050075Y-109303338D02*
X136750000Y-109350000D01*
X129650000Y-109900000D02*
X131400000Y-109550000D01*
X126500000Y-111700000D02*
X127300000Y-110850000D01*
X126200000Y-112450000D02*
X126500000Y-111700000D01*
X133150000Y-109350000D02*
X135050075Y-109303338D01*
X136750000Y-109350000D02*
X136900000Y-109500000D01*
%TO.N,Net-(R31-Pad2)*%
X115300000Y-77000000D02*
X117150000Y-79750000D01*
%TO.N,Net-(R32-Pad1)*%
X136276708Y-71550000D02*
X133150000Y-71550000D01*
X139185069Y-72027552D02*
X136620711Y-71579807D01*
X143000000Y-77600000D02*
X142052612Y-74304735D01*
X141239873Y-73193249D02*
X139950468Y-72333645D01*
X141239873Y-73193249D02*
G75*
G02*
X142052611Y-74304735I-1109389J-1664093D01*
G01*
X139950468Y-72333645D02*
G75*
G03*
X139185069Y-72027552I-1109406J-1664114D01*
G01*
X136620711Y-71579807D02*
G75*
G03*
X136276708Y-71550000I-344010J-1970251D01*
G01*
%TO.N,Net-(R64-Pad2)*%
X208150000Y-67600000D02*
X210750000Y-67500000D01*
%TO.N,Net-(R65-Pad2)*%
X191750000Y-73750000D02*
X184694727Y-74925878D01*
X183816487Y-74876140D02*
X183146891Y-74684827D01*
X182096335Y-73961779D02*
X179845299Y-70960399D01*
X179452208Y-69926489D02*
X179250000Y-67500000D01*
X179452208Y-69926489D02*
G75*
G03*
X179845299Y-70960399I1993072J166082D01*
G01*
X183816487Y-74876139D02*
G75*
G03*
X184694727Y-74925877I549441J1923096D01*
G01*
X182096336Y-73961778D02*
G75*
G03*
X183146891Y-74684826I1599995J1199991D01*
G01*
%TO.N,Net-(R66-Pad1)*%
X218600000Y-75550000D02*
X225550000Y-71550000D01*
X226300000Y-69350000D02*
X226250000Y-67500000D01*
X225550000Y-71550000D02*
X226300000Y-69350000D01*
D38*
%TO.N,Net-(R74-Pad1)*%
X212750000Y-67500000D02*
X214200000Y-67450000D01*
%TO.N,Net-(R77-Pad1)*%
X224250000Y-67500000D02*
X222800000Y-67450000D01*
D36*
%TO.N,Net-(R90-Pad2)*%
X185550000Y-58250000D02*
X185250000Y-57000000D01*
%TO.N,Net-(R91-Pad1)*%
X191750000Y-57000000D02*
X191600000Y-58200000D01*
D32*
%TO.N,Net-(R105-Pad1)*%
X115000000Y-124100000D02*
X128450000Y-125950000D01*
%TO.N,/Intensity Decoder/BFSSCLAMP*%
X162000000Y-110500000D02*
X165100000Y-110450000D01*
X161146620Y-110378738D02*
X162000000Y-110500000D01*
X165100000Y-110450000D02*
X168250022Y-110300546D01*
X168250022Y-110300546D02*
X176700000Y-110300000D01*
X184150000Y-113700000D02*
X186400000Y-114200000D01*
X156950000Y-109250000D02*
X158100000Y-109300000D01*
X179000000Y-110600000D02*
X182762500Y-112762500D01*
X176700000Y-110300000D02*
X179000000Y-110600000D01*
X158100000Y-109300000D02*
X159184611Y-109733344D01*
X182762500Y-112762500D02*
X184150000Y-113700000D01*
X160443392Y-110314319D02*
X161146620Y-110378738D01*
X155000000Y-109600000D02*
X156950000Y-109250000D01*
X159184611Y-109733344D02*
X160443392Y-110314319D01*
X186400000Y-114200000D02*
X189550000Y-114300000D01*
%TO.N,/Intensity Decoder/SSCLAMP*%
X161350000Y-110000000D02*
X161899009Y-110058431D01*
X176850000Y-109750000D02*
X179350000Y-110100000D01*
X179350000Y-110100000D02*
X182750000Y-111900000D01*
X155800000Y-108700000D02*
X157750000Y-108500000D01*
X159200000Y-109300000D02*
X160500000Y-109900000D01*
X164300000Y-110050000D02*
X170502067Y-109812693D01*
X184450000Y-112850000D02*
X186750000Y-113250000D01*
X170502067Y-109812693D02*
X176850000Y-109750000D01*
X160500000Y-109900000D02*
X161350000Y-110000000D01*
X161899009Y-110058431D02*
X164300000Y-110050000D01*
X186750000Y-113250000D02*
X190600000Y-113350000D01*
X157750000Y-108500000D02*
X159200000Y-109300000D01*
X182750000Y-111900000D02*
X184450000Y-112850000D01*
%TO.N,/Intensity Decoder/XYCLAMP*%
X163300000Y-109650000D02*
X176950000Y-109200000D01*
X184650000Y-111850000D02*
X186600000Y-112300000D01*
X163300000Y-109650000D02*
X161850000Y-109650000D01*
X186600000Y-112300000D02*
X191450000Y-112550000D01*
X161850000Y-109650000D02*
X161000000Y-109550000D01*
X160300000Y-109350000D02*
X159400000Y-108900000D01*
X159200000Y-108300000D02*
X159400000Y-108900000D01*
X176950000Y-109200000D02*
X179650000Y-109350000D01*
X182850000Y-110750000D02*
X179650000Y-109350000D01*
X160100000Y-106800000D02*
X159200000Y-107600000D01*
X182850000Y-110750000D02*
X184650000Y-111850000D01*
X159200000Y-107600000D02*
X159200000Y-108300000D01*
X161000000Y-109550000D02*
X160300000Y-109350000D01*
%TO.N,/Intensity Decoder/RECALL*%
X131650000Y-71900000D02*
X132234239Y-75366487D01*
X133400000Y-77650000D02*
X143300000Y-91100000D01*
X133008114Y-77140549D02*
X133400000Y-77650000D01*
X133008114Y-77140549D02*
G75*
G02*
X132234239Y-75366487I3170492J2438840D01*
G01*
%TO.N,Net-(U29-Pad4)*%
X110320177Y-77831332D02*
X108800000Y-77600000D01*
X108800000Y-77600000D02*
X108050000Y-77500000D01*
X112100000Y-78550000D02*
X111776392Y-78355835D01*
X116600000Y-81350000D02*
X112100000Y-78550000D01*
X111776391Y-78355836D02*
G75*
G03*
X110320177Y-77831333I-2057985J-3429983D01*
G01*
%TO.N,/Intensity Decoder/Z0*%
X124750000Y-77000000D02*
X125296123Y-75941887D01*
X126607396Y-74795510D02*
X127577358Y-74206604D01*
X128254387Y-73526021D02*
X128450000Y-73200000D01*
X123500000Y-91200000D02*
X124300000Y-88450000D01*
X120616158Y-100708360D02*
X120445523Y-100318338D01*
X124600000Y-78400000D02*
X124750000Y-77000000D01*
X126020655Y-75158643D02*
X126592642Y-74804555D01*
X120307004Y-105268868D02*
X120350000Y-103850000D01*
X120700000Y-101950000D02*
X120700000Y-101109178D01*
X121400000Y-97950000D02*
X121610449Y-97739551D01*
X120877206Y-106778099D02*
X120395175Y-105710744D01*
X121869324Y-97291054D02*
X123500000Y-91200000D01*
X124750000Y-84950000D02*
X124650000Y-80050000D01*
X122900000Y-106800000D02*
X122617361Y-107082639D01*
X124300000Y-88450000D02*
X124750000Y-84950000D01*
X120900752Y-98342266D02*
X121400000Y-97950000D01*
X120350000Y-103850000D02*
X120700000Y-101950000D01*
X124650000Y-80050000D02*
X124600000Y-78400000D01*
X121972633Y-107373585D02*
X121874745Y-107379703D01*
X120363219Y-99862048D02*
X120390209Y-99376224D01*
X120469524Y-99037776D02*
X120599429Y-98734665D01*
X121275491Y-107225314D02*
X121251701Y-107210174D01*
X120395176Y-105710744D02*
G75*
G02*
X120307005Y-105268868I911350J411584D01*
G01*
X120700000Y-101109178D02*
G75*
G03*
X120616158Y-100708360I-1000003J0D01*
G01*
X120599430Y-98734665D02*
G75*
G02*
X120900752Y-98342266I919145J-393919D01*
G01*
X128254386Y-73526020D02*
G75*
G02*
X127577357Y-74206603I-1714984J1028990D01*
G01*
X121972633Y-107373585D02*
G75*
G03*
X122617361Y-107082639I-62375J998044D01*
G01*
X121251701Y-107210173D02*
G75*
G02*
X120877207Y-106778099I536883J843666D01*
G01*
X121869323Y-97291054D02*
G75*
G02*
X121610448Y-97739550I-965980J258609D01*
G01*
X121275491Y-107225314D02*
G75*
G03*
X121874745Y-107379702I536874J843671D01*
G01*
X120469524Y-99037776D02*
G75*
G03*
X120390209Y-99376224I919117J-393912D01*
G01*
X120363220Y-99862048D02*
G75*
G03*
X120445523Y-100318338I998468J-55468D01*
G01*
X126020656Y-75158644D02*
G75*
G03*
X125296124Y-75941887I1052704J-1700526D01*
G01*
X126592642Y-74804555D02*
G75*
G02*
X126607396Y-74795510I1068402J-1726197D01*
G01*
%TO.N,/Intensity Decoder/Z1*%
X120961913Y-100173827D02*
X121144426Y-100538853D01*
X120920913Y-99336122D02*
X120882924Y-99497574D01*
X115564645Y-75689073D02*
X114878238Y-76094677D01*
X125100000Y-79600000D02*
X125250000Y-84950000D01*
X128420000Y-74670000D02*
X126598747Y-75478573D01*
X125150000Y-77450000D02*
X125100000Y-78750000D01*
X125099925Y-79198331D02*
X125100000Y-79600000D01*
X121250000Y-100986068D02*
X121250000Y-101850000D01*
X118700000Y-77100000D02*
X117442893Y-75842893D01*
X121500000Y-98600000D02*
X121269635Y-98784292D01*
X121900000Y-106700000D02*
X121174218Y-105644317D01*
X125100000Y-78750000D02*
X125099925Y-79198331D01*
X121250000Y-101850000D02*
X120850000Y-103700000D01*
X125250000Y-84950000D02*
X124700000Y-88650000D01*
X125350000Y-76750000D02*
X125150000Y-77450000D01*
X116735786Y-75550000D02*
X116073374Y-75550000D01*
X114578232Y-76367432D02*
X113100000Y-78400000D01*
X124700000Y-88650000D02*
X122183161Y-97797743D01*
X120850000Y-103700000D02*
X120823576Y-104439875D01*
X125782825Y-76144045D02*
X125350000Y-76750000D01*
X121859173Y-98300689D02*
X121500000Y-98600000D01*
X121249999Y-100986068D02*
G75*
G03*
X121144425Y-100538853I-1000017J-5D01*
G01*
X116735786Y-75550001D02*
G75*
G02*
X117442892Y-75842894I3J-999993D01*
G01*
X120823576Y-104439875D02*
G75*
G03*
X121174218Y-105644317I1998727J-71384D01*
G01*
X121859173Y-98300689D02*
G75*
G03*
X122183161Y-97797743I-640185J768221D01*
G01*
X120882925Y-99497574D02*
G75*
G03*
X120961913Y-100173827I973409J-229042D01*
G01*
X116073374Y-75550001D02*
G75*
G03*
X115564645Y-75689074I-5J-999984D01*
G01*
X125782826Y-76144045D02*
G75*
G02*
X126598747Y-75478574I1627466J-1162476D01*
G01*
X121269635Y-98784292D02*
G75*
G03*
X120920913Y-99336122I624692J-780866D01*
G01*
X114578232Y-76367432D02*
G75*
G02*
X114878238Y-76094677I808740J-588174D01*
G01*
%TO.N,/Intensity Decoder/Z2*%
X125750000Y-84650000D02*
X125350000Y-87500000D01*
X122250000Y-100450000D02*
X122150000Y-100650000D01*
X121850000Y-101800000D02*
X121600000Y-103150000D01*
X122500000Y-99900000D02*
X122250000Y-100450000D01*
X124950000Y-89650000D02*
X124000000Y-92900000D01*
X125650000Y-82050000D02*
X125750000Y-84650000D01*
X122550000Y-99300000D02*
X122500000Y-99900000D01*
X125500000Y-79200000D02*
X125550000Y-77700000D01*
X125350000Y-87500000D02*
X124950000Y-89650000D01*
X121600000Y-103150000D02*
X121600000Y-104250000D01*
X125500000Y-79200000D02*
X125650000Y-82050000D01*
X122500000Y-98400000D02*
X122550000Y-99300000D01*
X123100000Y-96350000D02*
X122500000Y-98400000D01*
X125971735Y-76601213D02*
X126078144Y-76471157D01*
X126642572Y-76126592D02*
X128400000Y-75750000D01*
X124000000Y-92900000D02*
X123100000Y-96350000D01*
X122150000Y-100650000D02*
X121850000Y-101800000D01*
X125792110Y-76933318D02*
X125550000Y-77700000D01*
X125792110Y-76933318D02*
G75*
G02*
X125971735Y-76601213I953574J-301129D01*
G01*
X126642572Y-76126593D02*
G75*
G03*
X126078145Y-76471157I209530J-977802D01*
G01*
%TO.N,Net-(U26-Pad2)*%
X124500000Y-131550000D02*
X119100000Y-126150000D01*
%TD*%
M02*
