<?xml version="1.0" encoding="UTF-8" standalone="no"?>
<svg
   xmlns:dc="http://purl.org/dc/elements/1.1/"
   xmlns:cc="http://creativecommons.org/ns#"
   xmlns:rdf="http://www.w3.org/1999/02/22-rdf-syntax-ns#"
   xmlns:svg="http://www.w3.org/2000/svg"
   xmlns="http://www.w3.org/2000/svg"
   xmlns:sodipodi="http://sodipodi.sourceforge.net/DTD/sodipodi-0.dtd"
   xmlns:inkscape="http://www.inkscape.org/namespaces/inkscape"
   id="svg1468"
   viewBox="0 0 79099998 1.201e+08"
   height="12.009999cm"
   width="7.9099998cm"
   version="1.1"
   sodipodi:docname="lvps-plate.svg"
   inkscape:version="1.0 (4035a4fb49, 2020-05-01)">
  <sodipodi:namedview
     inkscape:document-rotation="0"
     pagecolor="#ffffff"
     bordercolor="#666666"
     borderopacity="1"
     objecttolerance="10"
     gridtolerance="10"
     guidetolerance="10"
     inkscape:pageopacity="0"
     inkscape:pageshadow="2"
     inkscape:window-width="1596"
     inkscape:window-height="856"
     id="namedview265"
     showgrid="false"
     inkscape:zoom="1.2016985"
     inkscape:cx="127.05399"
     inkscape:cy="208.23293"
     inkscape:window-x="0"
     inkscape:window-y="20"
     inkscape:window-maximized="0"
     inkscape:current-layer="svg1468" />
  <metadata
     id="metadata1474">
    <rdf:RDF>
      <cc:Work
         rdf:about="">
        <dc:format>image/svg+xml</dc:format>
        <dc:type
           rdf:resource="http://purl.org/dc/dcmitype/StillImage" />
        <dc:title>SVG Picture created as lvps-brd.svg date 2020/09/08 21:03:21 </dc:title>
      </cc:Work>
    </rdf:RDF>
  </metadata>
  <defs
     id="defs1472" />
  <title
     id="title2">SVG Picture created as lvps-brd.svg date 2020/09/08 21:03:21 </title>
  <desc
     id="desc4">Picture generated by PCBNEW </desc>
  <path
     style="color:#000000;font-style:normal;font-variant:normal;font-weight:normal;font-stretch:normal;font-size:medium;line-height:normal;font-family:sans-serif;font-variant-ligatures:normal;font-variant-position:normal;font-variant-caps:normal;font-variant-numeric:normal;font-variant-alternates:normal;font-variant-east-asian:normal;font-feature-settings:normal;font-variation-settings:normal;text-indent:0;text-align:start;text-decoration:none;text-decoration-line:none;text-decoration-style:solid;text-decoration-color:#000000;letter-spacing:normal;word-spacing:normal;text-transform:none;writing-mode:lr-tb;direction:ltr;text-orientation:mixed;dominant-baseline:auto;baseline-shift:baseline;text-anchor:start;white-space:normal;shape-padding:0;shape-margin:0;inline-size:0;clip-rule:nonzero;display:inline;overflow:visible;visibility:visible;isolation:auto;mix-blend-mode:normal;color-interpolation:sRGB;color-interpolation-filters:linearRGB;solid-color:#000000;solid-opacity:1;vector-effect:none;fill:none;fill-opacity:1;fill-rule:nonzero;stroke:#000000;stroke-width:100012.50116621;stroke-linecap:round;stroke-linejoin:round;stroke-miterlimit:4;stroke-dasharray:none;stroke-dashoffset:0;stroke-opacity:1;color-rendering:auto;image-rendering:auto;shape-rendering:auto;text-rendering:auto;enable-background:accumulate;stop-color:#000000;stop-opacity:1;opacity:1"
     d="M 67050000 113250000 C 66932096 113250000 66814476 1.1326158e+08 66698837 1.1328459e+08 C 66583198 1.1330759e+08 66470099 1.133419e+08 66361170 1.1338702e+08 C 66252240 1.1343214e+08 66148008 1.1348785e+08 66049974 1.1355335e+08 C 65951940 1.1361886e+08 65860579 1.1369384e+08 65777208 1.1377721e+08 C 65693837 1.1386058e+08 65618859 1.1395194e+08 65553355 1.1404997e+08 C 65487851 1.1414801e+08 65432137 1.1425224e+08 65387017 1.1436117e+08 C 65341897 1.144701e+08 65307589 1.145832e+08 65284586 1.1469884e+08 C 65261584 1.1481448e+08 65250000 1.149321e+08 65250000 115050000 C 65250000 1.151679e+08 65261584 1.1528552e+08 65284586 1.1540116e+08 C 65307589 1.155168e+08 65341897 1.156299e+08 65387017 1.1573883e+08 C 65432137 1.1584776e+08 65487851 1.1595199e+08 65553355 1.1605003e+08 C 65618859 1.1614806e+08 65693837 1.1623942e+08 65777208 1.1632279e+08 C 65860579 1.1640616e+08 65951940 1.1648114e+08 66049974 1.1654665e+08 C 66148008 1.1661215e+08 66252240 1.1666786e+08 66361170 1.1671298e+08 C 66470099 1.167581e+08 66583198 1.1679241e+08 66698837 1.1681541e+08 C 66814476 1.1683842e+08 66932096 1.1685e+08 67050000 116850000 C 67167904 116850000 67285524 1.1683842e+08 67401163 1.1681541e+08 C 67516802 1.1679241e+08 67629901 1.167581e+08 67738830 1.1671298e+08 C 67847760 1.1666786e+08 67951992 1.1661215e+08 68050026 1.1654665e+08 C 68148060 1.1648114e+08 68239421 1.1640616e+08 68322792 1.1632279e+08 C 68406163 1.1623942e+08 68481141 1.1614806e+08 68546645 1.1605003e+08 C 68612149 1.1595199e+08 68667863 1.1584776e+08 68712983 1.1573883e+08 C 68758103 1.156299e+08 68792411 1.155168e+08 68815414 1.1540116e+08 C 68838413 1.1528554e+08 68849997 1.1516793e+08 68850000 1.1505004e+08 C 68850000 1.1505004e+08 68850000 1.1505004e+08 68850000 1.1505004e+08 A 50000 50000 0 0 0 68850000 115050000 A 50000 50000 0 0 0 68850000 1.1504996e+08 A 50000 50000 0 0 0 68850000 1.1504996e+08 C 68849997 1.1493207e+08 68838413 1.1481446e+08 68815414 1.1469884e+08 C 68792411 1.145832e+08 68758103 1.144701e+08 68712983 1.1436117e+08 C 68667863 1.1425224e+08 68612149 1.1414801e+08 68546645 1.1404997e+08 C 68481141 1.1395194e+08 68406163 1.1386058e+08 68322792 1.1377721e+08 C 68239421 1.1369384e+08 68148060 1.1361886e+08 68050026 1.1355335e+08 C 67951992 1.1348785e+08 67847760 1.1343214e+08 67738830 1.1338702e+08 C 67629901 1.133419e+08 67516802 1.1330759e+08 67401163 1.1328459e+08 C 67285524 1.1326158e+08 67167904 1.1325e+08 67050000 113250000 z M 67050000 113350000 C 67161354 113350000 67272439 1.1336094e+08 67381654 1.1338267e+08 C 67490868 1.1340439e+08 67597684 1.1343679e+08 67700562 1.134794e+08 C 67803440 1.1352202e+08 67901882 1.1357464e+08 67994469 1.136365e+08 C 68087057 1.1369837e+08 68173342 1.1376918e+08 68252082 1.1384792e+08 C 68330821 1.1392666e+08 68401633 1.1401294e+08 68463498 1.1410553e+08 C 68525363 1.1419812e+08 68577982 1.1429656e+08 68620595 1.1439944e+08 C 68663209 1.1450232e+08 68695611 1.1460913e+08 68717335 1.1471835e+08 C 68739059 1.1482756e+08 68750000 1.1493865e+08 68750000 115050000 C 68750000 1.1516135e+08 68739059 1.1527244e+08 68717335 1.1538165e+08 C 68695611 1.1549087e+08 68663209 1.1559768e+08 68620595 1.1570056e+08 C 68577982 1.1580344e+08 68525363 1.1590188e+08 68463498 1.1599447e+08 C 68401633 1.1608706e+08 68330821 1.1617334e+08 68252082 1.1625208e+08 C 68173342 1.1633082e+08 68087057 1.1640163e+08 67994469 1.164635e+08 C 67901882 1.1652536e+08 67803440 1.1657798e+08 67700562 1.166206e+08 C 67597684 1.1666321e+08 67490868 1.1669561e+08 67381654 1.1671733e+08 C 67272439 1.1673906e+08 67161354 1.1675e+08 67050000 116750000 C 66938646 116750000 66827561 1.1673906e+08 66718346 1.1671733e+08 C 66609132 1.1669561e+08 66502316 1.1666321e+08 66399438 1.166206e+08 C 66296560 1.1657798e+08 66198118 1.1652536e+08 66105531 1.164635e+08 C 66012943 1.1640163e+08 65926658 1.1633082e+08 65847918 1.1625208e+08 C 65769179 1.1617334e+08 65698367 1.1608706e+08 65636502 1.1599447e+08 C 65574637 1.1590188e+08 65522018 1.1580344e+08 65479405 1.1570056e+08 C 65436791 1.1559768e+08 65404389 1.1549087e+08 65382665 1.1538165e+08 C 65360941 1.1527244e+08 65350000 1.1516135e+08 65350000 115050000 C 65350000 1.1493865e+08 65360941 1.1482756e+08 65382665 1.1471835e+08 C 65404389 1.1460913e+08 65436791 1.1450232e+08 65479405 1.1439944e+08 C 65522018 1.1429656e+08 65574637 1.1419812e+08 65636502 1.1410553e+08 C 65698367 1.1401294e+08 65769179 1.1392666e+08 65847918 1.1384792e+08 C 65926658 1.1376918e+08 66012943 1.1369837e+08 66105531 1.136365e+08 C 66198118 1.1357464e+08 66296560 1.1352202e+08 66399438 1.134794e+08 C 66502316 1.1343679e+08 66609132 1.1340439e+08 66718346 1.1338267e+08 C 66827561 1.1336094e+08 66938646 1.1335e+08 67050000 113350000 z "
     id="path1495" />
  <path
     style="color:#000000;font-style:normal;font-variant:normal;font-weight:normal;font-stretch:normal;font-size:medium;line-height:normal;font-family:sans-serif;font-variant-ligatures:normal;font-variant-position:normal;font-variant-caps:normal;font-variant-numeric:normal;font-variant-alternates:normal;font-variant-east-asian:normal;font-feature-settings:normal;font-variation-settings:normal;text-indent:0;text-align:start;text-decoration:none;text-decoration-line:none;text-decoration-style:solid;text-decoration-color:#000000;letter-spacing:normal;word-spacing:normal;text-transform:none;writing-mode:lr-tb;direction:ltr;text-orientation:mixed;dominant-baseline:auto;baseline-shift:baseline;text-anchor:start;white-space:normal;shape-padding:0;shape-margin:0;inline-size:0;clip-rule:nonzero;display:inline;overflow:visible;visibility:visible;isolation:auto;mix-blend-mode:normal;color-interpolation:sRGB;color-interpolation-filters:linearRGB;solid-color:#000000;solid-opacity:1;vector-effect:none;fill:none;fill-opacity:1;fill-rule:nonzero;stroke:#000000;stroke-width:100012.50116621;stroke-linecap:round;stroke-linejoin:round;stroke-miterlimit:4;stroke-dasharray:none;stroke-dashoffset:0;stroke-opacity:1;color-rendering:auto;image-rendering:auto;shape-rendering:auto;text-rendering:auto;enable-background:accumulate;stop-color:#000000;stop-opacity:1;opacity:1"
     d="M 47650000 46200000 C 47528820 46200000 47407934 46211906 47289083 46235547 C 47170232 46259188 47053991 46294449 46942036 46340823 C 46830080 46387196 46722952 46444457 46622195 46511781 C 46521438 46579105 46427539 46656166 46341852 46741852 C 46256166 46827539 46179105 46921438 46111781 47022195 C 46044457 47122952 45987196 47230080 45940823 47342036 C 45894449 47453991 45859188 47570232 45835547 47689083 C 45811906 47807934 45800000 47928820 45800000 48050000 C 45800000 48171180 45811906 48292066 45835547 48410917 C 45859188 48529768 45894449 48646009 45940823 48757964 C 45987196 48869920 46044457 48977048 46111781 49077805 C 46179105 49178562 46256166 49272461 46341852 49358148 C 46427539 49443834 46521438 49520895 46622195 49588219 C 46722952 49655543 46830080 49712804 46942036 49759177 C 47053991 49805551 47170232 49840812 47289083 49864453 C 47407934 49888094 47528820 49900000 47650000 49900000 C 47771180 49900000 47892066 49888094 48010917 49864453 C 48129768 49840812 48246009 49805551 48357964 49759177 C 48469920 49712804 48577048 49655543 48677805 49588219 C 48778562 49520895 48872461 49443834 48958148 49358148 C 49043834 49272461 49120895 49178562 49188219 49077805 C 49255543 48977048 49312804 48869920 49359177 48757964 C 49405551 48646009 49440812 48529768 49464453 48410917 C 49488091 48292079 49499997 48171205 49500000 48050038 C 49500000 48050038 49500000 48050038 49500000 48050037 A 50000 50000 0 0 0 49500000 48050000 A 50000 50000 0 0 0 49500000 48049962 A 50000 50000 0 0 0 49500000 48049961 C 49499997 47928795 49488091 47807921 49464453 47689083 C 49440812 47570232 49405551 47453991 49359177 47342036 C 49312804 47230080 49255543 47122952 49188219 47022195 C 49120895 46921438 49043834 46827539 48958148 46741852 C 48872461 46656166 48778562 46579105 48677805 46511781 C 48577048 46444457 48469920 46387196 48357964 46340823 C 48246009 46294449 48129768 46259188 48010917 46235547 C 47892066 46211906 47771180 46200000 47650000 46200000 z M 47650000 46300000 C 47764629 46300000 47878981 46311263 47991408 46333626 C 48103835 46355989 48213792 46389344 48319696 46433211 C 48425600 46477078 48526937 46531244 48622248 46594928 C 48717559 46658613 48806382 46731508 48887437 46812563 C 48968492 46893618 49041387 46982441 49105072 47077752 C 49168756 47173063 49222922 47274400 49266789 47380304 C 49310656 47486208 49344011 47596165 49366374 47708592 C 49388737 47821019 49400000 47935371 49400000 48050000 C 49400000 48164629 49388737 48278981 49366374 48391408 C 49344011 48503835 49310656 48613792 49266789 48719696 C 49222922 48825600 49168756 48926937 49105072 49022248 C 49041387 49117559 48968492 49206382 48887437 49287437 C 48806382 49368492 48717559 49441387 48622248 49505072 C 48526937 49568756 48425600 49622922 48319696 49666789 C 48213792 49710656 48103835 49744011 47991408 49766374 C 47878981 49788737 47764629 49800000 47650000 49800000 C 47535371 49800000 47421019 49788737 47308592 49766374 C 47196165 49744011 47086208 49710656 46980304 49666789 C 46874400 49622922 46773063 49568756 46677752 49505072 C 46582441 49441387 46493618 49368492 46412563 49287437 C 46331508 49206382 46258613 49117559 46194928 49022248 C 46131244 48926937 46077078 48825600 46033211 48719696 C 45989344 48613792 45955989 48503835 45933626 48391408 C 45911263 48278981 45900000 48164629 45900000 48050000 C 45900000 47935371 45911263 47821019 45933626 47708592 C 45955989 47596165 45989344 47486208 46033211 47380304 C 46077078 47274400 46131244 47173063 46194928 47077752 C 46258613 46982441 46331508 46893618 46412563 46812563 C 46493618 46731508 46582441 46658613 46677752 46594928 C 46773063 46531244 46874400 46477078 46980304 46433211 C 47086208 46389344 47196165 46355989 47308592 46333626 C 47421019 46311263 47535371 46300000 47650000 46300000 z "
     id="path1470" />
  <path
     style="color:#000000;font-style:normal;font-variant:normal;font-weight:normal;font-stretch:normal;font-size:medium;line-height:normal;font-family:sans-serif;font-variant-ligatures:normal;font-variant-position:normal;font-variant-caps:normal;font-variant-numeric:normal;font-variant-alternates:normal;font-variant-east-asian:normal;font-feature-settings:normal;font-variation-settings:normal;text-indent:0;text-align:start;text-decoration:none;text-decoration-line:none;text-decoration-style:solid;text-decoration-color:#000000;letter-spacing:normal;word-spacing:normal;text-transform:none;writing-mode:lr-tb;direction:ltr;text-orientation:mixed;dominant-baseline:auto;baseline-shift:baseline;text-anchor:start;white-space:normal;shape-padding:0;shape-margin:0;inline-size:0;clip-rule:nonzero;display:inline;overflow:visible;visibility:visible;isolation:auto;mix-blend-mode:normal;color-interpolation:sRGB;color-interpolation-filters:linearRGB;solid-color:#000000;solid-opacity:1;vector-effect:none;fill:none;fill-opacity:1;fill-rule:nonzero;stroke:#000000;stroke-width:100012.50116621;stroke-linecap:round;stroke-linejoin:round;stroke-miterlimit:4;stroke-dasharray:none;stroke-dashoffset:0;stroke-opacity:1;color-rendering:auto;image-rendering:auto;shape-rendering:auto;text-rendering:auto;enable-background:accumulate;stop-color:#000000;stop-opacity:1;opacity:1"
     d="M 67050000 3250000 C 66932096 3250000 66814476 3261584.5 66698837 3284586.5 C 66583198 3307588.5 66470099 3341896.8 66361170 3387016.8 C 66252240 3432136.9 66148008 3487850.5 66049974 3553354.7 C 65951940 3618858.9 65860579 3693836.8 65777208 3777207.8 C 65693837 3860578.8 65618859 3951939.6 65553355 4049973.6 C 65487851 4148007.5 65432137 4252240.3 65387017 4361169.8 C 65341897 4470099.3 65307589 4583198.5 65284586 4698837.4 C 65261584 4814476.3 65250000 4932095.6 65250000 5050000 C 65250000 5167904.4 65261584 5285523.7 65284586 5401162.6 C 65307589 5516801.5 65341897 5629900.7 65387017 5738830.2 C 65432137 5847759.7 65487851 5951992.5 65553355 6050026.4 C 65618859 6148060.4 65693837 6239421.2 65777208 6322792.2 C 65860579 6406163.2 65951940 6481141.1 66049974 6546645.3 C 66148008 6612149.5 66252240 6667863.1 66361170 6712983.2 C 66470099 6758103.2 66583198 6792411.5 66698837 6815413.5 C 66814476 6838415.5 66932096 6850000 67050000 6850000 C 67167904 6850000 67285524 6838415.5 67401163 6815413.5 C 67516802 6792411.5 67629901 6758103.2 67738830 6712983.2 C 67847760 6667863.1 67951992 6612149.5 68050026 6546645.3 C 68148060 6481141.1 68239421 6406163.2 68322792 6322792.2 C 68406163 6239421.2 68481141 6148060.4 68546645 6050026.4 C 68612149 5951992.5 68667863 5847759.7 68712983 5738830.2 C 68758103 5629900.7 68792411 5516801.5 68815414 5401162.6 C 68838413 5285536.2 68849997 5167930 68850000 5050038.4 C 68850000 5050038 68850000 5050037.6 68850000 5050037.2 A 50000 50000 0 0 0 68850000 5050000 A 50000 50000 0 0 0 68850000 5049962.4 A 50000 50000 0 0 0 68850000 5049961 C 68849997 4932069.6 68838413 4814463.6 68815414 4698837.4 C 68792411 4583198.5 68758103 4470099.3 68712983 4361169.8 C 68667863 4252240.3 68612149 4148007.5 68546645 4049973.6 C 68481141 3951939.6 68406163 3860578.8 68322792 3777207.8 C 68239421 3693836.8 68148060 3618858.9 68050026 3553354.7 C 67951992 3487850.5 67847760 3432136.9 67738830 3387016.8 C 67629901 3341896.8 67516802 3307588.5 67401163 3284586.5 C 67285524 3261584.5 67167904 3250000 67050000 3250000 z M 67050000 3350000 C 67161354 3350000 67272439 3360940.9 67381654 3382665 C 67490868 3404389.2 67597684 3436791.4 67700562 3479404.8 C 67803440 3522018.2 67901882 3574636.6 67994469 3636501.7 C 68087057 3698366.7 68173342 3769179.2 68252082 3847918.5 C 68330821 3926657.8 68401633 4012943 68463498 4105530.6 C 68525363 4198118.2 68577982 4296560.3 68620595 4399438.2 C 68663209 4502316 68695611 4609131.9 68717335 4718346.5 C 68739059 4827561 68750000 4938645.8 68750000 5050000 C 68750000 5161354.2 68739059 5272439 68717335 5381653.5 C 68695611 5490868.1 68663209 5597684 68620595 5700561.8 C 68577982 5803439.7 68525363 5901881.8 68463498 5994469.4 C 68401633 6087057 68330821 6173342.2 68252082 6252081.5 C 68173342 6330820.8 68087057 6401633.3 67994469 6463498.3 C 67901882 6525363.4 67803440 6577981.8 67700562 6620595.2 C 67597684 6663208.6 67490868 6695610.8 67381654 6717335 C 67272439 6739059.1 67161354 6750000 67050000 6750000 C 66938646 6750000 66827561 6739059.1 66718346 6717335 C 66609132 6695610.8 66502316 6663208.6 66399438 6620595.2 C 66296560 6577981.8 66198118 6525363.4 66105531 6463498.3 C 66012943 6401633.3 65926658 6330820.8 65847918 6252081.5 C 65769179 6173342.2 65698367 6087057 65636502 5994469.4 C 65574637 5901881.8 65522018 5803439.7 65479405 5700561.8 C 65436791 5597684 65404389 5490868.1 65382665 5381653.5 C 65360941 5272439 65350000 5161354.2 65350000 5050000 C 65350000 4938645.8 65360941 4827561 65382665 4718346.5 C 65404389 4609131.9 65436791 4502316 65479405 4399438.2 C 65522018 4296560.3 65574637 4198118.2 65636502 4105530.6 C 65698367 4012943 65769179 3926657.8 65847918 3847918.5 C 65926658 3769179.2 66012943 3698366.7 66105531 3636501.7 C 66198118 3574636.6 66296560 3522018.2 66399438 3479404.8 C 66502316 3436791.4 66609132 3404389.2 66718346 3382665 C 66827561 3360940.9 66938646 3350000 67050000 3350000 z "
     id="path1456" />
  <path
     style="color:#000000;font-style:normal;font-variant:normal;font-weight:normal;font-stretch:normal;font-size:medium;line-height:normal;font-family:sans-serif;font-variant-ligatures:normal;font-variant-position:normal;font-variant-caps:normal;font-variant-numeric:normal;font-variant-alternates:normal;font-variant-east-asian:normal;font-feature-settings:normal;font-variation-settings:normal;text-indent:0;text-align:start;text-decoration:none;text-decoration-line:none;text-decoration-style:solid;text-decoration-color:#000000;letter-spacing:normal;word-spacing:normal;text-transform:none;writing-mode:lr-tb;direction:ltr;text-orientation:mixed;dominant-baseline:auto;baseline-shift:baseline;text-anchor:start;white-space:normal;shape-padding:0;shape-margin:0;inline-size:0;clip-rule:nonzero;display:inline;overflow:visible;visibility:visible;isolation:auto;mix-blend-mode:normal;color-interpolation:sRGB;color-interpolation-filters:linearRGB;solid-color:#000000;solid-opacity:1;vector-effect:none;fill:none;fill-opacity:1;fill-rule:nonzero;stroke:#000000;stroke-width:100012.50116621;stroke-linecap:round;stroke-linejoin:round;stroke-miterlimit:4;stroke-dasharray:none;stroke-dashoffset:0;stroke-opacity:1;color-rendering:auto;image-rendering:auto;shape-rendering:auto;text-rendering:auto;enable-background:accumulate;stop-color:#000000;stop-opacity:1;opacity:1"
     d="M 47650000 86200000 C 47528820 86200000 47407934 86211906 47289083 86235547 C 47170232 86259188 47053991 86294449 46942036 86340823 C 46830080 86387196 46722952 86444457 46622195 86511781 C 46521438 86579105 46427539 86656166 46341852 86741852 C 46256166 86827539 46179105 86921438 46111781 87022195 C 46044457 87122952 45987196 87230080 45940823 87342036 C 45894449 87453991 45859188 87570232 45835547 87689083 C 45811906 87807934 45800000 87928820 45800000 88050000 C 45800000 88171180 45811906 88292066 45835547 88410917 C 45859188 88529768 45894449 88646009 45940823 88757964 C 45987196 88869920 46044457 88977048 46111781 89077805 C 46179105 89178562 46256166 89272461 46341852 89358148 C 46427539 89443834 46521438 89520895 46622195 89588219 C 46722952 89655543 46830080 89712804 46942036 89759177 C 47053991 89805551 47170232 89840812 47289083 89864453 C 47407934 89888094 47528820 89900000 47650000 89900000 C 47771180 89900000 47892066 89888094 48010917 89864453 C 48129768 89840812 48246009 89805551 48357964 89759177 C 48469920 89712804 48577048 89655543 48677805 89588219 C 48778562 89520895 48872461 89443834 48958148 89358148 C 49043834 89272461 49120895 89178562 49188219 89077805 C 49255543 88977048 49312804 88869920 49359177 88757964 C 49405551 88646009 49440812 88529768 49464453 88410917 C 49488091 88292079 49499997 88171205 49500000 88050038 C 49500000 88050038 49500000 88050038 49500000 88050037 A 50000 50000 0 0 0 49500000 88050000 A 50000 50000 0 0 0 49500000 88049962 A 50000 50000 0 0 0 49500000 88049961 C 49499997 87928795 49488091 87807921 49464453 87689083 C 49440812 87570232 49405551 87453991 49359177 87342036 C 49312804 87230080 49255543 87122952 49188219 87022195 C 49120895 86921438 49043834 86827539 48958148 86741852 C 48872461 86656166 48778562 86579105 48677805 86511781 C 48577048 86444457 48469920 86387196 48357964 86340823 C 48246009 86294449 48129768 86259188 48010917 86235547 C 47892066 86211906 47771180 86200000 47650000 86200000 z M 47650000 86300000 C 47764629 86300000 47878981 86311263 47991408 86333626 C 48103835 86355989 48213792 86389344 48319696 86433211 C 48425600 86477078 48526937 86531244 48622248 86594928 C 48717559 86658613 48806382 86731508 48887437 86812563 C 48968492 86893618 49041387 86982441 49105072 87077752 C 49168756 87173063 49222922 87274400 49266789 87380304 C 49310656 87486208 49344011 87596165 49366374 87708592 C 49388737 87821019 49400000 87935371 49400000 88050000 C 49400000 88164629 49388737 88278981 49366374 88391408 C 49344011 88503835 49310656 88613792 49266789 88719696 C 49222922 88825600 49168756 88926937 49105072 89022248 C 49041387 89117559 48968492 89206382 48887437 89287437 C 48806382 89368492 48717559 89441387 48622248 89505072 C 48526937 89568756 48425600 89622922 48319696 89666789 C 48213792 89710656 48103835 89744011 47991408 89766374 C 47878981 89788737 47764629 89800000 47650000 89800000 C 47535371 89800000 47421019 89788737 47308592 89766374 C 47196165 89744011 47086208 89710656 46980304 89666789 C 46874400 89622922 46773063 89568756 46677752 89505072 C 46582441 89441387 46493618 89368492 46412563 89287437 C 46331508 89206382 46258613 89117559 46194928 89022248 C 46131244 88926937 46077078 88825600 46033211 88719696 C 45989344 88613792 45955989 88503835 45933626 88391408 C 45911263 88278981 45900000 88164629 45900000 88050000 C 45900000 87935371 45911263 87821019 45933626 87708592 C 45955989 87596165 45989344 87486208 46033211 87380304 C 46077078 87274400 46131244 87173063 46194928 87077752 C 46258613 86982441 46331508 86893618 46412563 86812563 C 46493618 86731508 46582441 86658613 46677752 86594928 C 46773063 86531244 46874400 86477078 46980304 86433211 C 47086208 86389344 47196165 86355989 47308592 86333626 C 47421019 86311263 47535371 86300000 47650000 86300000 z "
     id="path1475" />
  <path
     style="color:#000000;font-style:normal;font-variant:normal;font-weight:normal;font-stretch:normal;font-size:medium;line-height:normal;font-family:sans-serif;font-variant-ligatures:normal;font-variant-position:normal;font-variant-caps:normal;font-variant-numeric:normal;font-variant-alternates:normal;font-variant-east-asian:normal;font-feature-settings:normal;font-variation-settings:normal;text-indent:0;text-align:start;text-decoration:none;text-decoration-line:none;text-decoration-style:solid;text-decoration-color:#000000;letter-spacing:normal;word-spacing:normal;text-transform:none;writing-mode:lr-tb;direction:ltr;text-orientation:mixed;dominant-baseline:auto;baseline-shift:baseline;text-anchor:start;white-space:normal;shape-padding:0;shape-margin:0;inline-size:0;clip-rule:nonzero;display:inline;overflow:visible;visibility:visible;isolation:auto;mix-blend-mode:normal;color-interpolation:sRGB;color-interpolation-filters:linearRGB;solid-color:#000000;solid-opacity:1;vector-effect:none;fill:none;fill-opacity:1;fill-rule:nonzero;stroke:#000000;stroke-width:100012.50116621;stroke-linecap:round;stroke-linejoin:round;stroke-miterlimit:4;stroke-dasharray:none;stroke-dashoffset:0;stroke-opacity:1;color-rendering:auto;image-rendering:auto;shape-rendering:auto;text-rendering:auto;enable-background:accumulate;stop-color:#000000;stop-opacity:1;opacity:1"
     d="M 3050000 103400000 C 2941920.9 103400000 2834103.3 1.0341062e+08 2728101 1.034317e+08 C 2622098.6 1.0345279e+08 2518424.4 1.0348424e+08 2418572.3 1.035256e+08 C 2318720.3 1.0356696e+08 2223173.6 1.0361803e+08 2133309.1 1.0367808e+08 C 2043444.7 1.0373812e+08 1959697.2 1.0380685e+08 1883273.8 1.0388327e+08 C 1806850.4 1.039597e+08 1738120.6 1.0404344e+08 1678075.1 1.0413331e+08 C 1618029.6 1.0422317e+08 1566958.8 1.0431872e+08 1525598.8 1.0441857e+08 C 1484238.7 1.0451842e+08 1452789.5 1.046221e+08 1431704.3 1.047281e+08 C 1410619.1 1.048341e+08 1400000 1.0494192e+08 1400000 105050000 C 1400000 1.0515808e+08 1410619.1 1.052659e+08 1431704.3 1.053719e+08 C 1452789.5 1.054779e+08 1484238.7 1.0558158e+08 1525598.8 1.0568143e+08 C 1566958.8 1.0578128e+08 1618029.6 1.0587683e+08 1678075.1 1.0596669e+08 C 1738120.6 1.0605656e+08 1806850.4 1.061403e+08 1883273.8 1.0621673e+08 C 1959697.2 1.0629315e+08 2043444.7 1.0636188e+08 2133309.1 1.0642192e+08 C 2223173.6 1.0648197e+08 2318720.3 1.0653304e+08 2418572.3 1.065744e+08 C 2518424.4 1.0661576e+08 2622098.6 1.0664721e+08 2728101 1.066683e+08 C 2834103.3 1.0668938e+08 2941920.9 106700000 3050000 106700000 C 3158079.1 106700000 3265896.7 1.0668938e+08 3371899 1.066683e+08 C 3477901.4 1.0664721e+08 3581575.6 1.0661576e+08 3681427.7 1.065744e+08 C 3781279.7 1.0653304e+08 3876826.4 1.0648197e+08 3966690.9 1.0642192e+08 C 4056555.3 1.0636188e+08 4140302.8 1.0629315e+08 4216726.2 1.0621673e+08 C 4293149.6 1.061403e+08 4361879.4 1.0605656e+08 4421924.9 1.0596669e+08 C 4481970.4 1.0587683e+08 4533041.2 1.0578128e+08 4574401.2 1.0568143e+08 C 4615761.3 1.0558158e+08 4647210.5 1.054779e+08 4668295.7 1.053719e+08 C 4689378.4 1.0526591e+08 4699997.5 1.051581e+08 4700000 1.0505004e+08 C 4700000 1.0505004e+08 4700000 1.0505004e+08 4700000 1.0505004e+08 A 50000 50000 0 0 0 4700000 105050000 A 50000 50000 0 0 0 4700000 1.0504996e+08 A 50000 50000 0 0 0 4700000 105049961 C 4699997.4 1.049419e+08 4689378.4 1.0483409e+08 4668295.7 1.047281e+08 C 4647210.5 1.046221e+08 4615761.3 1.0451842e+08 4574401.2 1.0441857e+08 C 4533041.2 1.0431872e+08 4481970.4 1.0422317e+08 4421924.9 1.0413331e+08 C 4361879.4 1.0404344e+08 4293149.6 1.039597e+08 4216726.2 1.0388327e+08 C 4140302.8 1.0380685e+08 4056555.3 1.0373812e+08 3966690.9 1.0367808e+08 C 3876826.4 1.0361803e+08 3781279.7 1.0356696e+08 3681427.7 1.035256e+08 C 3581575.6 1.0348424e+08 3477901.4 1.0345279e+08 3371899 1.034317e+08 C 3265896.7 1.0341062e+08 3158079.1 103400000 3050000 103400000 z M 3050000 103500000 C 3151528.8 103500000 3252812 1.0350998e+08 3352390 1.0352978e+08 C 3451968 1.0354959e+08 3549358.9 1.0357913e+08 3643159.3 1.0361799e+08 C 3736959.7 1.0365684e+08 3826715.7 1.0370482e+08 3911133.9 1.0376122e+08 C 3995552 1.0381763e+08 4074223.8 1.0388219e+08 4146015.5 1.0395398e+08 C 4217807.2 1.0402578e+08 4282371.5 1.0410445e+08 4338777.9 1.0418887e+08 C 4395184.3 1.0427328e+08 4443159.9 1.0436304e+08 4482013.3 1.0445684e+08 C 4520866.7 1.0455064e+08 4550409.9 1.0464803e+08 4570217.2 104747610 C 4590024.5 1.0484719e+08 4600000 1.0494847e+08 4600000 105050000 C 4600000 1.0515153e+08 4590024.5 1.0525281e+08 4570217.2 105352390 C 4550409.9 1.0545197e+08 4520866.7 1.0554936e+08 4482013.3 1.0564316e+08 C 4443159.9 1.0573696e+08 4395184.3 1.0582672e+08 4338777.9 1.0591113e+08 C 4282371.5 1.0599555e+08 4217807.2 1.0607422e+08 4146015.5 1.0614602e+08 C 4074223.8 1.0621781e+08 3995552 1.0628237e+08 3911133.9 1.0633878e+08 C 3826715.7 1.0639518e+08 3736959.7 1.0644316e+08 3643159.3 1.0648201e+08 C 3549358.9 1.0652087e+08 3451968 1.0655041e+08 3352390 1.0657022e+08 C 3252812 1.0659002e+08 3151528.8 106600000 3050000 106600000 C 2948471.2 106600000 2847188 1.0659002e+08 2747610 1.0657022e+08 C 2648032 1.0655041e+08 2550641.1 1.0652087e+08 2456840.7 1.0648201e+08 C 2363040.3 1.0644316e+08 2273284.3 1.0639518e+08 2188866.1 1.0633878e+08 C 2104448 1.0628237e+08 2025776.2 1.0621781e+08 1953984.5 1.0614602e+08 C 1882192.8 1.0607422e+08 1817628.5 1.0599555e+08 1761222.1 1.0591113e+08 C 1704815.7 1.0582672e+08 1656840.1 1.0573696e+08 1617986.7 1.0564316e+08 C 1579133.3 1.0554936e+08 1549590.1 1.0545197e+08 1529782.8 105352390 C 1509975.5 1.0525281e+08 1500000 1.0515153e+08 1500000 105050000 C 1500000 1.0494847e+08 1509975.5 1.0484719e+08 1529782.8 104747610 C 1549590.1 1.0464803e+08 1579133.3 1.0455064e+08 1617986.7 1.0445684e+08 C 1656840.1 1.0436304e+08 1704815.7 1.0427328e+08 1761222.1 1.0418887e+08 C 1817628.5 1.0410445e+08 1882192.8 1.0402578e+08 1953984.5 1.0395398e+08 C 2025776.2 1.0388219e+08 2104448 1.0381763e+08 2188866.1 1.0376122e+08 C 2273284.3 1.0370482e+08 2363040.3 1.0365684e+08 2456840.7 1.0361799e+08 C 2550641.1 1.0357913e+08 2648032 1.0354959e+08 2747610 1.0352978e+08 C 2847188 1.0350998e+08 2948471.2 103500000 3050000 103500000 z "
     id="path1480" />
  <path
     style="color:#000000;font-style:normal;font-variant:normal;font-weight:normal;font-stretch:normal;font-size:medium;line-height:normal;font-family:sans-serif;font-variant-ligatures:normal;font-variant-position:normal;font-variant-caps:normal;font-variant-numeric:normal;font-variant-alternates:normal;font-variant-east-asian:normal;font-feature-settings:normal;font-variation-settings:normal;text-indent:0;text-align:start;text-decoration:none;text-decoration-line:none;text-decoration-style:solid;text-decoration-color:#000000;letter-spacing:normal;word-spacing:normal;text-transform:none;writing-mode:lr-tb;direction:ltr;text-orientation:mixed;dominant-baseline:auto;baseline-shift:baseline;text-anchor:start;white-space:normal;shape-padding:0;shape-margin:0;inline-size:0;clip-rule:nonzero;display:inline;overflow:visible;visibility:visible;isolation:auto;mix-blend-mode:normal;color-interpolation:sRGB;color-interpolation-filters:linearRGB;solid-color:#000000;solid-opacity:1;vector-effect:none;fill:none;fill-opacity:1;fill-rule:nonzero;stroke:#000000;stroke-width:100012.50116621;stroke-linecap:round;stroke-linejoin:round;stroke-miterlimit:4;stroke-dasharray:none;stroke-dashoffset:0;stroke-opacity:1;color-rendering:auto;image-rendering:auto;shape-rendering:auto;text-rendering:auto;enable-background:accumulate;stop-color:#000000;stop-opacity:1;opacity:1"
     d="M 42050000 3250000 C 41932096 3250000 41814476 3261584.5 41698837 3284586.5 C 41583198 3307588.5 41470099 3341896.8 41361170 3387016.8 C 41252240 3432136.9 41148008 3487850.5 41049974 3553354.7 C 40951940 3618858.9 40860579 3693836.8 40777208 3777207.8 C 40693837 3860578.8 40618859 3951939.6 40553355 4049973.6 C 40487851 4148007.5 40432137 4252240.3 40387017 4361169.8 C 40341897 4470099.3 40307589 4583198.5 40284586 4698837.4 C 40261584 4814476.3 40250000 4932095.6 40250000 5050000 C 40250000 5167904.4 40261584 5285523.7 40284586 5401162.6 C 40307589 5516801.5 40341897 5629900.7 40387017 5738830.2 C 40432137 5847759.7 40487851 5951992.5 40553355 6050026.4 C 40618859 6148060.4 40693837 6239421.2 40777208 6322792.2 C 40860579 6406163.2 40951940 6481141.1 41049974 6546645.3 C 41148008 6612149.5 41252240 6667863.1 41361170 6712983.2 C 41470099 6758103.2 41583198 6792411.5 41698837 6815413.5 C 41814476 6838415.5 41932096 6850000 42050000 6850000 C 42167904 6850000 42285524 6838415.5 42401163 6815413.5 C 42516802 6792411.5 42629901 6758103.2 42738830 6712983.2 C 42847760 6667863.1 42951992 6612149.5 43050026 6546645.3 C 43148060 6481141.1 43239421 6406163.2 43322792 6322792.2 C 43406163 6239421.2 43481141 6148060.4 43546645 6050026.4 C 43612149 5951992.5 43667863 5847759.7 43712983 5738830.2 C 43758103 5629900.7 43792411 5516801.5 43815414 5401162.6 C 43838413 5285536.2 43849997 5167930 43850000 5050038.4 C 43850000 5050038 43850000 5050037.6 43850000 5050037.2 A 50000 50000 0 0 0 43850000 5050000 A 50000 50000 0 0 0 43850000 5049962.4 A 50000 50000 0 0 0 43850000 5049961 C 43849997 4932069.6 43838413 4814463.6 43815414 4698837.4 C 43792411 4583198.5 43758103 4470099.3 43712983 4361169.8 C 43667863 4252240.3 43612149 4148007.5 43546645 4049973.6 C 43481141 3951939.6 43406163 3860578.8 43322792 3777207.8 C 43239421 3693836.8 43148060 3618858.9 43050026 3553354.7 C 42951992 3487850.5 42847760 3432136.9 42738830 3387016.8 C 42629901 3341896.8 42516802 3307588.5 42401163 3284586.5 C 42285524 3261584.5 42167904 3250000 42050000 3250000 z M 42050000 3350000 C 42161354 3350000 42272439 3360940.9 42381654 3382665 C 42490868 3404389.2 42597684 3436791.4 42700562 3479404.8 C 42803440 3522018.2 42901882 3574636.6 42994469 3636501.7 C 43087057 3698366.7 43173342 3769179.2 43252082 3847918.5 C 43330821 3926657.8 43401633 4012943 43463498 4105530.6 C 43525363 4198118.2 43577982 4296560.3 43620595 4399438.2 C 43663209 4502316 43695611 4609131.9 43717335 4718346.5 C 43739059 4827561 43750000 4938645.8 43750000 5050000 C 43750000 5161354.2 43739059 5272439 43717335 5381653.5 C 43695611 5490868.1 43663209 5597684 43620595 5700561.8 C 43577982 5803439.7 43525363 5901881.8 43463498 5994469.4 C 43401633 6087057 43330821 6173342.2 43252082 6252081.5 C 43173342 6330820.8 43087057 6401633.3 42994469 6463498.3 C 42901882 6525363.4 42803440 6577981.8 42700562 6620595.2 C 42597684 6663208.6 42490868 6695610.8 42381654 6717335 C 42272439 6739059.1 42161354 6750000 42050000 6750000 C 41938646 6750000 41827561 6739059.1 41718346 6717335 C 41609132 6695610.8 41502316 6663208.6 41399438 6620595.2 C 41296560 6577981.8 41198118 6525363.4 41105531 6463498.3 C 41012943 6401633.3 40926658 6330820.8 40847918 6252081.5 C 40769179 6173342.2 40698367 6087057 40636502 5994469.4 C 40574637 5901881.8 40522018 5803439.7 40479405 5700561.8 C 40436791 5597684 40404389 5490868.1 40382665 5381653.5 C 40360941 5272439 40350000 5161354.2 40350000 5050000 C 40350000 4938645.8 40360941 4827561 40382665 4718346.5 C 40404389 4609131.9 40436791 4502316 40479405 4399438.2 C 40522018 4296560.3 40574637 4198118.2 40636502 4105530.6 C 40698367 4012943 40769179 3926657.8 40847918 3847918.5 C 40926658 3769179.2 41012943 3698366.7 41105531 3636501.7 C 41198118 3574636.6 41296560 3522018.2 41399438 3479404.8 C 41502316 3436791.4 41609132 3404389.2 41718346 3382665 C 41827561 3360940.9 41938646 3350000 42050000 3350000 z "
     id="path1460" />
  <path
     d="m 36000000,78600000 a 5000000,5000000 0 0 0 5000000,5000000 m 0,-31100000 h 13300000 m 0,31100000 a 5000000,5000000 0 0 0 5000000,-5000000 m 0,-21100000 v 21100000 m -23300000,0 V 57500000 m 5000000,-5000000 a 5000000,5000000 0 0 0 -5000000,5000000 m 23300000,0 a 5000000,5000000 0 0 0 -5000000,-5000000 m 0,31100000 H 41000000"
     style="fill:none;fill-opacity:1;stroke:#000000;stroke-width:100000;stroke-linecap:round;stroke-linejoin:round;stroke-opacity:1"
     id="path200" />
  <path
     d="m 44550000,25050000 a 1000000,1000000 0 0 0 0,2000000 m 0,0 h 20000000 m 0,0 a 1000000,1000000 0 0 0 0,-2000000 m -20000000,0 h 20000000"
     style="fill:none;fill-opacity:1;stroke:#000000;stroke-width:100000;stroke-linecap:round;stroke-linejoin:round;stroke-opacity:1"
     id="path210" />
  <path
     d="m 44550000,99050000 h 20000000 m -20000000,0 a 1000000,1000000 0 0 0 0,2000000 m 20000000,0 a 1000000,1000000 0 0 0 0,-2000000 m -20000000,2000000 h 20000000"
     style="fill:none;fill-opacity:1;stroke:#000000;stroke-width:100000;stroke-linecap:round;stroke-linejoin:round;stroke-opacity:1"
     id="path212" />
  <path
     d="m 44550000,30050000 h 20000000 m -20000000,2000000 h 20000000 m 0,0 a 1000000,1000000 0 0 0 0,-2000000 m -20000000,0 a 1000000,1000000 0 0 0 0,2000000"
     style="fill:none;fill-opacity:1;stroke:#000000;stroke-width:100000;stroke-linecap:round;stroke-linejoin:round;stroke-opacity:1"
     id="path220" />
  <path
     d="m 44550000,40050000 h 20000000 m -20000000,0 a 1000000,1000000 0 0 0 0,2000000 m 0,0 h 20000000 m 0,0 a 1000000,1000000 0 0 0 0,-2000000"
     style="fill:none;fill-opacity:1;stroke:#000000;stroke-width:100000;stroke-linecap:round;stroke-linejoin:round;stroke-opacity:1"
     id="path228" />
  <path
     d="m 32550000,21050000 a 500000,500000 0 0 0 0,-1000000 m -2000000,1000000 a 500000,500000 0 0 0 -500000,500000 M 31050000,50000 h 22000000 m 3000000,0 A 1000000,1000000 0 0 0 55050000,1050000 M 30050000,8550000 a 500000,500000 0 0 0 500000,500000 m 2000000,1000000 a 500000,500000 0 0 0 0,-1000000 m 0,91000000 H 30050000 M 31050000,50000 a 1000000,1000000 0 0 0 -1000000,1000000 m 49000000,0 V 119050000 M 50000,100050000 v 10000000 M 30050000,100050000 H 50000 M 54050000,1050000 A 1000000,1000000 0 0 0 53050000,50000 M 30550000,21050000 h 2000000 m -2000000,90000000 h 2000000 M 79050000,1050000 A 1000000,1000000 0 0 0 78050000,50000 M 30050000,1050000 v 7500000 m 25000000,110500000 a 500000,500000 0 0 0 -1000000,0 m -21500000,-8000000 a 500000,500000 0 0 0 0,-1000000 m 0,-10000000 a 500000,500000 0 0 0 0,-1000000 m -2500000,-500000 a 500000,500000 0 0 0 500000,500000 m 47500000,21000000 H 56050000 m -3000000,0 a 1000000,1000000 0 0 0 1000000,-1000000 M 56050000,50000 H 78050000 M 30050000,111550000 v 7500000 m 500000,-20000000 h 2000000 M 19050000,10050000 v 10000000 m 13500000,90000000 h -2500000 m 500000,1000000 a 500000,500000 0 0 0 -500000,500000 m 23000000,8500000 H 31050000 M 54050000,1050000 a 500000,500000 0 0 0 1000000,0 m -22500000,9000000 h -2500000 m 0,11500000 v 77000000 m 48000000,21500000 a 1000000,1000000 0 0 0 1000000,-1000000 M 19050000,20050000 h 11000000 m 0,-10000000 H 19050000 M 30550000,9050000 h 2000000 m 22500000,110000000 a 1000000,1000000 0 0 0 1000000,1000000 m -26000000,-1000000 a 1000000,1000000 0 0 0 1000000,1000000 M 50000,110050000 h 30000000 m 2500000,-90000000 h -2500000"
     style="fill:none;fill-opacity:1;stroke:#000000;stroke-width:100000;stroke-linecap:round;stroke-linejoin:round;stroke-opacity:1"
     id="path230" />
  <path
     style="color:#000000;font-style:normal;font-variant:normal;font-weight:normal;font-stretch:normal;font-size:medium;line-height:normal;font-family:sans-serif;font-variant-ligatures:normal;font-variant-position:normal;font-variant-caps:normal;font-variant-numeric:normal;font-variant-alternates:normal;font-variant-east-asian:normal;font-feature-settings:normal;font-variation-settings:normal;text-indent:0;text-align:start;text-decoration:none;text-decoration-line:none;text-decoration-style:solid;text-decoration-color:#000000;letter-spacing:normal;word-spacing:normal;text-transform:none;writing-mode:lr-tb;direction:ltr;text-orientation:mixed;dominant-baseline:auto;baseline-shift:baseline;text-anchor:start;white-space:normal;shape-padding:0;shape-margin:0;inline-size:0;clip-rule:nonzero;display:inline;overflow:visible;visibility:visible;isolation:auto;mix-blend-mode:normal;color-interpolation:sRGB;color-interpolation-filters:linearRGB;solid-color:#000000;solid-opacity:1;vector-effect:none;fill:none;fill-opacity:1;fill-rule:nonzero;stroke:#000000;stroke-width:100012.50116621;stroke-linecap:round;stroke-linejoin:round;stroke-miterlimit:4;stroke-dasharray:none;stroke-dashoffset:0;stroke-opacity:1;color-rendering:auto;image-rendering:auto;shape-rendering:auto;text-rendering:auto;enable-background:accumulate;stop-color:#000000;stop-opacity:1;opacity:1"
     d="M 42050000 113250000 C 41932096 113250000 41814476 1.1326158e+08 41698837 1.1328459e+08 C 41583198 1.1330759e+08 41470099 1.133419e+08 41361170 1.1338702e+08 C 41252240 1.1343214e+08 41148008 1.1348785e+08 41049974 1.1355335e+08 C 40951940 1.1361886e+08 40860579 1.1369384e+08 40777208 1.1377721e+08 C 40693837 1.1386058e+08 40618859 1.1395194e+08 40553355 1.1404997e+08 C 40487851 1.1414801e+08 40432137 1.1425224e+08 40387017 1.1436117e+08 C 40341897 1.144701e+08 40307589 1.145832e+08 40284586 1.1469884e+08 C 40261584 1.1481448e+08 40250000 1.149321e+08 40250000 115050000 C 40250000 1.151679e+08 40261584 1.1528552e+08 40284586 1.1540116e+08 C 40307589 1.155168e+08 40341897 1.156299e+08 40387017 1.1573883e+08 C 40432137 1.1584776e+08 40487851 1.1595199e+08 40553355 1.1605003e+08 C 40618859 1.1614806e+08 40693837 1.1623942e+08 40777208 1.1632279e+08 C 40860579 1.1640616e+08 40951940 1.1648114e+08 41049974 1.1654665e+08 C 41148008 1.1661215e+08 41252240 1.1666786e+08 41361170 1.1671298e+08 C 41470099 1.167581e+08 41583198 1.1679241e+08 41698837 1.1681541e+08 C 41814476 1.1683842e+08 41932096 1.1685e+08 42050000 116850000 C 42167904 116850000 42285524 1.1683842e+08 42401163 1.1681541e+08 C 42516802 1.1679241e+08 42629901 1.167581e+08 42738830 1.1671298e+08 C 42847760 1.1666786e+08 42951992 1.1661215e+08 43050026 1.1654665e+08 C 43148060 1.1648114e+08 43239421 1.1640616e+08 43322792 1.1632279e+08 C 43406163 1.1623942e+08 43481141 1.1614806e+08 43546645 1.1605003e+08 C 43612149 1.1595199e+08 43667863 1.1584776e+08 43712983 1.1573883e+08 C 43758103 1.156299e+08 43792411 1.155168e+08 43815414 1.1540116e+08 C 43838413 1.1528554e+08 43849997 1.1516793e+08 43850000 1.1505004e+08 C 43850000 1.1505004e+08 43850000 1.1505004e+08 43850000 1.1505004e+08 A 50000 50000 0 0 0 43850000 115050000 A 50000 50000 0 0 0 43850000 1.1504996e+08 A 50000 50000 0 0 0 43850000 1.1504996e+08 C 43849997 1.1493207e+08 43838413 1.1481446e+08 43815414 1.1469884e+08 C 43792411 1.145832e+08 43758103 1.144701e+08 43712983 1.1436117e+08 C 43667863 1.1425224e+08 43612149 1.1414801e+08 43546645 1.1404997e+08 C 43481141 1.1395194e+08 43406163 1.1386058e+08 43322792 1.1377721e+08 C 43239421 1.1369384e+08 43148060 1.1361886e+08 43050026 1.1355335e+08 C 42951992 1.1348785e+08 42847760 1.1343214e+08 42738830 1.1338702e+08 C 42629901 1.133419e+08 42516802 1.1330759e+08 42401163 1.1328459e+08 C 42285524 1.1326158e+08 42167904 1.1325e+08 42050000 113250000 z M 42050000 113350000 C 42161354 113350000 42272439 1.1336094e+08 42381654 1.1338267e+08 C 42490868 1.1340439e+08 42597684 1.1343679e+08 42700562 1.134794e+08 C 42803440 1.1352202e+08 42901882 1.1357464e+08 42994469 1.136365e+08 C 43087057 1.1369837e+08 43173342 1.1376918e+08 43252082 1.1384792e+08 C 43330821 1.1392666e+08 43401633 1.1401294e+08 43463498 1.1410553e+08 C 43525363 1.1419812e+08 43577982 1.1429656e+08 43620595 1.1439944e+08 C 43663209 1.1450232e+08 43695611 1.1460913e+08 43717335 1.1471835e+08 C 43739059 1.1482756e+08 43750000 1.1493865e+08 43750000 115050000 C 43750000 1.1516135e+08 43739059 1.1527244e+08 43717335 1.1538165e+08 C 43695611 1.1549087e+08 43663209 1.1559768e+08 43620595 1.1570056e+08 C 43577982 1.1580344e+08 43525363 1.1590188e+08 43463498 1.1599447e+08 C 43401633 1.1608706e+08 43330821 1.1617334e+08 43252082 1.1625208e+08 C 43173342 1.1633082e+08 43087057 1.1640163e+08 42994469 1.164635e+08 C 42901882 1.1652536e+08 42803440 1.1657798e+08 42700562 1.166206e+08 C 42597684 1.1666321e+08 42490868 1.1669561e+08 42381654 1.1671733e+08 C 42272439 1.1673906e+08 42161354 1.1675e+08 42050000 116750000 C 41938646 116750000 41827561 1.1673906e+08 41718346 1.1671733e+08 C 41609132 1.1669561e+08 41502316 1.1666321e+08 41399438 1.166206e+08 C 41296560 1.1657798e+08 41198118 1.1652536e+08 41105531 1.164635e+08 C 41012943 1.1640163e+08 40926658 1.1633082e+08 40847918 1.1625208e+08 C 40769179 1.1617334e+08 40698367 1.1608706e+08 40636502 1.1599447e+08 C 40574637 1.1590188e+08 40522018 1.1580344e+08 40479405 1.1570056e+08 C 40436791 1.1559768e+08 40404389 1.1549087e+08 40382665 1.1538165e+08 C 40360941 1.1527244e+08 40350000 1.1516135e+08 40350000 115050000 C 40350000 1.1493865e+08 40360941 1.1482756e+08 40382665 1.1471835e+08 C 40404389 1.1460913e+08 40436791 1.1450232e+08 40479405 1.1439944e+08 C 40522018 1.1429656e+08 40574637 1.1419812e+08 40636502 1.1410553e+08 C 40698367 1.1401294e+08 40769179 1.1392666e+08 40847918 1.1384792e+08 C 40926658 1.1376918e+08 41012943 1.1369837e+08 41105531 1.136365e+08 C 41198118 1.1357464e+08 41296560 1.1352202e+08 41399438 1.134794e+08 C 41502316 1.1343679e+08 41609132 1.1340439e+08 41718346 1.1338267e+08 C 41827561 1.1336094e+08 41938646 1.1335e+08 42050000 113350000 z "
     id="path1490" />
  <path
     d="m 64550000,37050000 a 1000000,1000000 0 0 0 0,-2000000 m -20000000,0 a 1000000,1000000 0 0 0 0,2000000 m 0,-2000000 h 20000000 m -20000000,2000000 h 20000000"
     style="fill:none;fill-opacity:1;stroke:#000000;stroke-width:100000;stroke-linecap:round;stroke-linejoin:round;stroke-opacity:1"
     id="path238" />
  <path
     style="color:#000000;font-style:normal;font-variant:normal;font-weight:normal;font-stretch:normal;font-size:medium;line-height:normal;font-family:sans-serif;font-variant-ligatures:normal;font-variant-position:normal;font-variant-caps:normal;font-variant-numeric:normal;font-variant-alternates:normal;font-variant-east-asian:normal;font-feature-settings:normal;font-variation-settings:normal;text-indent:0;text-align:start;text-decoration:none;text-decoration-line:none;text-decoration-style:solid;text-decoration-color:#000000;letter-spacing:normal;word-spacing:normal;text-transform:none;writing-mode:lr-tb;direction:ltr;text-orientation:mixed;dominant-baseline:auto;baseline-shift:baseline;text-anchor:start;white-space:normal;shape-padding:0;shape-margin:0;inline-size:0;clip-rule:nonzero;display:inline;overflow:visible;visibility:visible;isolation:auto;mix-blend-mode:normal;color-interpolation:sRGB;color-interpolation-filters:linearRGB;solid-color:#000000;solid-opacity:1;vector-effect:none;fill:none;fill-opacity:1;fill-rule:nonzero;stroke:#000000;stroke-width:100012.50116621;stroke-linecap:round;stroke-linejoin:round;stroke-miterlimit:4;stroke-dasharray:none;stroke-dashoffset:0;stroke-opacity:1;color-rendering:auto;image-rendering:auto;shape-rendering:auto;text-rendering:auto;enable-background:accumulate;stop-color:#000000;stop-opacity:1;opacity:1"
     d="M 23050000 13400000 C 22941921 13400000 22834103 13410619 22728101 13431704 C 22622099 13452789 22518424 13484239 22418572 13525599 C 22318720 13566959 22223174 13618030 22133309 13678075 C 22043445 13738121 21959697 13806850 21883274 13883274 C 21806850 13959697 21738121 14043445 21678075 14133309 C 21618030 14223174 21566959 14318720 21525599 14418572 C 21484239 14518424 21452789 14622099 21431704 14728101 C 21410619 14834103 21400000 14941921 21400000 15050000 C 21400000 15158079 21410619 15265897 21431704 15371899 C 21452789 15477901 21484239 15581576 21525599 15681428 C 21566959 15781280 21618030 15876826 21678075 15966691 C 21738121 16056555 21806850 16140303 21883274 16216726 C 21959697 16293150 22043445 16361879 22133309 16421925 C 22223174 16481970 22318720 16533041 22418572 16574401 C 22518424 16615761 22622099 16647211 22728101 16668296 C 22834103 16689381 22941921 16700000 23050000 16700000 C 23158079 16700000 23265897 16689381 23371899 16668296 C 23477901 16647211 23581576 16615761 23681428 16574401 C 23781280 16533041 23876826 16481970 23966691 16421925 C 24056555 16361879 24140303 16293150 24216726 16216726 C 24293150 16140303 24361879 16056555 24421925 15966691 C 24481970 15876826 24533041 15781280 24574401 15681428 C 24615761 15581576 24647211 15477901 24668296 15371899 C 24689378 15265909 24699997 15158105 24700000 15050038 C 24700000 15050038 24700000 15050038 24700000 15050037 A 50000 50000 0 0 0 24700000 15050000 A 50000 50000 0 0 0 24700000 15049962 A 50000 50000 0 0 0 24700000 15049961 C 24699997 14941895 24689378 14834091 24668296 14728101 C 24647211 14622099 24615761 14518424 24574401 14418572 C 24533041 14318720 24481970 14223174 24421925 14133309 C 24361879 14043445 24293150 13959697 24216726 13883274 C 24140303 13806850 24056555 13738121 23966691 13678075 C 23876826 13618030 23781280 13566959 23681428 13525599 C 23581576 13484239 23477901 13452789 23371899 13431704 C 23265897 13410619 23158079 13400000 23050000 13400000 z M 23050000 13500000 C 23151529 13500000 23252812 13509976 23352390 13529783 C 23451968 13549590 23549359 13579133 23643159 13617987 C 23736960 13656840 23826716 13704816 23911134 13761222 C 23995552 13817629 24074224 13882193 24146016 13953984 C 24217807 14025776 24282371 14104448 24338778 14188866 C 24395184 14273284 24443160 14363040 24482013 14456841 C 24520867 14550641 24550410 14648032 24570217 14747610 C 24590024 14847188 24600000 14948471 24600000 15050000 C 24600000 15151529 24590024 15252812 24570217 15352390 C 24550410 15451968 24520867 15549359 24482013 15643159 C 24443160 15736960 24395184 15826716 24338778 15911134 C 24282371 15995552 24217807 16074224 24146016 16146016 C 24074224 16217807 23995552 16282371 23911134 16338778 C 23826716 16395184 23736960 16443160 23643159 16482013 C 23549359 16520867 23451968 16550410 23352390 16570217 C 23252812 16590024 23151529 16600000 23050000 16600000 C 22948471 16600000 22847188 16590024 22747610 16570217 C 22648032 16550410 22550641 16520867 22456841 16482013 C 22363040 16443160 22273284 16395184 22188866 16338778 C 22104448 16282371 22025776 16217807 21953984 16146016 C 21882193 16074224 21817629 15995552 21761222 15911134 C 21704816 15826716 21656840 15736960 21617987 15643159 C 21579133 15549359 21549590 15451968 21529783 15352390 C 21509976 15252812 21500000 15151529 21500000 15050000 C 21500000 14948471 21509976 14847188 21529783 14747610 C 21549590 14648032 21579133 14550641 21617987 14456841 C 21656840 14363040 21704816 14273284 21761222 14188866 C 21817629 14104448 21882193 14025776 21953984 13953984 C 22025776 13882193 22104448 13817629 22188866 13761222 C 22273284 13704816 22363040 13656840 22456841 13617987 C 22550641 13579133 22648032 13549590 22747610 13529783 C 22847188 13509976 22948471 13500000 23050000 13500000 z "
     id="path1465" />
  <path
     style="color:#000000;font-style:normal;font-variant:normal;font-weight:normal;font-stretch:normal;font-size:medium;line-height:normal;font-family:sans-serif;font-variant-ligatures:normal;font-variant-position:normal;font-variant-caps:normal;font-variant-numeric:normal;font-variant-alternates:normal;font-variant-east-asian:normal;font-feature-settings:normal;font-variation-settings:normal;text-indent:0;text-align:start;text-decoration:none;text-decoration-line:none;text-decoration-style:solid;text-decoration-color:#000000;letter-spacing:normal;word-spacing:normal;text-transform:none;writing-mode:lr-tb;direction:ltr;text-orientation:mixed;dominant-baseline:auto;baseline-shift:baseline;text-anchor:start;white-space:normal;shape-padding:0;shape-margin:0;inline-size:0;clip-rule:nonzero;display:inline;overflow:visible;visibility:visible;isolation:auto;mix-blend-mode:normal;color-interpolation:sRGB;color-interpolation-filters:linearRGB;solid-color:#000000;solid-opacity:1;vector-effect:none;fill:none;fill-opacity:1;fill-rule:nonzero;stroke:#000000;stroke-width:100012.50116621;stroke-linecap:round;stroke-linejoin:round;stroke-miterlimit:4;stroke-dasharray:none;stroke-dashoffset:0;stroke-opacity:1;color-rendering:auto;image-rendering:auto;shape-rendering:auto;text-rendering:auto;enable-background:accumulate;stop-color:#000000;stop-opacity:1;opacity:1"
     d="M 23050000 103400000 C 22941921 103400000 22834103 1.0341062e+08 22728101 1.034317e+08 C 22622099 1.0345279e+08 22518424 1.0348424e+08 22418572 1.035256e+08 C 22318720 1.0356696e+08 22223174 1.0361803e+08 22133309 1.0367808e+08 C 22043445 1.0373812e+08 21959697 1.0380685e+08 21883274 1.0388327e+08 C 21806850 1.039597e+08 21738121 1.0404344e+08 21678075 1.0413331e+08 C 21618030 1.0422317e+08 21566959 1.0431872e+08 21525599 1.0441857e+08 C 21484239 1.0451842e+08 21452789 1.046221e+08 21431704 1.047281e+08 C 21410619 1.048341e+08 21400000 1.0494192e+08 21400000 105050000 C 21400000 1.0515808e+08 21410619 1.052659e+08 21431704 1.053719e+08 C 21452789 1.054779e+08 21484239 1.0558158e+08 21525599 1.0568143e+08 C 21566959 1.0578128e+08 21618030 1.0587683e+08 21678075 1.0596669e+08 C 21738121 1.0605656e+08 21806850 1.061403e+08 21883274 1.0621673e+08 C 21959697 1.0629315e+08 22043445 1.0636188e+08 22133309 1.0642192e+08 C 22223174 1.0648197e+08 22318720 1.0653304e+08 22418572 1.065744e+08 C 22518424 1.0661576e+08 22622099 1.0664721e+08 22728101 1.066683e+08 C 22834103 1.0668938e+08 22941921 106700000 23050000 106700000 C 23158079 106700000 23265897 1.0668938e+08 23371899 1.066683e+08 C 23477901 1.0664721e+08 23581576 1.0661576e+08 23681428 1.065744e+08 C 23781280 1.0653304e+08 23876826 1.0648197e+08 23966691 1.0642192e+08 C 24056555 1.0636188e+08 24140303 1.0629315e+08 24216726 1.0621673e+08 C 24293150 1.061403e+08 24361879 1.0605656e+08 24421925 1.0596669e+08 C 24481970 1.0587683e+08 24533041 1.0578128e+08 24574401 1.0568143e+08 C 24615761 1.0558158e+08 24647211 1.054779e+08 24668296 1.053719e+08 C 24689378 1.0526591e+08 24699997 1.051581e+08 24700000 1.0505004e+08 C 24700000 1.0505004e+08 24700000 1.0505004e+08 24700000 1.0505004e+08 A 50000 50000 0 0 0 24700000 105050000 A 50000 50000 0 0 0 24700000 1.0504996e+08 A 50000 50000 0 0 0 24700000 105049961 C 24699997 1.049419e+08 24689378 1.0483409e+08 24668296 1.047281e+08 C 24647211 1.046221e+08 24615761 1.0451842e+08 24574401 1.0441857e+08 C 24533041 1.0431872e+08 24481970 1.0422317e+08 24421925 1.0413331e+08 C 24361879 1.0404344e+08 24293150 1.039597e+08 24216726 1.0388327e+08 C 24140303 1.0380685e+08 24056555 1.0373812e+08 23966691 1.0367808e+08 C 23876826 1.0361803e+08 23781280 1.0356696e+08 23681428 1.035256e+08 C 23581576 1.0348424e+08 23477901 1.0345279e+08 23371899 1.034317e+08 C 23265897 1.0341062e+08 23158079 103400000 23050000 103400000 z M 23050000 103500000 C 23151529 103500000 23252812 1.0350998e+08 23352390 1.0352978e+08 C 23451968 1.0354959e+08 23549359 1.0357913e+08 23643159 1.0361799e+08 C 23736960 1.0365684e+08 23826716 1.0370482e+08 23911134 1.0376122e+08 C 23995552 1.0381763e+08 24074224 1.0388219e+08 24146016 1.0395398e+08 C 24217807 1.0402578e+08 24282371 1.0410445e+08 24338778 1.0418887e+08 C 24395184 1.0427328e+08 24443160 1.0436304e+08 24482013 1.0445684e+08 C 24520867 1.0455064e+08 24550410 1.0464803e+08 24570217 104747610 C 24590024 1.0484719e+08 24600000 1.0494847e+08 24600000 105050000 C 24600000 1.0515153e+08 24590024 1.0525281e+08 24570217 105352390 C 24550410 1.0545197e+08 24520867 1.0554936e+08 24482013 1.0564316e+08 C 24443160 1.0573696e+08 24395184 1.0582672e+08 24338778 1.0591113e+08 C 24282371 1.0599555e+08 24217807 1.0607422e+08 24146016 1.0614602e+08 C 24074224 1.0621781e+08 23995552 1.0628237e+08 23911134 1.0633878e+08 C 23826716 1.0639518e+08 23736960 1.0644316e+08 23643159 1.0648201e+08 C 23549359 1.0652087e+08 23451968 1.0655041e+08 23352390 1.0657022e+08 C 23252812 1.0659002e+08 23151529 106600000 23050000 106600000 C 22948471 106600000 22847188 1.0659002e+08 22747610 1.0657022e+08 C 22648032 1.0655041e+08 22550641 1.0652087e+08 22456841 1.0648201e+08 C 22363040 1.0644316e+08 22273284 1.0639518e+08 22188866 1.0633878e+08 C 22104448 1.0628237e+08 22025776 1.0621781e+08 21953984 1.0614602e+08 C 21882193 1.0607422e+08 21817629 1.0599555e+08 21761222 1.0591113e+08 C 21704816 1.0582672e+08 21656840 1.0573696e+08 21617987 1.0564316e+08 C 21579133 1.0554936e+08 21549590 1.0545197e+08 21529783 105352390 C 21509976 1.0525281e+08 21500000 1.0515153e+08 21500000 105050000 C 21500000 1.0494847e+08 21509976 1.0484719e+08 21529783 104747610 C 21549590 1.0464803e+08 21579133 1.0455064e+08 21617987 1.0445684e+08 C 21656840 1.0436304e+08 21704816 1.0427328e+08 21761222 1.0418887e+08 C 21817629 1.0410445e+08 21882193 1.0402578e+08 21953984 1.0395398e+08 C 22025776 1.0388219e+08 22104448 1.0381763e+08 22188866 1.0376122e+08 C 22273284 1.0370482e+08 22363040 1.0365684e+08 22456841 1.0361799e+08 C 22550641 1.0357913e+08 22648032 1.0354959e+08 22747610 1.0352978e+08 C 22847188 1.0350998e+08 22948471 103500000 23050000 103500000 z "
     id="path1485" />
  <path
     d="m 44550000,94050000 a 1000000,1000000 0 0 0 0,2000000 m 20000000,0 a 1000000,1000000 0 0 0 0,-2000000 M 44550000,96050000 H 64550000 M 44550000,94050000 h 20000000"
     style="fill:none;fill-opacity:1;stroke:#000000;stroke-width:100000;stroke-linecap:round;stroke-linejoin:round;stroke-opacity:1"
     id="path244" />
  <path
     id="path3049"
     d="m 48936235,12056505 c -44738,-27276 -92242,-78261 -105563,-113297 -15002,-39489 -24210,-832956 -24210,-2087650 0,-2230380 -6323,-2138918 152736,-2205802 97462,-40979 178702,-23919 256493,53874 l 62703,62704 v 1921592 1921592 l 701686,148 c 736539,151 860488,14314 924499,105709 44183,63077 49758,198332 11165,270465 -59414,111022 -141520,120465 -1046625,120364 -807241,-98 -855745,-2672 -932860,-49689 z"
     style="fill:#000000;fill-opacity:1;stroke:none;stroke-width:9387.76;stroke-opacity:1" />
  <path
     id="path3051"
     d="m 52470124,12082807 c -27324,-11192 -68694,-41492 -91937,-67355 -23575,-26220 -306788,-952593 -640665,-2095569 -478952,-1639623 -594429,-2062922 -578496,-2120540 52848,-191103 337945,-228351 426191,-55679 14949,29234 212410,690258 438825,1468943 226412,778687 434255,1492597 461870,1586468 27614,93874 59491,160938 70837,149032 11350,-11906 228851,-736359 483340,-1609897 254492,-873535 476256,-1604568 492811,-1624513 44960,-54176 162912,-97009 231193,-83957 77906,14896 183919,141240 183919,219197 0,67127 -1151384,4038319 -1196218,4125825 -15425,30120 -64455,72033 -108942,93144 -90247,42825 -102018,43841 -172728,14896 z"
     style="fill:#000000;fill-opacity:1;stroke:none;stroke-width:9387.76;stroke-opacity:1" />
  <path
     id="path3053"
     d="m 54802159,12081945 c -28850,-11669 -76354,-51578 -105564,-88710 l -53107,-67516 265,-2052032 c 264,-1590596 7355,-2065996 31395,-2114129 17066,-34153 69993,-81638 117615,-105524 76071,-38153 168582,-43434 761506,-43469 l 674915,-37 206848,105029 c 298995,151818 451202,317572 586280,638464 104354,247912 104921,250915 104921,558260 0,308012 -265,309774 -103500,546537 -134620,308946 -269931,461494 -547214,616926 l -210473,117983 h -575363 -575366 v 855758 c 0,587031 -8890,875247 -28279,917826 -15557,34137 -64746,79373 -109318,100521 -90855,43114 -101721,43987 -175662,14102 z m 1458979,-2420935 c 153058,-85548 251274,-199835 328048,-381733 54978,-130252 66218,-194308 66218,-377410 0,-197768 -8626,-239265 -83503,-401989 -87233,-189561 -139380,-249092 -296704,-338712 -88915,-50652 -126375,-53869 -627171,-53869 h -532608 v 807249 807249 h 518480 c 503880,0 521541,-1587 627240,-60785 z"
     style="fill:#000000;fill-opacity:1;stroke:none;stroke-width:9387.76;stroke-opacity:1" />
  <path
     id="path3055"
     d="m 58642478,12082781 c -213818,-71380 -540359,-209278 -579935,-244909 -116412,-104802 -98378,-296775 34324,-365398 101346,-52406 141108,-47381 396581,50110 225957,86227 231035,86934 624877,86934 377299,0 402278,-3043 501619,-61267 144359,-84601 219773,-173773 297415,-351674 88040,-201731 88755,-374827 2381,-570195 -35224,-79645 -86140,-175842 -113146,-213768 -77814,-109281 -330245,-232637 -679738,-332174 -591648,-168500 -850292,-366029 -1042628,-796276 -105214,-235355 -112361,-265004 -112361,-466117 0,-196265 8970,-236061 103982,-461796 135535,-321984 289083,-488344 592738,-642202 l 212370,-107603 458266,10266 458269,10266 260805,104417 c 317135,126969 410435,210606 388530,348287 -17330,108940 -115601,201507 -213915,201507 -39050,0 -173514,-39119 -298807,-86934 -225677,-86122 -231492,-86934 -621673,-86934 -421418,0 -474478,13176 -642311,159432 -95636,83344 -226324,394100 -226324,538168 0,132191 87137,371930 181792,500171 84323,114237 322519,230931 675135,330753 391485,110826 693661,271878 846717,451279 55859,65476 148071,223848 204917,351938 97147,218908 103354,246766 103354,463939 0,214961 -6985,247279 -100436,464246 -128561,298505 -260432,450336 -526785,606517 l -204867,120126 -459512,4816 c -252730,2646 -487456,-4498 -521608,-15902 z"
     style="fill:#000000;fill-opacity:1;stroke:none;stroke-width:9387.76;stroke-opacity:1" />
  <path
     id="path3060"
     d="m 67306050,65905658 c -59005,-26379 -109339,-104251 -109461,-169339 -42,-21907 152855,-499745 339770,-1061860 375687,-1129803 373595,-1125170 508302,-1125170 146164,0 129214,-36452 515615,1108954 262133,777041 348366,1053084 342767,1097243 -8572,67664 -79094,149682 -142340,165557 -61960,15558 -155049,-20293 -192810,-74234 -17859,-25506 -65408,-145777 -105661,-267250 l -73189,-220864 h -341403 -341400 l -76620,234175 c -81876,250240 -122693,312018 -217051,328496 -28239,4921 -76171,-2117 -106519,-15716 z m 947282,-941422 c 0,-45448 -205808,-614238 -214540,-592918 -12832,31305 -201197,594355 -201197,601363 0,2699 93541,4922 207868,4922 114329,0 207869,-6006 207869,-13362 z"
     style="fill:#000000;fill-opacity:1;stroke:none;stroke-width:6547.06;stroke-opacity:1" />
  <path
     id="path3062"
     d="m 69752001,65868264 c -162049,-55697 -180967,-67349 -300188,-184901 -156604,-154408 -232736,-296122 -300043,-558520 -92559,-360831 -50419,-775732 110839,-1091313 41852,-81905 103212,-161931 189066,-246582 120862,-119165 135988,-128312 307925,-186216 235178,-79198 330502,-80110 572426,-5477 168442,51962 189249,63410 281490,154866 89620,88858 99605,106013 99605,171164 0,59251 -10715,83111 -58898,131305 -82437,82436 -174120,82741 -265849,794 -69148,-61709 -251997,-132533 -342167,-132533 -89685,0 -273145,69999 -335004,127818 -125614,117412 -227283,424426 -227283,686337 0,261911 101669,568926 227283,686337 61859,57820 245319,127818 335004,127818 90170,0 273019,-70824 342167,-132533 91729,-81859 183412,-81555 265849,794 92538,92538 76401,198991 -47890,315929 -72975,68659 -126341,95128 -305514,151540 -201417,63415 -326597,59584 -548818,-16801 z"
     style="fill:#000000;fill-opacity:1;stroke:none;stroke-width:6547.06;stroke-opacity:1" />
  <path
     id="path3073"
     d="m 63460559,69086936 c -169836,-81391 -255204,-163906 -336172,-324945 l -67786,-134821 v -243332 -243329 l 62486,-125156 c 34370,-68837 78600,-142695 98293,-164132 l 35806,-38976 -35806,-38975 c -19685,-21432 -63923,-95295 -98293,-164129 -51104,-102354 -62486,-144259 -62486,-230019 0,-204851 159866,-431016 389755,-551391 l 121256,-63492 h 242514 242515 l 124756,64756 c 179840,93353 236405,150580 327157,331002 71697,142536 78867,167497 70938,247007 -9552,95872 -85781,263004 -160362,351639 l -46696,55494 43812,46691 c 24104,25691 69967,97359 101939,159287 58108,112554 58129,112689 58129,363771 v 251176 l -63463,121256 c -79494,151890 -178467,247521 -338852,327414 -124828,62180 -125759,62341 -355597,62341 -226613,0 -232497,-1058 -353843,-59137 z m 562456,-354758 c 130596,-66651 176866,-157771 176866,-348292 0,-190519 -46270,-281639 -176866,-348293 -97798,-49913 -344342,-46077 -437726,6800 -111493,63146 -147024,145672 -147024,341479 0,195811 35531,278337 147024,341482 93384,52890 339928,56727 437726,6800 z m 0,-1143281 c 72353,-36925 108493,-73509 146971,-148767 24686,-48300 23707,-56997 -15293,-133977 -60984,-120343 -133064,-152159 -344723,-152159 -184547,0 -236217,17462 -309576,104648 -67000,79623 -72456,124862 -25373,210240 63000,114202 145534,152183 331465,152533 115654,217 167714,-7594 216529,-32518 z"
     style="fill:#000000;fill-opacity:1;stroke:none;stroke-width:6547.06;stroke-opacity:1" />
  <path
     id="path3075"
     d="m 65256328,69077777 c -81021,-41442 -161115,-99680 -212201,-154295 -70541,-75414 -82058,-97800 -82058,-159491 0,-58518 10875,-82637 58896,-130662 78814,-78814 151273,-79560 252373,-2645 170572,129849 181999,133678 398952,133678 174615,0 207698,-4816 267983,-38952 37831,-21431 86548,-65323 108268,-97552 36028,-53464 39486,-78150 39486,-281916 0,-374904 -54157,-429808 -423944,-429808 -234236,0 -253765,5477 -356553,99833 -158316,145348 -345461,78869 -345461,-122719 0,-152215 88501,-971318 109654,-1014902 11139,-22966 42257,-58042 69133,-77952 46400,-34372 73557,-36478 536996,-41640 315290,-3519 510675,1323 551809,13308 134724,39646 193850,186508 115295,286375 -68350,86892 -117099,95512 -540226,95512 h -388345 l -9895,73620 c -5451,40492 -14843,124288 -20876,186216 l -10954,112597 274707,-5477 274703,-5477 158261,79224 c 185843,93035 243123,151702 337849,346041 l 68233,139988 -5582,277159 c -5530,274857 -6033,278069 -62593,386876 -82722,159166 -179141,255040 -335611,333711 l -134416,67583 -281874,-794 -281874,-794 -130140,-66566 z"
     style="fill:#000000;fill-opacity:1;stroke:none;stroke-width:6547.06;stroke-opacity:1" />
  <path
     id="path3077"
     d="m 66803667,68468724 c -77912,-22542 -126677,-91292 -126677,-178594 0,-86984 37116,-144319 114305,-176572 83537,-34904 814560,-34591 898269,265 160895,67228 154776,293690 -9499,351247 -71072,24898 -792488,27813 -876403,3546 z"
     style="fill:#000000;fill-opacity:1;stroke:none;stroke-width:6547.06;stroke-opacity:1" />
  <path
     id="path3079"
     d="m 68006706,69119274 c -83719,-45985 -121531,-157758 -80682,-238506 10531,-20796 274651,-295074 586939,-609476 503983,-507399 570944,-581237 595804,-657008 61923,-188730 17516,-360302 -110111,-425413 -57817,-29496 -102066,-34877 -286727,-34877 -236265,0 -260389,6614 -355647,97570 -71462,68231 -143055,93057 -213074,73885 -67316,-18441 -112782,-62825 -129808,-126741 -34485,-129468 65667,-252171 300562,-368239 l 155903,-77036 268496,5715 268499,5715 121256,63175 c 227063,118298 386993,344040 402728,568457 6720,95716 -1852,142460 -56253,311803 l -64148,199208 -413991,416197 c -227695,228907 -413991,421836 -413991,428731 0,6879 183962,12542 408808,12542 h 408810 l 58896,58896 c 79280,79280 82365,174119 8361,256963 l -50530,56573 -681342,3943 c -579017,3360 -688464,34 -728760,-22093 z"
     style="fill:#000000;fill-opacity:1;stroke:none;stroke-width:6547.06;stroke-opacity:1" />
  <path
     id="path3081"
     d="m 70219430,69082864 c -66691,-33826 -155276,-93855 -196855,-133397 -135515,-128868 -148990,-230016 -43043,-323041 82619,-72538 158473,-70567 244179,6350 124156,111417 188309,132239 406437,131922 170659,-249 204348,-5265 264504,-39328 38653,-21881 86090,-69329 107982,-107982 34594,-61081 39076,-93189 39327,-281826 530,-363257 -56327,-419378 -424563,-419378 -238908,0 -256154,5001 -367266,106392 -88453,80722 -175432,93382 -261670,38087 -88463,-56719 -90321,-91170 -34864,-646830 55597,-557054 59290,-570547 171791,-627912 52324,-26680 116705,-30292 540650,-30316 512156,-26 556024,5980 627382,86014 23231,26035 34645,63354 34645,113170 0,49813 -11430,87122 -34645,113168 -69222,77631 -121449,86039 -534511,86039 h -388384 l -9631,56298 c -5292,30965 -14685,114761 -20902,186217 l -11271,129918 271586,-5583 271590,-5582 132810,62833 c 165428,78266 281747,188920 359471,341961 l 59161,116493 v 295299 295299 l -67741,133863 c -83857,165711 -163600,243785 -330187,323279 l -129429,61761 -277649,-793 -277645,-794 z"
     style="fill:#000000;fill-opacity:1;stroke:none;stroke-width:6547.06;stroke-opacity:1" />
  <path
     id="path3083"
     d="m 72315446,69082886 c -152715,-77436 -273608,-192972 -341638,-326499 -29104,-57126 -79121,-207894 -111146,-335036 -52155,-207061 -58187,-255847 -57827,-467776 264,-210391 6773,-261551 57898,-461793 99185,-388469 214490,-557644 458264,-672359 87170,-41021 145613,-55904 236963,-60346 113917,-5530 130694,-1323 277159,70612 251278,123314 346935,260651 440960,633092 48509,192143 52700,232161 52351,500023 -265,262128 -5265,310166 -49258,481711 -90074,351147 -208285,519832 -447950,639217 -112257,55917 -139038,62254 -259837,61489 -119041,-793 -148764,-7990 -255939,-62335 z m 360302,-345977 c 121827,-61691 169341,-139626 231071,-379006 82391,-319502 42854,-822862 -82476,-1050062 -79523,-144161 -271727,-199303 -398071,-114202 -82267,55414 -133617,158337 -190767,382368 -68755,269518 -68755,497443 0,766961 27069,106114 67844,226700 90612,267972 73205,132707 226941,188095 349631,125969 z"
     style="fill:#000000;fill-opacity:1;stroke:none;stroke-width:6547.06;stroke-opacity:1" />
  <path
     id="path3085"
     d="m 74279774,69106923 c -57246,-38081 -68477,-67852 -410028,-1086985 -240514,-717651 -348072,-1061477 -341336,-1091136 35846,-157875 232267,-215429 328734,-96327 19050,23521 143600,370313 276767,770633 133171,400323 247174,722228 253342,715343 6164,-6879 117946,-333671 248388,-726196 130445,-392523 252733,-733462 271753,-757642 102159,-129876 326565,-53190 326798,111678 79,55673 -643477,2020988 -690650,2109131 -24474,45717 -105413,90651 -163303,90651 -22887,0 -68091,-17621 -100465,-39150 z"
     style="fill:#000000;fill-opacity:1;stroke:none;stroke-width:6547.06;stroke-opacity:1" />
  <path
     id="path3087"
     d="m 65356539,72345610 c -72845,-32150 -110487,-90600 -110487,-171570 0,-53290 12171,-79340 58896,-126060 l 58896,-58900 h 226925 226923 v -623610 c 0,-342980 -6588,-623610 -14631,-623610 -8044,0 -29488,16460 -47636,36560 -51768,57350 -258112,153990 -328782,153990 -90974,0 -180586,-91780 -180586,-184960 0,-88370 35298,-135140 143293,-189860 141833,-71870 231513,-158420 361024,-348400 74695,-109570 141415,-188097 174241,-205067 94467,-48850 195840,-5610 254691,108667 13705,26620 19473,310140 19473,957060 v 919230 h 218186 c 247732,0 299850,19980 335738,128720 22754,68960 -4392,152040 -68302,209070 -37105,33100 -66342,34820 -656312,38620 -493541,3180 -628336,-790 -671558,-19870 z"
     style="fill:#000000;fill-opacity:1;stroke:none;stroke-width:6547.06;stroke-opacity:1" />
  <path
     id="path3089"
     d="m 67653384,72308440 c -244443,-116600 -358402,-280400 -450278,-647230 -47075,-187940 -51575,-231460 -51475,-497690 101,-267020 4419,-308110 50930,-484990 94297,-358580 210161,-522330 450823,-637117 110498,-52710 147307,-61740 251664,-61740 104354,0 141166,9030 251664,61740 246883,117757 368226,295357 465275,680967 47342,188110 53909,243240 53909,452600 0,214370 -5847,260850 -57941,461290 -101277,389580 -214387,554420 -461243,672170 -110498,52700 -147310,61730 -251664,61730 -104357,0 -141166,-9020 -251664,-61730 z m 360620,-352160 c 117541,-59990 170201,-152130 236545,-413840 64746,-255420 62211,-497170 -8017,-765930 -58671,-224490 -111913,-316850 -216934,-376330 -81561,-46200 -145667,-49490 -221002,-11330 -121827,61690 -169341,139630 -231071,379010 -80465,312040 -44537,804920 75761,1039340 81447,158710 228277,218730 364731,149090 z"
     style="fill:#000000;fill-opacity:1;stroke:none;stroke-width:6547.06;stroke-opacity:1" />
  <path
     id="path3091"
     d="m 69558853,72308440 c -240813,-114870 -361291,-285320 -452226,-639830 -44503,-173480 -48879,-217690 -48879,-493690 0,-276000 4365,-320200 48879,-493680 90935,-354510 211413,-524960 452226,-639827 110498,-52710 147309,-61740 251664,-61740 104354,0 141165,9030 251663,61740 247984,118287 361172,283927 460886,674467 51154,200350 57497,250990 57497,459040 0,208060 -6350,258700 -57497,459050 -99714,390540 -212902,556180 -460886,674470 -110498,52700 -147309,61730 -251663,61730 -104355,0 -141166,-9020 -251664,-61730 z m 360619,-352160 c 117541,-59990 170204,-152130 236545,-413840 61595,-243000 61595,-492030 0,-735030 -66341,-261720 -119004,-353850 -236545,-413840 -78732,-40180 -136816,-41490 -209420,-4740 -121828,61690 -169342,139630 -231072,379010 -80465,312040 -44537,804930 75761,1039350 81447,158710 228277,218720 364731,149080 z"
     style="fill:#000000;fill-opacity:1;stroke:none;stroke-width:6547.06;stroke-opacity:1" />
  <path
     id="path3093"
     d="m 71435601,72336390 c -30356,-18520 -63111,-48450 -72790,-66530 -19844,-37070 -504288,-2060720 -504288,-2106520 0,-57010 51104,-127337 114327,-157337 83859,-39800 184748,-13440 229348,59887 16616,27330 95240,325060 174713,661640 79473,336580 149876,617990 156453,625360 6588,7390 49371,-129040 95102,-303140 102283,-389410 114430,-419660 186081,-463340 72192,-44020 111776,-44020 183971,0 72125,43970 85108,76100 187007,462810 45799,173810 88598,310230 95107,303140 6509,-7090 75105,-281800 152440,-610500 77335,-328690 151537,-621730 164896,-651200 14526,-32030 50305,-65917 88987,-84267 54775,-25990 75076,-27600 132327,-10450 71924,21530 135075,99847 135194,167637 121,68880 -485439,2074810 -512072,2115460 -37267,56870 -131522,98540 -189815,83910 -103307,-25930 -134617,-84660 -222417,-417190 -108434,-410680 -116411,-435130 -132254,-405330 -7091,13340 -49795,164550 -94912,336040 -100658,382620 -113659,414750 -185584,458600 -71707,43720 -111791,44010 -181821,1330 z"
     style="fill:#000000;fill-opacity:1;stroke:none;stroke-width:6547.06;stroke-opacity:1" />
</svg>
