Version 4
SHEET 1 2500 1176
WIRE 1696 -64 1680 -64
WIRE 1808 -64 1776 -64
WIRE 1888 -64 1808 -64
WIRE 2000 -64 1968 -64
WIRE 1808 0 1808 -64
WIRE 1840 0 1808 0
WIRE 2000 16 2000 -64
WIRE 2000 16 1904 16
WIRE 1552 32 1520 32
WIRE 1840 32 1808 32
WIRE 2000 48 2000 16
WIRE 2064 48 2000 48
WIRE 2064 64 2064 48
WIRE 2160 64 2064 64
WIRE 2224 64 2160 64
WIRE 2160 96 2160 64
WIRE 2224 112 2224 64
WIRE 1248 128 1168 128
WIRE 1392 128 1312 128
WIRE 1552 128 1392 128
WIRE 1680 128 1680 -64
WIRE 1680 128 1616 128
WIRE 1936 128 1872 128
WIRE 2000 128 2000 48
WIRE 1168 144 1168 128
WIRE 352 192 96 192
WIRE 496 192 432 192
WIRE 928 192 496 192
WIRE 1008 192 928 192
WIRE 1104 192 1008 192
WIRE 1552 192 1552 128
WIRE 1584 192 1552 192
WIRE 1680 192 1680 128
WIRE 1680 192 1664 192
WIRE 1712 192 1680 192
WIRE 1872 192 1872 128
WIRE 1872 192 1712 192
WIRE 1888 192 1872 192
WIRE 2000 192 2000 128
WIRE 2000 192 1968 192
WIRE 496 208 496 192
WIRE 496 208 464 208
WIRE 528 208 496 208
WIRE 928 208 928 192
WIRE 464 224 464 208
WIRE 528 224 528 208
WIRE 2160 224 2160 176
WIRE 2160 224 2064 224
WIRE 2224 224 2224 192
WIRE 2224 224 2160 224
WIRE 2304 224 2224 224
WIRE 2416 224 2368 224
WIRE -80 240 -160 240
WIRE 32 240 0 240
WIRE 1392 240 1392 128
WIRE 2064 256 2064 224
WIRE 2064 256 1840 256
WIRE 1616 272 1552 272
WIRE 1712 272 1712 256
WIRE 256 288 96 288
WIRE 928 288 928 272
WIRE 1008 288 1008 192
WIRE 1552 288 1552 272
WIRE 2064 288 2064 256
WIRE -688 304 -704 304
WIRE -576 304 -608 304
WIRE -544 304 -576 304
WIRE -384 304 -464 304
WIRE -272 304 -304 304
WIRE -160 304 -160 240
WIRE -160 304 -272 304
WIRE 464 304 464 288
WIRE 496 304 464 304
WIRE 528 304 528 288
WIRE 528 304 496 304
WIRE -272 320 -272 304
WIRE 496 320 496 304
WIRE 496 320 464 320
WIRE 528 320 496 320
WIRE 1616 320 1616 272
WIRE 1840 320 1840 256
WIRE 1840 320 1616 320
WIRE 2416 320 2416 224
WIRE 2480 320 2416 320
WIRE 464 336 464 320
WIRE 528 336 528 320
WIRE -32 352 -96 352
WIRE 96 352 -32 352
WIRE 256 352 256 288
WIRE 256 352 96 352
WIRE -32 368 -32 352
WIRE 2064 384 2064 352
WIRE 2064 384 1616 384
WIRE 96 400 96 352
WIRE -576 416 -576 304
WIRE -272 416 -272 400
WIRE -272 416 -576 416
WIRE 464 416 464 400
WIRE 496 416 464 416
WIRE 528 416 528 400
WIRE 528 416 496 416
WIRE 800 416 752 416
WIRE 1440 416 800 416
WIRE 1552 416 1552 368
WIRE 1552 416 1440 416
WIRE 2064 416 2064 384
WIRE 2176 416 2064 416
WIRE 2224 416 2176 416
WIRE 2304 416 2224 416
WIRE 2416 416 2416 320
WIRE 2416 416 2368 416
WIRE -96 432 -96 352
WIRE 256 432 240 432
WIRE 496 432 496 416
WIRE 1440 432 1440 416
WIRE -32 448 -32 432
WIRE 800 448 800 416
WIRE 816 448 800 448
WIRE 1008 448 1008 368
WIRE 1056 448 1008 448
WIRE 1088 448 1056 448
WIRE 1104 448 1088 448
WIRE 1168 448 1168 240
WIRE 1200 448 1168 448
WIRE 1312 448 1280 448
WIRE 1552 448 1552 416
WIRE 1696 448 1680 448
WIRE 1808 448 1776 448
WIRE 1888 448 1808 448
WIRE 2000 448 1968 448
WIRE 1392 464 1392 320
WIRE 1392 464 1376 464
WIRE 2176 464 2176 416
WIRE 2224 464 2224 416
WIRE 816 480 800 480
WIRE 880 480 880 464
WIRE 896 480 880 480
WIRE 912 480 896 480
WIRE 944 480 912 480
WIRE -272 496 -272 416
WIRE 800 496 800 480
WIRE 800 512 800 496
WIRE 1440 512 1440 496
WIRE 1808 512 1808 448
WIRE 1840 512 1808 512
WIRE 496 528 496 512
WIRE 1088 528 1088 448
WIRE 1168 528 1168 448
WIRE 1200 528 1168 528
WIRE 1280 528 1264 528
WIRE 2000 528 2000 448
WIRE 2000 528 1904 528
WIRE 96 544 96 480
WIRE 240 544 96 544
WIRE 832 544 800 496
WIRE 896 544 832 544
WIRE 1008 544 1008 448
WIRE 1552 544 1552 528
WIRE 1616 544 1616 384
WIRE 1616 544 1552 544
WIRE 1840 544 1808 544
WIRE -32 560 -32 528
WIRE 16 560 -32 560
WIRE 96 560 96 544
WIRE 96 560 16 560
WIRE 912 560 912 480
WIRE 1184 576 1152 576
WIRE 2176 576 2176 544
WIRE 2176 576 2064 576
WIRE 2224 576 2224 544
WIRE 2224 576 2176 576
WIRE -576 592 -576 416
WIRE -544 592 -576 592
WIRE -384 592 -464 592
WIRE -272 592 -272 576
WIRE -272 592 -304 592
WIRE -160 592 -272 592
WIRE 240 592 240 544
WIRE 240 592 96 592
WIRE 448 592 400 592
WIRE 816 592 800 592
WIRE 2000 592 2000 528
WIRE 2064 592 2064 576
WIRE 2064 592 2000 592
WIRE 96 608 96 592
WIRE 800 624 800 592
WIRE 1392 640 1392 464
WIRE 1616 640 1552 640
WIRE 1680 640 1680 448
WIRE 1936 640 1872 640
WIRE 2000 640 2000 592
WIRE -160 656 -160 592
WIRE -80 656 -160 656
WIRE 32 656 0 656
WIRE 1168 656 1168 528
WIRE 304 704 96 704
WIRE 480 704 384 704
WIRE 496 704 496 624
WIRE 496 704 480 704
WIRE 944 704 496 704
WIRE 1008 704 1008 624
WIRE 1008 704 944 704
WIRE 1104 704 1008 704
WIRE 1552 704 1552 640
WIRE 1552 704 1536 704
WIRE 1568 704 1552 704
WIRE 1680 704 1680 640
WIRE 1680 704 1648 704
WIRE 1712 704 1680 704
WIRE 1776 704 1712 704
WIRE 1872 704 1872 640
WIRE 1872 704 1776 704
WIRE 1888 704 1872 704
WIRE 2000 704 2000 640
WIRE 2000 704 1968 704
WIRE 480 720 480 704
WIRE 944 720 944 704
WIRE -400 736 -432 736
WIRE -256 736 -320 736
WIRE -192 736 -256 736
WIRE -560 768 -560 752
WIRE 1168 768 1168 752
WIRE 1248 768 1168 768
WIRE 1392 768 1392 720
WIRE 1392 768 1312 768
WIRE 1536 768 1536 704
WIRE 1536 768 1392 768
WIRE -192 784 -192 736
WIRE -176 784 -192 784
WIRE -160 784 -176 784
WIRE -48 784 -160 784
WIRE 1712 784 1712 768
WIRE 480 800 480 784
WIRE 944 800 944 784
WIRE -432 816 -432 736
WIRE -176 816 -176 784
WIRE -560 864 -560 848
WIRE -496 864 -560 864
WIRE 1568 880 1536 880
WIRE 1776 880 1776 704
WIRE 336 896 336 800
WIRE -560 912 -560 864
WIRE -176 912 -176 880
WIRE -96 912 -176 912
WIRE 112 912 112 800
WIRE -496 944 -528 944
WIRE -432 944 -432 912
WIRE -432 944 -496 944
WIRE -496 976 -496 944
WIRE 400 992 400 672
WIRE 400 992 336 992
WIRE -560 1008 -560 976
WIRE 336 1008 336 992
WIRE 336 1104 336 1088
FLAG 1808 112 0
FLAG -320 112 0
FLAG -320 32 V+
FLAG -240 112 0
FLAG -240 32 V-
FLAG -704 304 0
FLAG 16 912 V+
FLAG -96 912 V+
FLAG -256 912 V+
FLAG 848 496 V+
FLAG 848 432 V-
FLAG 1808 624 0
FLAG 1712 784 0
FLAG 1312 448 V-
FLAG 1376 464 V+
FLAG 928 288 0
FLAG 944 800 0
FLAG 240 432 V-
FLAG 672 416 0
FLAG 1440 512 0
FLAG -160 112 0
FLAG -160 32 +100
FLAG 480 800 0
FLAG 224 32 0
FLAG 224 128 0
FLAG 112 992 0
FLAG 336 1104 V-
FLAG 192 944 0
FLAG 816 592 2.5
FLAG -432 1024 0
FLAG -496 976 2.5
FLAG -560 1008 0
FLAG -560 752 V+
FLAG 1056 512 0
FLAG 688 320 0
FLAG 752 320 0
FLAG 688 256 0
FLAG 752 256 0
FLAG 1280 528 0
FLAG 480 32 0
FLAG 480 128 0
FLAG 704 112 0
FLAG 672 112 0
FLAG 16 720 V+
FLAG -96 592 V+
FLAG 1136 896 0
FLAG 1712 272 0
FLAG 944 480 cmd
FLAG 1520 32 cmd
FLAG 1536 880 cmd
FLAG 2480 320 0
FLAG 1088 624 V-
FLAG 1184 576 cmd
SYMBOL Opamps\\opamp 1872 -48 R0
SYMATTR InstName U1
SYMATTR SpiceLine2 GBW=1G
SYMBOL res 1984 -80 R90
WINDOW 0 0 56 VBottom 2
WINDOW 3 32 56 VTop 2
SYMATTR InstName R1
SYMATTR Value 40k
SYMBOL res 1792 -80 R90
WINDOW 0 0 56 VBottom 2
WINDOW 3 32 56 VTop 2
SYMATTR InstName R2
SYMATTR Value 2k
SYMBOL voltage 1808 16 M0
WINDOW 123 0 0 Left 2
WINDOW 39 0 0 Left 2
SYMATTR InstName V1
SYMATTR Value 5.5
SYMBOL voltage -448 304 R90
WINDOW 3 -85 -126 VRight 2
WINDOW 123 -57 -126 VRight 2
WINDOW 39 0 0 Left 2
SYMATTR Value PULSE(-1 1 0 400p 400p {0.5/freq-2.5n} {1/freq})
SYMATTR Value2 AC 1
SYMATTR InstName V2
SYMBOL res 1984 176 R90
WINDOW 0 0 56 VBottom 2
WINDOW 3 32 56 VTop 2
SYMATTR InstName R3
SYMATTR Value 33k
SYMBOL cap 1696 192 R0
SYMATTR InstName C1
SYMATTR Value 3p
SYMBOL cap 2000 112 R90
WINDOW 0 0 32 VBottom 2
WINDOW 3 32 32 VTop 2
SYMATTR InstName C3
SYMATTR Value 2.2p
SYMBOL voltage -320 16 R0
WINDOW 123 0 0 Left 2
WINDOW 39 0 0 Left 2
SYMATTR InstName V3
SYMATTR Value 15
SYMBOL voltage -240 16 R0
WINDOW 123 0 0 Left 2
WINDOW 39 0 0 Left 2
SYMATTR InstName V4
SYMATTR Value -15
SYMBOL voltage -560 592 M90
WINDOW 3 -51 -296 VRight 2
WINDOW 123 -23 -296 VRight 2
WINDOW 39 0 0 Left 2
SYMATTR Value PULSE(-1 1 0 400p 400p {0.5/freq-2.5n} {1/freq})
SYMATTR Value2 AC 1
SYMATTR InstName V5
SYMBOL voltage -592 304 R90
WINDOW 0 -32 56 VBottom 2
WINDOW 3 32 56 VTop 2
WINDOW 123 0 0 Left 2
WINDOW 39 0 0 Left 2
SYMATTR InstName V6
SYMATTR Value 4
SYMBOL res -288 304 R0
SYMATTR InstName R8
SYMATTR Value 50
SYMBOL res -288 480 R0
SYMATTR InstName R9
SYMATTR Value 50
SYMBOL res -288 288 R90
WINDOW 0 0 56 VBottom 2
WINDOW 3 32 56 VTop 2
SYMATTR InstName R10
SYMATTR Value 50
SYMBOL res -288 576 R90
WINDOW 0 0 56 VBottom 2
WINDOW 3 32 56 VTop 2
SYMATTR InstName R11
SYMATTR Value 50
SYMBOL pnpr 32 288 M180
SYMATTR InstName Q3
SYMATTR Value MPSH81
SYMBOL pnpr 32 608 R0
SYMATTR InstName Q4
SYMATTR Value MPSH81
SYMBOL res 80 384 R0
SYMATTR InstName R12
SYMATTR Value 108
SYMBOL res -112 816 R0
SYMATTR InstName R13
SYMATTR Value 240
SYMBOL res 0 816 R0
SYMATTR InstName R14
SYMATTR Value 240
SYMBOL res -272 816 R0
SYMATTR InstName R15
SYMATTR Value 240
SYMBOL res -304 720 R90
WINDOW 0 0 56 VBottom 2
WINDOW 3 32 56 VTop 2
SYMATTR InstName R16
SYMATTR Value 330
SYMBOL res 992 272 R0
SYMATTR InstName R17
SYMATTR Value 150
SYMBOL res 992 528 R0
SYMATTR InstName R18
SYMATTR Value 150
SYMBOL pnpr -192 832 R180
SYMATTR InstName Q5
SYMATTR Value 2N3906
SYMBOL pnpr 272 896 R0
SYMATTR InstName Q6
SYMATTR Value 2N3906
SYMBOL cap -192 816 R0
SYMATTR InstName C4
SYMATTR Value 1n
SYMBOL res 1568 272 M0
SYMATTR InstName R19
SYMATTR Value 100k
SYMBOL res 1568 432 M0
SYMATTR InstName R20
SYMATTR Value 100k
SYMBOL Opamps\\opamp 1872 464 R0
SYMATTR InstName U3
SYMATTR SpiceLine2 GBW=1G
SYMBOL res 1984 432 R90
WINDOW 0 0 56 VBottom 2
WINDOW 3 32 56 VTop 2
SYMATTR InstName R21
SYMATTR Value 40k
SYMBOL res 1792 432 R90
WINDOW 0 0 56 VBottom 2
WINDOW 3 32 56 VTop 2
SYMATTR InstName R22
SYMATTR Value 2k
SYMBOL voltage 1808 528 M0
WINDOW 123 0 0 Left 2
WINDOW 39 0 0 Left 2
SYMATTR InstName V8
SYMATTR Value 5.5
SYMBOL res 1984 688 R90
WINDOW 0 0 56 VBottom 2
WINDOW 3 32 56 VTop 2
SYMATTR InstName R23
SYMATTR Value 33k
SYMBOL cap 1696 704 R0
SYMATTR InstName C5
SYMATTR Value 3p
SYMBOL cap 2000 624 R90
WINDOW 0 0 32 VBottom 2
WINDOW 3 32 32 VTop 2
SYMATTR InstName C7
SYMATTR Value 2.2p
SYMBOL res 1664 688 R90
WINDOW 0 0 56 VBottom 2
WINDOW 3 32 56 VTop 2
SYMATTR InstName R4
SYMATTR Value 2k
SYMBOL res 1680 176 R90
WINDOW 0 0 56 VBottom 2
WINDOW 3 32 56 VTop 2
SYMATTR InstName R5
SYMATTR Value 2k
SYMBOL cap 1680 624 R90
WINDOW 0 0 32 VBottom 2
WINDOW 3 32 32 VTop 2
SYMATTR InstName C2
SYMATTR Value 21p5
SYMBOL cap 1616 112 R90
WINDOW 0 0 32 VBottom 2
WINDOW 3 32 32 VTop 2
SYMATTR InstName C6
SYMATTR Value 21p5
SYMBOL res 1376 224 R0
SYMATTR InstName R24
SYMATTR Value 1k
SYMBOL res 1376 624 R0
SYMATTR InstName R25
SYMATTR Value 1k
SYMBOL cap 2048 288 R0
SYMATTR InstName C8
SYMATTR Value 3p
SYMBOL res 16 224 R90
WINDOW 0 0 56 VBottom 2
WINDOW 3 32 56 VTop 2
SYMATTR InstName R6
SYMATTR Value 120
SYMBOL res 16 640 R90
WINDOW 0 0 56 VBottom 2
WINDOW 3 32 56 VTop 2
SYMATTR InstName R7
SYMATTR Value 120
SYMBOL res 768 400 R90
WINDOW 0 0 56 VBottom 2
WINDOW 3 32 56 VTop 2
SYMATTR InstName R27
SYMATTR Value 2k7
SYMBOL cap 1424 432 R0
SYMATTR InstName C13
SYMATTR Value 10n
SYMBOL res 816 496 M0
SYMATTR InstName R28
SYMATTR Value 10k
SYMBOL cap 880 480 R0
SYMATTR InstName C14
SYMATTR Value 10n
SYMBOL pnpr -160 832 M180
SYMATTR InstName Q2
SYMATTR Value MPSH81
SYMBOL pnpr -48 832 M180
SYMATTR InstName Q10
SYMATTR Value MPSH81
SYMBOL cap -48 368 R0
SYMATTR InstName C12
SYMATTR Value 2p
SYMBOL res -48 432 R0
SYMATTR InstName R29
SYMATTR Value 10
SYMBOL voltage -160 16 R0
WINDOW 123 0 0 Left 2
WINDOW 39 0 0 Left 2
SYMATTR InstName V9
SYMATTR Value 100
SYMBOL cap 464 720 R0
SYMATTR InstName C16
SYMATTR Value 2p
SYMBOL diode 480 288 R180
WINDOW 0 24 64 Left 2
WINDOW 3 24 0 Left 2
SYMATTR InstName D2
SYMATTR Value D1N4448
SYMBOL diode 512 224 R0
SYMATTR InstName D3
SYMATTR Value D1N4448
SYMBOL njf 448 528 R0
SYMATTR InstName J1
SYMATTR Value J310
SYMBOL res 384 576 R0
SYMATTR InstName R26
SYMATTR Value 100k
SYMBOL voltage 320 32 R90
WINDOW 0 -32 56 VBottom 2
WINDOW 3 32 56 VTop 2
WINDOW 123 60 56 VTop 2
WINDOW 39 0 0 Left 2
SYMATTR InstName V10
SYMATTR Value SINE(0 1 1Meg)
SYMATTR Value2 AC 1
SYMBOL voltage 208 128 M90
WINDOW 0 -32 56 VBottom 2
WINDOW 3 32 56 VTop 2
WINDOW 123 60 56 VTop 2
WINDOW 39 0 0 Left 2
SYMATTR InstName V11
SYMATTR Value SINE(0 1 1Meg)
SYMATTR Value2 AC 1
SYMBOL diode 480 400 R180
WINDOW 0 24 64 Left 2
WINDOW 3 24 0 Left 2
SYMATTR InstName D1
SYMATTR Value D1N4448
SYMBOL diode 512 336 R0
SYMATTR InstName D4
SYMATTR Value D1N4448
SYMBOL res 480 416 R0
SYMATTR InstName R30
SYMATTR Value 560
SYMBOL res 2208 96 R0
SYMATTR InstName R31
SYMATTR Value 24
SYMBOL res 2208 448 R0
SYMATTR InstName R32
SYMATTR Value 24
SYMBOL voltage 112 896 R0
WINDOW 123 0 0 Left 2
WINDOW 39 0 0 Left 2
SYMATTR InstName V7
SYMATTR Value PULSE(0 5 3u)
SYMBOL res 320 992 R0
SYMATTR InstName R37
SYMATTR Value 100k
SYMBOL res 288 928 R90
WINDOW 0 0 56 VBottom 2
WINDOW 3 32 56 VTop 2
SYMATTR InstName R38
SYMATTR Value 10k
SYMBOL res -448 928 R0
SYMATTR InstName R36
SYMATTR Value 180
SYMBOL Opamps\\NS\\LM358 848 464 M180
SYMATTR InstName U2
SYMBOL npn -496 816 R0
SYMATTR InstName Q7
SYMATTR Value 2N3904
SYMBOL PowerProducts\\TI\\TL431A -544 912 M0
SYMATTR InstName U5
SYMBOL res -576 752 R0
SYMATTR InstName R39
SYMATTR Value 4k7
SYMBOL ind -80 416 M0
SYMATTR InstName L4
SYMATTR Value 33n
SYMBOL ind 32 544 M0
SYMATTR InstName L5
SYMATTR Value 33n
SYMBOL cap 1040 448 R0
SYMATTR InstName C9
SYMATTR Value 10n
SYMBOL ind 2176 192 R180
WINDOW 0 36 80 Left 2
WINDOW 3 36 40 Left 2
SYMATTR InstName L1
SYMATTR Value 700n
SYMBOL ind 2192 560 R180
WINDOW 0 36 80 Left 2
WINDOW 3 36 40 Left 2
SYMATTR InstName L2
SYMATTR Value 700n
SYMBOL res 688 16 M0
SYMATTR InstName R34
SYMATTR Value 120
SYMBOL res 688 16 R0
SYMATTR InstName R35
SYMATTR Value 120
SYMBOL pnpr 1152 528 M0
SYMATTR InstName Q8
SYMATTR Value 2N3906
SYMBOL res 1296 432 R90
WINDOW 0 0 56 VBottom 2
WINDOW 3 32 56 VTop 2
SYMATTR InstName R40
SYMATTR Value 120
SYMBOL cap 1264 512 R90
WINDOW 0 0 32 VBottom 2
WINDOW 3 32 32 VTop 2
SYMATTR InstName C10
SYMATTR Value 10n
SYMBOL cap 912 208 R0
SYMATTR InstName C11
SYMATTR Value 2p
SYMBOL res 0 624 R0
SYMATTR InstName R41
SYMATTR Value 620
SYMBOL res -112 496 R0
SYMATTR InstName R42
SYMATTR Value 620
SYMBOL pnpr 1104 752 M180
SYMATTR InstName Q9
SYMATTR Value MPSH81
SYMBOL pnpr 1104 144 R0
SYMATTR InstName Q12
SYMATTR Value MPSH81
SYMBOL res 1648 16 R90
WINDOW 0 0 56 VBottom 2
WINDOW 3 32 56 VTop 2
SYMATTR InstName R43
SYMATTR Value 3k3
SYMBOL res 1664 864 R90
WINDOW 0 0 56 VBottom 2
WINDOW 3 32 56 VTop 2
SYMATTR InstName R44
SYMATTR Value 3k3
SYMBOL cap 2368 208 R90
WINDOW 0 0 32 VBottom 2
WINDOW 3 32 32 VTop 2
SYMATTR InstName C15
SYMATTR Value 3p
SYMBOL cap 2368 400 R90
WINDOW 0 0 32 VBottom 2
WINDOW 3 32 32 VTop 2
SYMATTR InstName C17
SYMATTR Value 3p
SYMBOL FerriteBead 1280 128 R90
WINDOW 0 -16 0 VBottom 2
SYMATTR InstName L3
SYMATTR Value 181n
SYMATTR SpiceLine Ipk=0.3 Rser=0.00024 Rpar=73 Cpar=77f mfg="Wurth Elektronik" pn="742 692 002"
SYMBOL FerriteBead 1280 768 R90
WINDOW 0 -16 0 VBottom 2
SYMATTR InstName L6
SYMATTR Value 181n
SYMATTR SpiceLine Ipk=0.3 Rser=0.00024 Rpar=73 Cpar=77f mfg="Wurth Elektronik" pn="742 692 002"
SYMBOL ind 336 208 R270
WINDOW 0 32 56 VTop 2
WINDOW 3 5 56 VBottom 2
SYMATTR InstName L7
SYMATTR Value 50n
SYMBOL ind 288 720 R270
WINDOW 0 32 56 VTop 2
WINDOW 3 5 56 VBottom 2
SYMATTR InstName L8
SYMATTR Value 50n
TEXT 32 16 Left 2 !.lib opamp.sub
TEXT -768 80 Left 2 !.tran 10u
TEXT -312 -128 Left 2 ;114Vpp max horiz (57Vpp each side)
TEXT -312 -104 Left 2 ;36Vpp max vert (18Vpp each side)
TEXT -696 152 Left 2 !.lib bipolar.lib
TEXT -704 104 Left 2 !;ac dec 50 5 500Meg
TEXT -816 120 Left 2 !.param freq 1Meg
TEXT -688 184 Left 2 !.lib diode.lib
TEXT -680 40 Left 2 !.lib jfet.lib
TEXT 1160 48 Left 2 !K1 L3 L6 0.8
