{
  "board": {
    "design_settings": {
      "defaults": {
        "board_outline_line_width": 0.049999999999999996,
        "copper_line_width": 0.19999999999999998,
        "copper_text_italic": false,
        "copper_text_size_h": 1.5,
        "copper_text_size_v": 1.5,
        "copper_text_thickness": 0.3,
        "copper_text_upright": false,
        "courtyard_line_width": 0.049999999999999996,
        "dimension_precision": 3,
        "dimension_units": 2,
        "dimensions": {
          "arrow_length": 1270000,
          "extension_offset": 500000,
          "keep_text_aligned": true,
          "suppress_zeroes": false,
          "text_position": 0,
          "units_format": 1
        },
        "fab_line_width": 0.09999999999999999,
        "fab_text_italic": false,
        "fab_text_size_h": 0.39999999999999997,
        "fab_text_size_v": 0.39999999999999997,
        "fab_text_thickness": 0.075,
        "fab_text_upright": false,
        "other_line_width": 0.09999999999999999,
        "other_text_italic": false,
        "other_text_size_h": 1.0,
        "other_text_size_v": 1.0,
        "other_text_thickness": 0.15,
        "other_text_upright": false,
        "pads": {
          "drill": 0.8,
          "height": 1.6,
          "width": 1.6
        },
        "silk_line_width": 0.19999999999999998,
        "silk_text_italic": false,
        "silk_text_size_h": 0.7999999999999999,
        "silk_text_size_v": 0.7999999999999999,
        "silk_text_thickness": 0.19999999999999998,
        "silk_text_upright": true,
        "zones": {
          "45_degree_only": false,
          "min_clearance": 0.25
        }
      },
      "diff_pair_dimensions": [
        {
          "gap": 0.0,
          "via_gap": 0.0,
          "width": 0.0
        }
      ],
      "drc_exclusions": [],
      "meta": {
        "version": 1
      },
      "rule_severities": {
        "annular_width": "error",
        "clearance": "error",
        "copper_edge_clearance": "error",
        "courtyards_overlap": "warning",
        "diff_pair_gap_out_of_range": "error",
        "diff_pair_uncoupled_length_too_long": "error",
        "drill_out_of_range": "error",
        "duplicate_footprints": "warning",
        "extra_footprint": "warning",
        "hole_clearance": "error",
        "hole_near_hole": "error",
        "invalid_outline": "error",
        "item_on_disabled_layer": "error",
        "items_not_allowed": "error",
        "length_out_of_range": "error",
        "malformed_courtyard": "error",
        "microvia_drill_out_of_range": "error",
        "missing_courtyard": "ignore",
        "missing_footprint": "warning",
        "net_conflict": "warning",
        "npth_inside_courtyard": "ignore",
        "padstack": "error",
        "pth_inside_courtyard": "ignore",
        "shorting_items": "error",
        "silk_over_copper": "warning",
        "silk_overlap": "ignore",
        "skew_out_of_range": "error",
        "too_many_vias": "error",
        "track_dangling": "warning",
        "track_width": "error",
        "tracks_crossing": "error",
        "unconnected_items": "error",
        "unresolved_variable": "error",
        "via_dangling": "ignore",
        "zone_has_empty_net": "error",
        "zones_intersect": "error"
      },
      "rules": {
        "allow_blind_buried_vias": false,
        "allow_microvias": false,
        "max_error": 0.005,
        "min_clearance": 0.0,
        "min_copper_edge_clearance": 0.0,
        "min_hole_clearance": 0.0,
        "min_hole_to_hole": 0.25,
        "min_microvia_diameter": 0.19999999999999998,
        "min_microvia_drill": 0.09999999999999999,
        "min_silk_clearance": 0.0,
        "min_through_hole_diameter": 0.3,
        "min_track_width": 0.15,
        "min_via_annular_width": 0.049999999999999996,
        "min_via_diameter": 0.39999999999999997,
        "solder_mask_clearance": 0.0,
        "solder_mask_min_width": 0.0,
        "solder_paste_clearance": 0.0,
        "solder_paste_margin_ratio": -0.0
      },
      "track_widths": [
        0.0,
        0.2,
        0.4,
        0.6,
        0.8,
        1.2
      ],
      "via_dimensions": [
        {
          "diameter": 0.0,
          "drill": 0.0
        },
        {
          "diameter": 0.6096,
          "drill": 0.3
        },
        {
          "diameter": 0.6604,
          "drill": 0.3048
        },
        {
          "diameter": 0.8128,
          "drill": 0.4064
        }
      ],
      "zones_allow_external_fillets": false,
      "zones_use_no_outline": true
    },
    "layer_presets": []
  },
  "boards": [],
  "cvpcb": {
    "equivalence_files": []
  },
  "erc": {
    "erc_exclusions": [],
    "meta": {
      "version": 0
    },
    "pin_map": [
      [
        0,
        0,
        0,
        0,
        0,
        0,
        1,
        0,
        0,
        0,
        0,
        2
      ],
      [
        0,
        2,
        0,
        1,
        0,
        0,
        1,
        0,
        2,
        2,
        2,
        2
      ],
      [
        0,
        0,
        0,
        0,
        0,
        0,
        1,
        0,
        1,
        0,
        1,
        2
      ],
      [
        0,
        1,
        0,
        0,
        0,
        0,
        1,
        1,
        2,
        1,
        1,
        2
      ],
      [
        0,
        0,
        0,
        0,
        0,
        0,
        1,
        0,
        0,
        0,
        0,
        2
      ],
      [
        0,
        0,
        0,
        0,
        0,
        0,
        0,
        0,
        0,
        0,
        0,
        2
      ],
      [
        1,
        1,
        1,
        1,
        1,
        0,
        1,
        1,
        1,
        1,
        1,
        2
      ],
      [
        0,
        0,
        0,
        1,
        0,
        0,
        1,
        0,
        0,
        0,
        0,
        2
      ],
      [
        0,
        2,
        1,
        2,
        0,
        0,
        1,
        0,
        2,
        2,
        2,
        2
      ],
      [
        0,
        2,
        0,
        1,
        0,
        0,
        1,
        0,
        2,
        0,
        0,
        2
      ],
      [
        0,
        2,
        1,
        1,
        0,
        0,
        1,
        0,
        2,
        0,
        0,
        2
      ],
      [
        2,
        2,
        2,
        2,
        2,
        2,
        2,
        2,
        2,
        2,
        2,
        2
      ]
    ],
    "rule_severities": {
      "bus_definition_conflict": "error",
      "bus_label_syntax": "error",
      "bus_to_bus_conflict": "error",
      "bus_to_net_conflict": "error",
      "different_unit_footprint": "error",
      "different_unit_net": "error",
      "duplicate_reference": "error",
      "duplicate_sheet_names": "error",
      "extra_units": "error",
      "global_label_dangling": "warning",
      "hier_label_mismatch": "error",
      "label_dangling": "error",
      "lib_symbol_issues": "warning",
      "multiple_net_names": "warning",
      "net_not_bus_member": "warning",
      "no_connect_connected": "warning",
      "no_connect_dangling": "warning",
      "pin_not_connected": "error",
      "pin_not_driven": "error",
      "pin_to_pin": "error",
      "power_pin_not_driven": "error",
      "similar_labels": "warning",
      "unannotated": "error",
      "unit_value_mismatch": "error",
      "unresolved_variable": "error",
      "wire_dangling": "error"
    }
  },
  "libraries": {
    "pinned_footprint_libs": [],
    "pinned_symbol_libs": []
  },
  "meta": {
    "filename": "PCB-008-crtpower.kicad_pro",
    "version": 1
  },
  "net_settings": {
    "classes": [
      {
        "bus_width": 6.0,
        "clearance": 0.199898,
        "diff_pair_gap": 0.249936,
        "diff_pair_via_gap": 0.25,
        "diff_pair_width": 0.199898,
        "line_style": 0,
        "microvia_diameter": 0.299974,
        "microvia_drill": 0.100076,
        "name": "Default",
        "pcb_color": "rgba(0, 0, 0, 0.000)",
        "schematic_color": "rgba(0, 0, 0, 0.000)",
        "track_width": 0.199898,
        "via_diameter": 0.8001,
        "via_drill": 0.40005,
        "wire_width": 6.0
      },
      {
        "bus_width": 6.0,
        "clearance": 0.599948,
        "diff_pair_gap": 0.249936,
        "diff_pair_via_gap": 0.25,
        "diff_pair_width": 0.199898,
        "line_style": 0,
        "microvia_diameter": 0.299974,
        "microvia_drill": 0.100076,
        "name": "+150V",
        "nets": [
          "+100V",
          "+132V",
          "/+132V_DCPL"
        ],
        "pcb_color": "rgba(0, 0, 0, 0.000)",
        "schematic_color": "rgba(0, 0, 0, 0.000)",
        "track_width": 0.199898,
        "via_diameter": 0.8001,
        "via_drill": 0.40005,
        "wire_width": 6.0
      },
      {
        "bus_width": 6.0,
        "clearance": 0.599948,
        "diff_pair_gap": 0.249936,
        "diff_pair_via_gap": 0.25,
        "diff_pair_width": 0.199898,
        "line_style": 0,
        "microvia_diameter": 0.299974,
        "microvia_drill": 0.100076,
        "name": "+250V",
        "nets": [
          "+250V",
          "+264V",
          "/+264V_DCPL",
          "/PUMP",
          "/SMPS/-2KVSNUB1",
          "/SMPS/-2KVSNUB2",
          "/SMPS/-2KVSW"
        ],
        "pcb_color": "rgba(0, 0, 0, 0.000)",
        "schematic_color": "rgba(0, 0, 0, 0.000)",
        "track_width": 0.199898,
        "via_diameter": 0.8001,
        "via_drill": 0.40005,
        "wire_width": 6.0
      },
      {
        "bus_width": 6.0,
        "clearance": 0.8001,
        "diff_pair_gap": 0.249936,
        "diff_pair_via_gap": 0.25,
        "diff_pair_width": 0.199898,
        "line_style": 0,
        "microvia_diameter": 0.299974,
        "microvia_drill": 0.100076,
        "name": "+400V",
        "nets": [
          "/SMPS/+8KVSW"
        ],
        "pcb_color": "rgba(0, 0, 0, 0.000)",
        "schematic_color": "rgba(0, 0, 0, 0.000)",
        "track_width": 0.199898,
        "via_diameter": 0.8001,
        "via_drill": 0.40005,
        "wire_width": 6.0
      },
      {
        "bus_width": 6.0,
        "clearance": 1.1049,
        "diff_pair_gap": 0.249936,
        "diff_pair_via_gap": 0.25,
        "diff_pair_width": 0.199898,
        "line_style": 0,
        "microvia_diameter": 0.299974,
        "microvia_drill": 0.100076,
        "name": "-1K5V",
        "nets": [
          "/K10",
          "/SMPS/-1500V",
          "/SMPS/2KFB3",
          "/SMPS/SW1500V",
          "/VA1"
        ],
        "pcb_color": "rgba(0, 0, 0, 0.000)",
        "schematic_color": "rgba(0, 0, 0, 0.000)",
        "track_width": 0.199898,
        "via_diameter": 0.8001,
        "via_drill": 0.40005,
        "wire_width": 6.0
      },
      {
        "bus_width": 6.0,
        "clearance": 0.8001,
        "diff_pair_gap": 0.249936,
        "diff_pair_via_gap": 0.25,
        "diff_pair_width": 0.199898,
        "line_style": 0,
        "microvia_diameter": 0.299974,
        "microvia_drill": 0.100076,
        "name": "-1KV",
        "nets": [
          "/SMPS/-1000V",
          "/SMPS/2KFB2",
          "/SMPS/SW1000V"
        ],
        "pcb_color": "rgba(0, 0, 0, 0.000)",
        "schematic_color": "rgba(0, 0, 0, 0.000)",
        "track_width": 0.199898,
        "via_diameter": 0.8001,
        "via_drill": 0.40005,
        "wire_width": 6.0
      },
      {
        "bus_width": 6.0,
        "clearance": 0.8001,
        "diff_pair_gap": 0.249936,
        "diff_pair_via_gap": 0.25,
        "diff_pair_width": 0.199898,
        "line_style": 0,
        "microvia_diameter": 0.299974,
        "microvia_drill": 0.100076,
        "name": "-2KV",
        "nets": [
          "/GRID",
          "/K1",
          "/K11",
          "/K12",
          "/K13",
          "/K2",
          "/K3",
          "/K4",
          "/SMPS/-2000V",
          "/SMPS/SW2000V",
          "CATHODE",
          "FIL-",
          "VKK"
        ],
        "pcb_color": "rgba(0, 0, 0, 0.000)",
        "schematic_color": "rgba(0, 0, 0, 0.000)",
        "track_width": 0.199898,
        "via_diameter": 0.8001,
        "via_drill": 0.40005,
        "wire_width": 6.0
      },
      {
        "bus_width": 6.0,
        "clearance": 0.8001,
        "diff_pair_gap": 0.249936,
        "diff_pair_via_gap": 0.25,
        "diff_pair_width": 0.199898,
        "line_style": 0,
        "microvia_diameter": 0.299974,
        "microvia_drill": 0.100076,
        "name": "-500V",
        "nets": [
          "/SMPS/-500V",
          "/SMPS/2KFB1",
          "/SMPS/SW500V",
          "/SMPS/SW500V2"
        ],
        "pcb_color": "rgba(0, 0, 0, 0.000)",
        "schematic_color": "rgba(0, 0, 0, 0.000)",
        "track_width": 0.199898,
        "via_diameter": 0.8001,
        "via_drill": 0.40005,
        "wire_width": 6.0
      },
      {
        "bus_width": 6.0,
        "clearance": 0.249936,
        "diff_pair_gap": 0.249936,
        "diff_pair_via_gap": 0.25,
        "diff_pair_width": 0.199898,
        "line_style": 0,
        "microvia_diameter": 0.299974,
        "microvia_drill": 0.100076,
        "name": "FILAMENT",
        "nets": [
          "/SMPS/FIL-_PROT",
          "/SMPS/FIL_AC1",
          "/SMPS/FIL_AC2",
          "/SMPS/FIL_DC+",
          "/SMPS/FIL_DC-",
          "/SMPS/FIL_TIMING",
          "FIL+"
        ],
        "pcb_color": "rgba(0, 0, 0, 0.000)",
        "schematic_color": "rgba(0, 0, 0, 0.000)",
        "track_width": 0.199898,
        "via_diameter": 0.8001,
        "via_drill": 0.40005,
        "wire_width": 6.0
      }
    ],
    "meta": {
      "version": 0
    },
    "net_colors": null
  },
  "pcbnew": {
    "last_paths": {
      "gencad": "",
      "idf": "",
      "netlist": "",
      "specctra_dsn": "",
      "step": "PCB-008-crtpower.step",
      "vrml": ""
    },
    "page_layout_descr_file": ""
  },
  "schematic": {
    "drawing": {
      "default_bus_thickness": 12.0,
      "default_junction_size": 36.0,
      "default_line_thickness": 6.0,
      "default_text_size": 50.0,
      "default_wire_thickness": 6.0,
      "field_names": [
        {
          "name": "BOM",
          "url": false,
          "visible": false
        }
      ],
      "intersheets_ref_prefix": "",
      "intersheets_ref_short": false,
      "intersheets_ref_show": false,
      "intersheets_ref_suffix": "",
      "junction_size_choice": 3,
      "pin_symbol_size": 25.0,
      "text_offset_ratio": 0.3
    },
    "legacy_lib_dir": "",
    "legacy_lib_list": [],
    "meta": {
      "version": 0
    },
    "net_format_name": "",
    "page_layout_descr_file": "../../libraries/basic.kicad_wks",
    "plot_directory": "hpgl",
    "spice_adjust_passive_values": false,
    "spice_external_command": "spice \"%I\"",
    "subpart_first_id": 65,
    "subpart_id_separator": 0
  },
  "sheets": [
    [
      "ed95de0a-3206-4f9f-a14f-dc5ee1cc18ff",
      ""
    ],
    [
      "ed95de0a-3206-4f9f-a14f-dc5ee1cc18ff",
      "SMPS"
    ]
  ],
  "text_variables": {}
}
