(kicad_pcb (version 20200829) (generator pcbnew)

  (general
    (thickness 1.6)
  )

  (paper "A4")
  (layers
    (0 "F.Cu" signal)
    (31 "B.Cu" signal)
    (32 "B.Adhes" user)
    (33 "F.Adhes" user)
    (34 "B.Paste" user)
    (35 "F.Paste" user)
    (36 "B.SilkS" user)
    (37 "F.SilkS" user)
    (38 "B.Mask" user)
    (39 "F.Mask" user)
    (40 "Dwgs.User" user)
    (41 "Cmts.User" user)
    (42 "Eco1.User" user)
    (43 "Eco2.User" user)
    (44 "Edge.Cuts" user)
    (45 "Margin" user)
    (46 "B.CrtYd" user)
    (47 "F.CrtYd" user)
    (48 "B.Fab" user)
    (49 "F.Fab" user)
  )

  (setup
    (pcbplotparams
      (layerselection 0x010fc_ffffffff)
      (usegerberextensions false)
      (usegerberattributes true)
      (usegerberadvancedattributes true)
      (creategerberjobfile true)
      (svguseinch false)
      (svgprecision 6)
      (excludeedgelayer true)
      (linewidth 0.100000)
      (plotframeref false)
      (viasonmask false)
      (mode 1)
      (useauxorigin false)
      (hpglpennumber 1)
      (hpglpenspeed 20)
      (hpglpendiameter 15.000000)
      (psnegative false)
      (psa4output false)
      (plotreference true)
      (plotvalue true)
      (plotinvisibletext false)
      (sketchpadsonfab false)
      (subtractmaskfromsilk false)
      (outputformat 1)
      (mirror false)
      (drillshape 1)
      (scaleselection 1)
      (outputdirectory "")
    )
  )


  (net 0 "")

  (module "MountingHole_3.2mm_M3_Pad_Via" (layer "F.Cu") (tedit 56DDBCCA) (tstamp 03fe7860-6f8b-48d4-98b5-1de62a3b4c83)
    (at 95 125)
    (descr "Mounting Hole 3.2mm, M3")
    (tags "mounting hole 3.2mm m3")
    (attr exclude_from_pos_files exclude_from_bom)
    (fp_text reference "H3" (at 0 -4.2) (layer "F.SilkS")
      (effects (font (size 1 1) (thickness 0.15)))
      (tstamp 19210441-b674-423b-bf19-50e2dc75954b)
    )
    (fp_text value "MountingHole_3.2mm_M3_Pad_Via" (at 0 4.2) (layer "F.Fab")
      (effects (font (size 1 1) (thickness 0.15)))
      (tstamp 312eb3d3-6eb9-4cd0-b545-5b9a3b84ccea)
    )
    (fp_text user "${REFERENCE}" (at 0.3 0) (layer "F.Fab")
      (effects (font (size 1 1) (thickness 0.15)))
      (tstamp 108d19d9-6089-4fc3-a10b-6b0eab3e7c89)
    )
    (fp_circle (center 0 0) (end 3.2 0) (layer "Cmts.User") (width 0.15) (tstamp c33bd135-42e2-46d8-9dd3-2b0d53acac02))
    (fp_circle (center 0 0) (end 3.45 0) (layer "F.CrtYd") (width 0.05) (tstamp eed8e3ec-4bf5-4b35-8599-6587948b4c14))
    (pad "1" thru_hole circle (at -1.697056 1.697056) (size 0.8 0.8) (drill 0.5) (layers *.Cu *.Mask) (tstamp 0b79dd75-e339-4f39-9175-5cd393c6c06f))
    (pad "1" thru_hole circle (at 0 2.4) (size 0.8 0.8) (drill 0.5) (layers *.Cu *.Mask) (tstamp 20e5cdfe-f63a-425e-9362-522a6ceacddf))
    (pad "1" thru_hole circle (at -1.697056 -1.697056) (size 0.8 0.8) (drill 0.5) (layers *.Cu *.Mask) (tstamp 5e762e08-c1d2-48c2-abe8-94e23ed3ee16))
    (pad "1" thru_hole circle (at 0 0) (size 6.4 6.4) (drill 3.2) (layers *.Cu *.Mask) (tstamp 65ec38a3-edcc-476c-bcfa-408b0ddbc6e2))
    (pad "1" thru_hole circle (at 0 -2.4) (size 0.8 0.8) (drill 0.5) (layers *.Cu *.Mask) (tstamp 712f7a8c-646d-43a8-ab98-d7655021d0c2))
    (pad "1" thru_hole circle (at -2.4 0) (size 0.8 0.8) (drill 0.5) (layers *.Cu *.Mask) (tstamp 809fe681-597c-4e09-a67e-7d63dcaabcf2))
    (pad "1" thru_hole circle (at 2.4 0) (size 0.8 0.8) (drill 0.5) (layers *.Cu *.Mask) (tstamp 80bd13e6-8e1b-414a-9ae3-84611bced91f))
    (pad "1" thru_hole circle (at 1.697056 -1.697056) (size 0.8 0.8) (drill 0.5) (layers *.Cu *.Mask) (tstamp a5e8b853-6ddb-49b0-b4ce-2caba68edde4))
    (pad "1" thru_hole circle (at 1.697056 1.697056) (size 0.8 0.8) (drill 0.5) (layers *.Cu *.Mask) (tstamp ddefdc23-7a3d-48c6-a735-6e5ca83377da))
  )

  (module "DIN41612_B_3x32_Horizontal" (layer "F.Cu") (tedit 5EA62425) (tstamp 1cdbbd71-6a56-439c-89c8-40aed378c15c)
    (at 244.7 40.63 -90)
    (descr "DIN 41612 connector, type B, horizontal, 32 pins wide, 2 rows, full configuration")
    (tags "DIN 41512 IEC 60603 B")
    (attr through_hole)
    (fp_text reference "J1" (at -5.08 1.27 -90) (layer "F.SilkS")
      (effects (font (size 1 1) (thickness 0.15)))
      (tstamp d9ffa9b8-995f-47db-a9fb-632e3850dee6)
    )
    (fp_text value "DIN41612_B_3x32_Horizontal" (at 39.37 8.9 -90) (layer "F.Fab")
      (effects (font (size 1 1) (thickness 0.15)))
      (tstamp fe6c8999-9b98-43b9-b737-3a947a22ede3)
    )
    (fp_text user "Board edge" (at 39.37 -7.3 -90) (layer "Cmts.User")
      (effects (font (size 0.7 0.7) (thickness 0.1)))
      (tstamp 182a9c21-e2fc-418a-a45b-826a0322f55d)
    )
    (fp_text user "${REFERENCE}" (at 39.37 -2.54 -90) (layer "F.Fab")
      (effects (font (size 1 1) (thickness 0.15)))
      (tstamp a56a0e47-dfa3-4bf3-9082-1491b86bbe16)
    )
    (fp_line (start -2.53 0.06) (end -7.73 0.06) (layer "F.SilkS") (width 0.15) (tstamp 280a4797-0040-45ae-8143-4ee000683c06))
    (fp_line (start 81.27 -0.44) (end 81.27 0.06) (layer "F.SilkS") (width 0.15) (tstamp 40e2dcd8-b537-4b2d-94b5-6c7885c1ecce))
    (fp_line (start 86.47 0.06) (end 86.47 -5.04) (layer "F.SilkS") (width 0.15) (tstamp 4651ce4c-5909-4c35-84db-c337a09340e6))
    (fp_line (start -2.53 -0.44) (end -2.53 0.06) (layer "F.SilkS") (width 0.15) (tstamp 53b622d2-8d78-48d5-890c-2fb7b57dac1e))
    (fp_line (start 81.27 0.06) (end 86.47 0.06) (layer "F.SilkS") (width 0.15) (tstamp 59b36394-2512-45dd-afe6-1806944b7488))
    (fp_line (start -7.73 0.06) (end -7.73 -5.04) (layer "F.SilkS") (width 0.15) (tstamp 82c660f9-bc0f-47e6-bcc5-03cef0c8a302))
    (fp_line (start -1.35 0) (end -1.95 -0.3) (layer "F.SilkS") (width 0.12) (tstamp 9b909d6f-ed8e-40b7-b815-0e8f19db9295))
    (fp_line (start -1.95 -0.3) (end -1.95 0.3) (layer "F.SilkS") (width 0.12) (tstamp a858ec08-98d0-4de7-b278-635e570ab1b4))
    (fp_line (start -1.95 0.3) (end -1.35 0) (layer "F.SilkS") (width 0.12) (tstamp ef3d9ca0-e447-4a8d-8019-66a894b760b4))
    (fp_line (start -4.38 -5.3) (end 83.12 -5.3) (layer "Dwgs.User") (width 0.08) (tstamp 712f9d51-6977-42c2-9336-a7f5161946d0))
    (fp_line (start 39.37 -6.8) (end 39.37 -5.4) (layer "Cmts.User") (width 0.1) (tstamp 7a6c6803-c86b-41d8-8c35-e8c7b5bf67d0))
    (fp_line (start 39.37 -5.4) (end 39.57 -5.9) (layer "Cmts.User") (width 0.1) (tstamp 99166e8b-3c1d-448d-91f6-e8254959b60f))
    (fp_line (start 39.17 -5.9) (end 39.37 -5.4) (layer "Cmts.User") (width 0.1) (tstamp d7fc3761-bdf5-4d2d-987e-7249e3846f15))
    (fp_line (start -4.88 -5.54) (end -4.88 -13.24) (layer "F.CrtYd") (width 0.05) (tstamp 02efb187-57cd-4eb8-ac51-df645b2a430e))
    (fp_line (start -4.88 -13.24) (end 83.62 -13.24) (layer "F.CrtYd") (width 0.05) (tstamp 0b245f6c-a784-49d2-90d6-053134cba517))
    (fp_line (start -1.35 6.43) (end -1.35 0.46) (layer "F.CrtYd") (width 0.05) (tstamp 24548e94-86fb-4dcd-9e37-d3fdd2642161))
    (fp_line (start -1.35 0.46) (end -8.13 0.46) (layer "F.CrtYd") (width 0.05) (tstamp 602cc61c-5132-4af0-b2c9-fee68f89b105))
    (fp_line (start 83.62 -5.54) (end 86.87 -5.54) (layer "F.CrtYd") (width 0.05) (tstamp 743e8a7c-28fc-4222-ade7-164a649a32d5))
    (fp_line (start -8.13 -5.54) (end -4.88 -5.54) (layer "F.CrtYd") (width 0.05) (tstamp 8002f577-2bd6-49f5-9699-f2d37a47b074))
    (fp_line (start 83.62 -13.24) (end 83.62 -5.54) (layer "F.CrtYd") (width 0.05) (tstamp ac8b23e3-5783-4c06-8067-70cf38212f3f))
    (fp_line (start 86.87 -5.54) (end 86.87 0.46) (layer "F.CrtYd") (width 0.05) (tstamp ba1ab9c0-09bd-4e36-a9ed-64524e0ff146))
    (fp_line (start 86.87 0.46) (end 80.87 0.46) (layer "F.CrtYd") (width 0.05) (tstamp bc494fdf-e99b-4038-a24f-cb6c0502498e))
    (fp_line (start 80.09 0.46) (end 80.09 6.43) (layer "F.CrtYd") (width 0.05) (tstamp bfbda35b-792a-4e08-901a-1d98b488cea8))
    (fp_line (start 80.09 6.43) (end -1.35 6.43) (layer "F.CrtYd") (width 0.05) (tstamp d0e5ee41-5627-4214-8a2c-9118bfbcd320))
    (fp_line (start 80.87 0.46) (end 80.09 0.46) (layer "F.CrtYd") (width 0.05) (tstamp da2492cd-036b-4b55-8309-c50e6a70337f))
    (fp_line (start -8.13 0.46) (end -8.13 -5.54) (layer "F.CrtYd") (width 0.05) (tstamp df0bde58-b577-4323-a742-55c6a9684735))
    (fp_line (start -4.38 -5.04) (end -4.38 -12.74) (layer "F.Fab") (width 0.1) (tstamp 11c6c7cb-b993-4356-a1dd-ebfa359a855b))
    (fp_line (start 83.12 -12.74) (end 83.12 -5.04) (layer "F.Fab") (width 0.1) (tstamp 16c530e6-9ba7-438f-855d-22faf9cafd19))
    (fp_line (start 81.37 -0.54) (end -2.63 -0.54) (layer "F.Fab") (width 0.1) (tstamp 2f8630d5-e9d6-4c74-a27c-e40de15fc7dc))
    (fp_line (start -2.63 -0.04) (end -7.63 -0.04) (layer "F.Fab") (width 0.1) (tstamp 450e393f-f80a-4da5-8f4e-419ac41d12ff))
    (fp_line (start 86.37 -0.04) (end 81.37 -0.04) (layer "F.Fab") (width 0.1) (tstamp 5251df53-d658-4f2c-bbd6-991a8437e757))
    (fp_line (start 86.37 -5.04) (end 86.37 -0.04) (layer "F.Fab") (width 0.1) (tstamp 6d88718f-4c19-4772-af3f-a0ef9797df66))
    (fp_line (start 81.37 -0.04) (end 81.37 -0.54) (layer "F.Fab") (width 0.1) (tstamp 6dd1deb5-4bb1-4c85-837d-8390264ab07c))
    (fp_line (start -7.63 -5.04) (end -4.38 -5.04) (layer "F.Fab") (width 0.1) (tstamp 6f6ff953-0ae7-4f11-963f-83ea4c889278))
    (fp_line (start -4.38 -12.74) (end 83.12 -12.74) (layer "F.Fab") (width 0.1) (tstamp 70f8dd99-0066-4809-81d2-e4fdf83b37e9))
    (fp_line (start 83.12 -5.04) (end 86.37 -5.04) (layer "F.Fab") (width 0.1) (tstamp 94c71e88-a496-4775-8706-5443455bdfdf))
    (fp_line (start -7.63 -0.04) (end -7.63 -5.04) (layer "F.Fab") (width 0.1) (tstamp d2ff1b46-48af-4b7c-a41b-3886e67712ca))
    (fp_line (start -2.63 -0.54) (end -2.63 -0.04) (layer "F.Fab") (width 0.1) (tstamp f6774080-5b19-4eef-8e1f-b5805427941c))
    (pad "" np_thru_hole circle (at -5.08 -2.54 270) (size 2.8 2.8) (drill 2.8) (layers *.Cu *.Mask) (tstamp 54b2292e-eb34-4c0b-a9d6-58be02005da9))
    (pad "" np_thru_hole circle (at 83.82 -2.54 270) (size 2.8 2.8) (drill 2.8) (layers *.Cu *.Mask) (tstamp 73dea05a-6531-46d3-a197-0e807f003930))
    (pad "a1" thru_hole rect (at 0 0 270) (size 1.7 1.7) (drill 1) (layers *.Cu *.Mask) (tstamp cd1e51c6-13b8-4ebf-bd6f-0a2cdd43c38a))
    (pad "a2" thru_hole circle (at 2.54 0 270) (size 1.7 1.7) (drill 1) (layers *.Cu *.Mask) (tstamp 7ba6a694-b091-4b88-9bb3-05844e6bec22))
    (pad "a3" thru_hole circle (at 5.08 0 270) (size 1.7 1.7) (drill 1) (layers *.Cu *.Mask) (tstamp da70dff1-e22f-464a-a50c-3cb7ae2661a7))
    (pad "a4" thru_hole circle (at 7.62 0 270) (size 1.7 1.7) (drill 1) (layers *.Cu *.Mask) (tstamp 6a4f8990-90b3-47ed-a5bf-68d1f711b11c))
    (pad "a5" thru_hole circle (at 10.16 0 270) (size 1.7 1.7) (drill 1) (layers *.Cu *.Mask) (tstamp 962b9bd9-f229-4b3c-a140-04383e5f570c))
    (pad "a6" thru_hole circle (at 12.7 0 270) (size 1.7 1.7) (drill 1) (layers *.Cu *.Mask) (tstamp 536004c6-ee96-4835-a331-e32f41a6c718))
    (pad "a7" thru_hole circle (at 15.24 0 270) (size 1.7 1.7) (drill 1) (layers *.Cu *.Mask) (tstamp 563ffac9-f8ba-4aab-bcca-54431e092389))
    (pad "a8" thru_hole circle (at 17.78 0 270) (size 1.7 1.7) (drill 1) (layers *.Cu *.Mask) (tstamp 31cd8ab5-da30-4319-b06f-f3e2a0341478))
    (pad "a9" thru_hole circle (at 20.32 0 270) (size 1.7 1.7) (drill 1) (layers *.Cu *.Mask) (tstamp 98527274-0c3a-45fc-b02d-efa4257bfd18))
    (pad "a10" thru_hole circle (at 22.86 0 270) (size 1.7 1.7) (drill 1) (layers *.Cu *.Mask) (tstamp 9b43eb33-b5fa-44cc-a9d0-60cfd3765038))
    (pad "a11" thru_hole circle (at 25.4 0 270) (size 1.7 1.7) (drill 1) (layers *.Cu *.Mask) (tstamp 0215574e-637e-4394-854a-3505de47dd06))
    (pad "a12" thru_hole circle (at 27.94 0 270) (size 1.7 1.7) (drill 1) (layers *.Cu *.Mask) (tstamp ad6c2cc2-f7de-4804-820a-a526815152f1))
    (pad "a13" thru_hole circle (at 30.48 0 270) (size 1.7 1.7) (drill 1) (layers *.Cu *.Mask) (tstamp dffd5784-bfb3-459e-a707-cb6d3a4df1a8))
    (pad "a14" thru_hole circle (at 33.02 0 270) (size 1.7 1.7) (drill 1) (layers *.Cu *.Mask) (tstamp 8bf123f1-5347-42f3-94e3-d753e976c4b5))
    (pad "a15" thru_hole circle (at 35.56 0 270) (size 1.7 1.7) (drill 1) (layers *.Cu *.Mask) (tstamp 0a5e29aa-8540-48de-89d6-e5122c62d1c1))
    (pad "a16" thru_hole circle (at 38.1 0 270) (size 1.7 1.7) (drill 1) (layers *.Cu *.Mask) (tstamp b5885f06-4dce-460d-8259-9f355a55eeb9))
    (pad "a17" thru_hole circle (at 40.64 0 270) (size 1.7 1.7) (drill 1) (layers *.Cu *.Mask) (tstamp 8f66387f-033d-4bf8-b431-474cba102213))
    (pad "a18" thru_hole circle (at 43.18 0 270) (size 1.7 1.7) (drill 1) (layers *.Cu *.Mask) (tstamp 4b71438d-a61d-40cd-8fba-5586d5175505))
    (pad "a19" thru_hole circle (at 45.72 0 270) (size 1.7 1.7) (drill 1) (layers *.Cu *.Mask) (tstamp 55734f36-ea71-4aed-9c13-e5b0de343534))
    (pad "a20" thru_hole circle (at 48.26 0 270) (size 1.7 1.7) (drill 1) (layers *.Cu *.Mask) (tstamp f5e542e4-7056-4159-87c0-4a2781ba49a5))
    (pad "a21" thru_hole circle (at 50.8 0 270) (size 1.7 1.7) (drill 1) (layers *.Cu *.Mask) (tstamp 55201f55-a90e-483e-804b-da7404fae75a))
    (pad "a22" thru_hole circle (at 53.34 0 270) (size 1.7 1.7) (drill 1) (layers *.Cu *.Mask) (tstamp c6458092-6d80-42bc-9438-1ea606c38a9c))
    (pad "a23" thru_hole circle (at 55.88 0 270) (size 1.7 1.7) (drill 1) (layers *.Cu *.Mask) (tstamp c73201fd-1b14-45b5-a22f-8364f4890488))
    (pad "a24" thru_hole circle (at 58.42 0 270) (size 1.7 1.7) (drill 1) (layers *.Cu *.Mask) (tstamp b258f065-29ac-48e3-b917-4531f312f54d))
    (pad "a25" thru_hole circle (at 60.96 0 270) (size 1.7 1.7) (drill 1) (layers *.Cu *.Mask) (tstamp 367c1380-c203-4541-b9e1-19c80c106dc8))
    (pad "a26" thru_hole circle (at 63.5 0 270) (size 1.7 1.7) (drill 1) (layers *.Cu *.Mask) (tstamp a9b48071-5ab0-4a1d-971c-e23546909456))
    (pad "a27" thru_hole circle (at 66.04 0 270) (size 1.7 1.7) (drill 1) (layers *.Cu *.Mask) (tstamp c9eee169-946b-45a2-a83c-b52267e59021))
    (pad "a28" thru_hole circle (at 68.58 0 270) (size 1.7 1.7) (drill 1) (layers *.Cu *.Mask) (tstamp 66f120a8-f2e5-4023-8c3c-c00ffbefccb4))
    (pad "a29" thru_hole circle (at 71.12 0 270) (size 1.7 1.7) (drill 1) (layers *.Cu *.Mask) (tstamp e61e17a4-552e-46f0-9f0c-6cb171e5ce3d))
    (pad "a30" thru_hole circle (at 73.66 0 270) (size 1.7 1.7) (drill 1) (layers *.Cu *.Mask) (tstamp e0ec1241-43dd-4a4a-8bad-eb4d533422fd))
    (pad "a31" thru_hole circle (at 76.2 0 270) (size 1.7 1.7) (drill 1) (layers *.Cu *.Mask) (tstamp 325097fb-6bd0-400f-af94-d8bc9332c0a1))
    (pad "a32" thru_hole circle (at 78.74 0 270) (size 1.7 1.7) (drill 1) (layers *.Cu *.Mask) (tstamp 4c3e35c2-107e-4cf9-bc6f-4668b7e1984d))
    (pad "b1" thru_hole circle (at 0 2.54 270) (size 1.7 1.7) (drill 1) (layers *.Cu *.Mask) (tstamp 50bc1f5f-db9b-4c8c-add5-db68aae7f3ef))
    (pad "b2" thru_hole circle (at 2.54 2.54 270) (size 1.7 1.7) (drill 1) (layers *.Cu *.Mask) (tstamp 6ff878aa-bd6b-4103-b462-46ae4a8444a7))
    (pad "b3" thru_hole circle (at 5.08 2.54 270) (size 1.7 1.7) (drill 1) (layers *.Cu *.Mask) (tstamp 448f5298-3c47-4219-8ba2-dcb4608910e7))
    (pad "b4" thru_hole circle (at 7.62 2.54 270) (size 1.7 1.7) (drill 1) (layers *.Cu *.Mask) (tstamp ecb432c2-db8c-4150-ac8d-b7ae190c28ef))
    (pad "b5" thru_hole circle (at 10.16 2.54 270) (size 1.7 1.7) (drill 1) (layers *.Cu *.Mask) (tstamp d30857ef-bce2-473f-9d3a-b26a1b50fa31))
    (pad "b6" thru_hole circle (at 12.7 2.54 270) (size 1.7 1.7) (drill 1) (layers *.Cu *.Mask) (tstamp 5a34350f-6c92-4a38-a932-782b770caf49))
    (pad "b7" thru_hole circle (at 15.24 2.54 270) (size 1.7 1.7) (drill 1) (layers *.Cu *.Mask) (tstamp dd1f6bce-8b37-45cc-af1b-3e87160b9747))
    (pad "b8" thru_hole circle (at 17.78 2.54 270) (size 1.7 1.7) (drill 1) (layers *.Cu *.Mask) (tstamp ce144e01-6a82-44e4-b70c-809cdbc20a3e))
    (pad "b9" thru_hole circle (at 20.32 2.54 270) (size 1.7 1.7) (drill 1) (layers *.Cu *.Mask) (tstamp 81c6ac24-242a-449b-bb16-6fad1ac73c41))
    (pad "b10" thru_hole circle (at 22.86 2.54 270) (size 1.7 1.7) (drill 1) (layers *.Cu *.Mask) (tstamp b199164c-a84a-418c-b42f-906d23b3daf7))
    (pad "b11" thru_hole circle (at 25.4 2.54 270) (size 1.7 1.7) (drill 1) (layers *.Cu *.Mask) (tstamp 4e49fd65-11dc-4948-8f30-9096682d1a1d))
    (pad "b12" thru_hole circle (at 27.94 2.54 270) (size 1.7 1.7) (drill 1) (layers *.Cu *.Mask) (tstamp c524d100-a85f-43c6-b149-6e85e0017c3e))
    (pad "b13" thru_hole circle (at 30.48 2.54 270) (size 1.7 1.7) (drill 1) (layers *.Cu *.Mask) (tstamp 276a85b9-7912-4c39-bd8b-0eaff8ac0ab2))
    (pad "b14" thru_hole circle (at 33.02 2.54 270) (size 1.7 1.7) (drill 1) (layers *.Cu *.Mask) (tstamp 0e1d0dbb-0a40-4c71-9503-059dfb5afd93))
    (pad "b15" thru_hole circle (at 35.56 2.54 270) (size 1.7 1.7) (drill 1) (layers *.Cu *.Mask) (tstamp 7af7057e-37d5-41cd-9032-d04dff1b7215))
    (pad "b16" thru_hole circle (at 38.1 2.54 270) (size 1.7 1.7) (drill 1) (layers *.Cu *.Mask) (tstamp 99654624-31fe-45ce-8140-13393b28b889))
    (pad "b17" thru_hole circle (at 40.64 2.54 270) (size 1.7 1.7) (drill 1) (layers *.Cu *.Mask) (tstamp 14cb4881-5928-4535-859a-57c26a58be2d))
    (pad "b18" thru_hole circle (at 43.18 2.54 270) (size 1.7 1.7) (drill 1) (layers *.Cu *.Mask) (tstamp fd2f98f6-2279-4704-b67a-cf71415d4be9))
    (pad "b19" thru_hole circle (at 45.72 2.54 270) (size 1.7 1.7) (drill 1) (layers *.Cu *.Mask) (tstamp 8cd41079-1b4b-4835-ae01-f31df54b770c))
    (pad "b20" thru_hole circle (at 48.26 2.54 270) (size 1.7 1.7) (drill 1) (layers *.Cu *.Mask) (tstamp 7925dac4-64a8-4230-a18a-1216131071a9))
    (pad "b21" thru_hole circle (at 50.8 2.54 270) (size 1.7 1.7) (drill 1) (layers *.Cu *.Mask) (tstamp 04c10e9c-305b-46b5-80fe-ef05246d5eb3))
    (pad "b22" thru_hole circle (at 53.34 2.54 270) (size 1.7 1.7) (drill 1) (layers *.Cu *.Mask) (tstamp e9f2fd35-5765-4314-8f5d-bf198669e09e))
    (pad "b23" thru_hole circle (at 55.88 2.54 270) (size 1.7 1.7) (drill 1) (layers *.Cu *.Mask) (tstamp 3f221e68-3bce-47ca-bf00-6ba9f2ddb570))
    (pad "b24" thru_hole circle (at 58.42 2.54 270) (size 1.7 1.7) (drill 1) (layers *.Cu *.Mask) (tstamp 05228886-9078-410e-b1c3-570dfab26393))
    (pad "b25" thru_hole circle (at 60.96 2.54 270) (size 1.7 1.7) (drill 1) (layers *.Cu *.Mask) (tstamp 4de000fa-2220-4190-9cd1-40d5b27f7abf))
    (pad "b26" thru_hole circle (at 63.5 2.54 270) (size 1.7 1.7) (drill 1) (layers *.Cu *.Mask) (tstamp 992eccf1-28fc-4d8c-bb21-6ca5a7caf6cc))
    (pad "b27" thru_hole circle (at 66.04 2.54 270) (size 1.7 1.7) (drill 1) (layers *.Cu *.Mask) (tstamp d225af73-409a-4b7b-bb0f-1f4e9627e844))
    (pad "b28" thru_hole circle (at 68.58 2.54 270) (size 1.7 1.7) (drill 1) (layers *.Cu *.Mask) (tstamp 111f1048-a327-4be6-aef1-e06ed66f9224))
    (pad "b29" thru_hole circle (at 71.12 2.54 270) (size 1.7 1.7) (drill 1) (layers *.Cu *.Mask) (tstamp eb27bbc9-7221-47f1-bf7b-a5e74ddfa4a4))
    (pad "b30" thru_hole circle (at 73.66 2.54 270) (size 1.7 1.7) (drill 1) (layers *.Cu *.Mask) (tstamp 85fe6c6b-36d2-4bf7-a9ae-91dbd9d5b38e))
    (pad "b31" thru_hole circle (at 76.2 2.54 270) (size 1.7 1.7) (drill 1) (layers *.Cu *.Mask) (tstamp 1872f5a8-2adf-4eed-94a2-6ac1d784bbbe))
    (pad "b32" thru_hole circle (at 78.74 2.54 270) (size 1.7 1.7) (drill 1) (layers *.Cu *.Mask) (tstamp e6585354-a4ec-434c-96ae-f56cd3c15443))
    (pad "c1" thru_hole circle (at 0 5.08 270) (size 1.7 1.7) (drill 1) (layers *.Cu *.Mask) (tstamp 50bc1f5f-db9b-4c8c-add5-db68aae7f3ef))
    (pad "c2" thru_hole circle (at 2.54 5.08 270) (size 1.7 1.7) (drill 1) (layers *.Cu *.Mask) (tstamp 6ff878aa-bd6b-4103-b462-46ae4a8444a7))
    (pad "c3" thru_hole circle (at 5.08 5.08 270) (size 1.7 1.7) (drill 1) (layers *.Cu *.Mask) (tstamp 448f5298-3c47-4219-8ba2-dcb4608910e7))
    (pad "c4" thru_hole circle (at 7.62 5.08 270) (size 1.7 1.7) (drill 1) (layers *.Cu *.Mask) (tstamp ecb432c2-db8c-4150-ac8d-b7ae190c28ef))
    (pad "c5" thru_hole circle (at 10.16 5.08 270) (size 1.7 1.7) (drill 1) (layers *.Cu *.Mask) (tstamp d30857ef-bce2-473f-9d3a-b26a1b50fa31))
    (pad "c6" thru_hole circle (at 12.7 5.08 270) (size 1.7 1.7) (drill 1) (layers *.Cu *.Mask) (tstamp 5a34350f-6c92-4a38-a932-782b770caf49))
    (pad "c7" thru_hole circle (at 15.24 5.08 270) (size 1.7 1.7) (drill 1) (layers *.Cu *.Mask) (tstamp dd1f6bce-8b37-45cc-af1b-3e87160b9747))
    (pad "c8" thru_hole circle (at 17.78 5.08 270) (size 1.7 1.7) (drill 1) (layers *.Cu *.Mask) (tstamp ce144e01-6a82-44e4-b70c-809cdbc20a3e))
    (pad "c9" thru_hole circle (at 20.32 5.08 270) (size 1.7 1.7) (drill 1) (layers *.Cu *.Mask) (tstamp 81c6ac24-242a-449b-bb16-6fad1ac73c41))
    (pad "c10" thru_hole circle (at 22.86 5.08 270) (size 1.7 1.7) (drill 1) (layers *.Cu *.Mask) (tstamp b199164c-a84a-418c-b42f-906d23b3daf7))
    (pad "c11" thru_hole circle (at 25.4 5.08 270) (size 1.7 1.7) (drill 1) (layers *.Cu *.Mask) (tstamp 4e49fd65-11dc-4948-8f30-9096682d1a1d))
    (pad "c12" thru_hole circle (at 27.94 5.08 270) (size 1.7 1.7) (drill 1) (layers *.Cu *.Mask) (tstamp c524d100-a85f-43c6-b149-6e85e0017c3e))
    (pad "c13" thru_hole circle (at 30.48 5.08 270) (size 1.7 1.7) (drill 1) (layers *.Cu *.Mask) (tstamp 276a85b9-7912-4c39-bd8b-0eaff8ac0ab2))
    (pad "c14" thru_hole circle (at 33.02 5.08 270) (size 1.7 1.7) (drill 1) (layers *.Cu *.Mask) (tstamp 0e1d0dbb-0a40-4c71-9503-059dfb5afd93))
    (pad "c15" thru_hole circle (at 35.56 5.08 270) (size 1.7 1.7) (drill 1) (layers *.Cu *.Mask) (tstamp 7af7057e-37d5-41cd-9032-d04dff1b7215))
    (pad "c16" thru_hole circle (at 38.1 5.08 270) (size 1.7 1.7) (drill 1) (layers *.Cu *.Mask) (tstamp 99654624-31fe-45ce-8140-13393b28b889))
    (pad "c17" thru_hole circle (at 40.64 5.08 270) (size 1.7 1.7) (drill 1) (layers *.Cu *.Mask) (tstamp 14cb4881-5928-4535-859a-57c26a58be2d))
    (pad "c18" thru_hole circle (at 43.18 5.08 270) (size 1.7 1.7) (drill 1) (layers *.Cu *.Mask) (tstamp fd2f98f6-2279-4704-b67a-cf71415d4be9))
    (pad "c19" thru_hole circle (at 45.72 5.08 270) (size 1.7 1.7) (drill 1) (layers *.Cu *.Mask) (tstamp 8cd41079-1b4b-4835-ae01-f31df54b770c))
    (pad "c20" thru_hole circle (at 48.26 5.08 270) (size 1.7 1.7) (drill 1) (layers *.Cu *.Mask) (tstamp 7925dac4-64a8-4230-a18a-1216131071a9))
    (pad "c21" thru_hole circle (at 50.8 5.08 270) (size 1.7 1.7) (drill 1) (layers *.Cu *.Mask) (tstamp 04c10e9c-305b-46b5-80fe-ef05246d5eb3))
    (pad "c22" thru_hole circle (at 53.34 5.08 270) (size 1.7 1.7) (drill 1) (layers *.Cu *.Mask) (tstamp e9f2fd35-5765-4314-8f5d-bf198669e09e))
    (pad "c23" thru_hole circle (at 55.88 5.08 270) (size 1.7 1.7) (drill 1) (layers *.Cu *.Mask) (tstamp 3f221e68-3bce-47ca-bf00-6ba9f2ddb570))
    (pad "c24" thru_hole circle (at 58.42 5.08 270) (size 1.7 1.7) (drill 1) (layers *.Cu *.Mask) (tstamp 05228886-9078-410e-b1c3-570dfab26393))
    (pad "c25" thru_hole circle (at 60.96 5.08 270) (size 1.7 1.7) (drill 1) (layers *.Cu *.Mask) (tstamp 4de000fa-2220-4190-9cd1-40d5b27f7abf))
    (pad "c26" thru_hole circle (at 63.5 5.08 270) (size 1.7 1.7) (drill 1) (layers *.Cu *.Mask) (tstamp 992eccf1-28fc-4d8c-bb21-6ca5a7caf6cc))
    (pad "c27" thru_hole circle (at 66.04 5.08 270) (size 1.7 1.7) (drill 1) (layers *.Cu *.Mask) (tstamp d225af73-409a-4b7b-bb0f-1f4e9627e844))
    (pad "c28" thru_hole circle (at 68.58 5.08 270) (size 1.7 1.7) (drill 1) (layers *.Cu *.Mask) (tstamp 111f1048-a327-4be6-aef1-e06ed66f9224))
    (pad "c29" thru_hole circle (at 71.12 5.08 270) (size 1.7 1.7) (drill 1) (layers *.Cu *.Mask) (tstamp eb27bbc9-7221-47f1-bf7b-a5e74ddfa4a4))
    (pad "c30" thru_hole circle (at 73.66 5.08 270) (size 1.7 1.7) (drill 1) (layers *.Cu *.Mask) (tstamp 85fe6c6b-36d2-4bf7-a9ae-91dbd9d5b38e))
    (pad "c31" thru_hole circle (at 76.2 5.08 270) (size 1.7 1.7) (drill 1) (layers *.Cu *.Mask) (tstamp 1872f5a8-2adf-4eed-94a2-6ac1d784bbbe))
    (pad "c32" thru_hole circle (at 78.74 5.08 270) (size 1.7 1.7) (drill 1) (layers *.Cu *.Mask) (tstamp e6585354-a4ec-434c-96ae-f56cd3c15443))
    (model "${KISYS3DMOD}/Connector_DIN.3dshapes/DIN41612_B_2x32_Horizontal.wrl"
      (offset (xyz 0 0 0))
      (scale (xyz 1 1 1))
      (rotate (xyz 0 0 0))
    )
  )

  (module "MountingHole_3.2mm_M3_Pad_Via" (layer "F.Cu") (tedit 56DDBCCA) (tstamp 49ee4baa-9fab-46fe-908d-3732931e69de)
    (at 115 35)
    (descr "Mounting Hole 3.2mm, M3")
    (tags "mounting hole 3.2mm m3")
    (attr exclude_from_pos_files exclude_from_bom)
    (fp_text reference "H2" (at 0 -4.2) (layer "F.SilkS")
      (effects (font (size 1 1) (thickness 0.15)))
      (tstamp 8bdbc5aa-29f9-4ebf-8c4f-46ec65e69f1c)
    )
    (fp_text value "MountingHole_3.2mm_M3_Pad_Via" (at 0 4.2) (layer "F.Fab")
      (effects (font (size 1 1) (thickness 0.15)))
      (tstamp 3450dc96-bb2c-47b7-955d-b10c7069ff09)
    )
    (fp_text user "${REFERENCE}" (at 0.3 0) (layer "F.Fab")
      (effects (font (size 1 1) (thickness 0.15)))
      (tstamp 373faaa0-1310-472b-a315-0221f832cd04)
    )
    (fp_circle (center 0 0) (end 3.2 0) (layer "Cmts.User") (width 0.15) (tstamp e826ae5b-ca43-4236-9926-6314dcad68de))
    (fp_circle (center 0 0) (end 3.45 0) (layer "F.CrtYd") (width 0.05) (tstamp 3f480b06-aee2-463a-861b-028522b86fcc))
    (pad "1" thru_hole circle (at -1.697056 1.697056) (size 0.8 0.8) (drill 0.5) (layers *.Cu *.Mask) (tstamp 0b79dd75-e339-4f39-9175-5cd393c6c06f))
    (pad "1" thru_hole circle (at 0 2.4) (size 0.8 0.8) (drill 0.5) (layers *.Cu *.Mask) (tstamp 20e5cdfe-f63a-425e-9362-522a6ceacddf))
    (pad "1" thru_hole circle (at -1.697056 -1.697056) (size 0.8 0.8) (drill 0.5) (layers *.Cu *.Mask) (tstamp 5e762e08-c1d2-48c2-abe8-94e23ed3ee16))
    (pad "1" thru_hole circle (at 0 0) (size 6.4 6.4) (drill 3.2) (layers *.Cu *.Mask) (tstamp 65ec38a3-edcc-476c-bcfa-408b0ddbc6e2))
    (pad "1" thru_hole circle (at 0 -2.4) (size 0.8 0.8) (drill 0.5) (layers *.Cu *.Mask) (tstamp 712f7a8c-646d-43a8-ab98-d7655021d0c2))
    (pad "1" thru_hole circle (at -2.4 0) (size 0.8 0.8) (drill 0.5) (layers *.Cu *.Mask) (tstamp 809fe681-597c-4e09-a67e-7d63dcaabcf2))
    (pad "1" thru_hole circle (at 2.4 0) (size 0.8 0.8) (drill 0.5) (layers *.Cu *.Mask) (tstamp 80bd13e6-8e1b-414a-9ae3-84611bced91f))
    (pad "1" thru_hole circle (at 1.697056 -1.697056) (size 0.8 0.8) (drill 0.5) (layers *.Cu *.Mask) (tstamp a5e8b853-6ddb-49b0-b4ce-2caba68edde4))
    (pad "1" thru_hole circle (at 1.697056 1.697056) (size 0.8 0.8) (drill 0.5) (layers *.Cu *.Mask) (tstamp ddefdc23-7a3d-48c6-a735-6e5ca83377da))
  )

  (module "MountingHole_3.2mm_M3_Pad_Via" (layer "F.Cu") (tedit 56DDBCCA) (tstamp 560ab074-b98d-4f4c-8208-e497d4a44369)
    (at 95 35)
    (descr "Mounting Hole 3.2mm, M3")
    (tags "mounting hole 3.2mm m3")
    (attr exclude_from_pos_files exclude_from_bom)
    (fp_text reference "H1" (at 0 -4.2) (layer "F.SilkS")
      (effects (font (size 1 1) (thickness 0.15)))
      (tstamp 64164f05-e140-4dc5-b2f1-bb3ffd83c57b)
    )
    (fp_text value "MountingHole_3.2mm_M3_Pad_Via" (at 0 4.2) (layer "F.Fab")
      (effects (font (size 1 1) (thickness 0.15)))
      (tstamp bee1bb20-6e51-4947-9409-8c89a38f6338)
    )
    (fp_text user "${REFERENCE}" (at 0.3 0) (layer "F.Fab")
      (effects (font (size 1 1) (thickness 0.15)))
      (tstamp 49a9accd-e379-4b02-9794-d8b908f9626c)
    )
    (fp_circle (center 0 0) (end 3.2 0) (layer "Cmts.User") (width 0.15) (tstamp ccbe77e2-1c23-46ea-9cc0-7f6f8c5952f6))
    (fp_circle (center 0 0) (end 3.45 0) (layer "F.CrtYd") (width 0.05) (tstamp a2cdb07f-46a1-4628-886d-b81ca7fce0fe))
    (pad "1" thru_hole circle (at -1.697056 1.697056) (size 0.8 0.8) (drill 0.5) (layers *.Cu *.Mask) (tstamp 0b79dd75-e339-4f39-9175-5cd393c6c06f))
    (pad "1" thru_hole circle (at 0 2.4) (size 0.8 0.8) (drill 0.5) (layers *.Cu *.Mask) (tstamp 20e5cdfe-f63a-425e-9362-522a6ceacddf))
    (pad "1" thru_hole circle (at -1.697056 -1.697056) (size 0.8 0.8) (drill 0.5) (layers *.Cu *.Mask) (tstamp 5e762e08-c1d2-48c2-abe8-94e23ed3ee16))
    (pad "1" thru_hole circle (at 0 0) (size 6.4 6.4) (drill 3.2) (layers *.Cu *.Mask) (tstamp 65ec38a3-edcc-476c-bcfa-408b0ddbc6e2))
    (pad "1" thru_hole circle (at 0 -2.4) (size 0.8 0.8) (drill 0.5) (layers *.Cu *.Mask) (tstamp 712f7a8c-646d-43a8-ab98-d7655021d0c2))
    (pad "1" thru_hole circle (at -2.4 0) (size 0.8 0.8) (drill 0.5) (layers *.Cu *.Mask) (tstamp 809fe681-597c-4e09-a67e-7d63dcaabcf2))
    (pad "1" thru_hole circle (at 2.4 0) (size 0.8 0.8) (drill 0.5) (layers *.Cu *.Mask) (tstamp 80bd13e6-8e1b-414a-9ae3-84611bced91f))
    (pad "1" thru_hole circle (at 1.697056 -1.697056) (size 0.8 0.8) (drill 0.5) (layers *.Cu *.Mask) (tstamp a5e8b853-6ddb-49b0-b4ce-2caba68edde4))
    (pad "1" thru_hole circle (at 1.697056 1.697056) (size 0.8 0.8) (drill 0.5) (layers *.Cu *.Mask) (tstamp ddefdc23-7a3d-48c6-a735-6e5ca83377da))
  )

  (module "MountingHole_3.2mm_M3_Pad_Via" (layer "F.Cu") (tedit 56DDBCCA) (tstamp 7a0f5b35-588e-451c-9b27-f8f151b136ec)
    (at 115 125)
    (descr "Mounting Hole 3.2mm, M3")
    (tags "mounting hole 3.2mm m3")
    (attr exclude_from_pos_files exclude_from_bom)
    (fp_text reference "H4" (at 0 -4.2) (layer "F.SilkS")
      (effects (font (size 1 1) (thickness 0.15)))
      (tstamp 4148bcd8-e242-454a-b4e5-30aa46fee51f)
    )
    (fp_text value "MountingHole_3.2mm_M3_Pad_Via" (at 0 4.2) (layer "F.Fab")
      (effects (font (size 1 1) (thickness 0.15)))
      (tstamp 52402a70-d187-4ed4-af61-c46a8b6a52c2)
    )
    (fp_text user "${REFERENCE}" (at 0.3 0) (layer "F.Fab")
      (effects (font (size 1 1) (thickness 0.15)))
      (tstamp ff37516f-7068-4122-a32e-97f7216dac39)
    )
    (fp_circle (center 0 0) (end 3.2 0) (layer "Cmts.User") (width 0.15) (tstamp 79f82380-b612-45f4-81b3-1e4e3e0fef10))
    (fp_circle (center 0 0) (end 3.45 0) (layer "F.CrtYd") (width 0.05) (tstamp 469747f2-2362-4c08-a0c0-52acb4824ac4))
    (pad "1" thru_hole circle (at -1.697056 1.697056) (size 0.8 0.8) (drill 0.5) (layers *.Cu *.Mask) (tstamp 0b79dd75-e339-4f39-9175-5cd393c6c06f))
    (pad "1" thru_hole circle (at 0 2.4) (size 0.8 0.8) (drill 0.5) (layers *.Cu *.Mask) (tstamp 20e5cdfe-f63a-425e-9362-522a6ceacddf))
    (pad "1" thru_hole circle (at -1.697056 -1.697056) (size 0.8 0.8) (drill 0.5) (layers *.Cu *.Mask) (tstamp 5e762e08-c1d2-48c2-abe8-94e23ed3ee16))
    (pad "1" thru_hole circle (at 0 0) (size 6.4 6.4) (drill 3.2) (layers *.Cu *.Mask) (tstamp 65ec38a3-edcc-476c-bcfa-408b0ddbc6e2))
    (pad "1" thru_hole circle (at 0 -2.4) (size 0.8 0.8) (drill 0.5) (layers *.Cu *.Mask) (tstamp 712f7a8c-646d-43a8-ab98-d7655021d0c2))
    (pad "1" thru_hole circle (at -2.4 0) (size 0.8 0.8) (drill 0.5) (layers *.Cu *.Mask) (tstamp 809fe681-597c-4e09-a67e-7d63dcaabcf2))
    (pad "1" thru_hole circle (at 2.4 0) (size 0.8 0.8) (drill 0.5) (layers *.Cu *.Mask) (tstamp 80bd13e6-8e1b-414a-9ae3-84611bced91f))
    (pad "1" thru_hole circle (at 1.697056 -1.697056) (size 0.8 0.8) (drill 0.5) (layers *.Cu *.Mask) (tstamp a5e8b853-6ddb-49b0-b4ce-2caba68edde4))
    (pad "1" thru_hole circle (at 1.697056 1.697056) (size 0.8 0.8) (drill 0.5) (layers *.Cu *.Mask) (tstamp ddefdc23-7a3d-48c6-a735-6e5ca83377da))
  )

  (gr_line (start 50.5 119) (end 52.5 119) (layer "Dwgs.User") (width 0.1) (tstamp 0760afb0-6dfa-4d3a-a9ea-a1fba905a2e5))
  (gr_line (start 50.5 29) (end 52.5 29) (layer "Dwgs.User") (width 0.1) (tstamp 0b2d8ec3-3fd1-4f3c-a6bd-315bcd5179de))
  (gr_line (start 89 140) (end 88 140) (layer "Dwgs.User") (width 0.1) (tstamp 0c43525e-0850-47a9-a9aa-8af7780972b2))
  (gr_line (start 50 41.5) (end 50 118.5) (layer "Dwgs.User") (width 0.1) (tstamp 1528e48c-ba27-4a3a-ae28-234e66dcdb6a))
  (gr_circle (center 62 135) (end 63.75 135) (layer "Dwgs.User") (width 0.1) (tstamp 28849804-ef60-40c3-bcc7-727ba50346bd))
  (gr_line (start 84 26.5) (end 84 23.5) (layer "Dwgs.User") (width 0.1) (tstamp 2a5c2d44-7377-4738-b7ad-e923f79b57c8))
  (gr_line (start 93 138) (end 93.25 138.5) (layer "Dwgs.User") (width 0.1) (tstamp 2b58065d-677d-4eae-855a-8048b72acdd5))
  (gr_arc (start 50.5 131.5) (end 50.5 131) (angle -90) (layer "Dwgs.User") (width 0.1) (tstamp 2cd84751-3742-4581-b71e-85df1e9cf23b))
  (gr_line (start 50 131.5) (end 50 139) (layer "Dwgs.User") (width 0.1) (tstamp 2dc4e37c-27d6-4345-b7f7-3907096ae87b))
  (gr_line (start 87 136.5) (end 84 136.5) (layer "Dwgs.User") (width 0.1) (tstamp 2e29951c-e376-441c-85dd-d8c300d00714))
  (gr_line (start 96 29) (end 95 29) (layer "Dwgs.User") (width 0.1) (tstamp 3764d507-9582-4f2b-96fe-ff31e910a368))
  (gr_poly (pts
 (xy 95 137)
    (xy 89 137)
    (xy 89 133)
    (xy 95 133)) (layer "Dwgs.User") (width 0.1) (tstamp 46f40275-5a29-451d-92dc-dde28db5f7a8))
  (gr_arc (start 51 21) (end 51 20) (angle -90) (layer "Dwgs.User") (width 0.1) (tstamp 47fea5d7-ba32-473d-adbf-4690e7d17f06))
  (gr_arc (start 52.5 119.5) (end 52.5 120) (angle -180) (layer "Dwgs.User") (width 0.1) (tstamp 4ac387b0-9369-42d2-9357-44a9a0c92a2f))
  (gr_line (start 81 136) (end 82 135) (layer "Dwgs.User") (width 0.1) (tstamp 4b93646e-8e76-46a1-becb-6807ba3d3cc2))
  (gr_line (start 50.5 41) (end 52.5 41) (layer "Dwgs.User") (width 0.1) (tstamp 54333b7e-2cf1-4e5f-b233-05845b671315))
  (gr_line (start 51 31) (end 51 39) (layer "Dwgs.User") (width 0.1) (tstamp 55018119-4846-46b7-81b5-daf9540a50f1))
  (gr_circle (center 23 35) (end 24.6 35) (layer "Dwgs.User") (width 0.1) (tstamp 5853d8bd-0142-4b82-9a27-79a49545d94d))
  (gr_line (start 74 21) (end 74 139) (layer "Dwgs.User") (width 0.1) (tstamp 5fdaae67-842c-4ffa-99eb-9b29177aad9a))
  (gr_line (start 89 20) (end 89 140) (layer "Dwgs.User") (width 0.1) (tstamp 60de786b-f683-4750-a9ca-4a3f8a7872ae))
  (gr_line (start 88 140) (end 88 20) (layer "Dwgs.User") (width 0.1) (tstamp 6152ef79-2df6-4cc6-a5ab-fe8711a8db8f))
  (gr_line (start 39 40) (end 50 40) (layer "Dwgs.User") (width 0.1) (tstamp 66f46ec3-73cf-489c-a4a9-44f37b711ba2))
  (gr_line (start 51 38) (end 51.5 38.5) (layer "Dwgs.User") (width 0.1) (tstamp 6a632456-2a09-48e5-8398-183686db1448))
  (gr_line (start 73 140) (end 51 140) (layer "Dwgs.User") (width 0.1) (tstamp 6c69f022-31de-4002-a20c-8517eb3bc1db))
  (gr_line (start 39 30) (end 39 40) (layer "Dwgs.User") (width 0.1) (tstamp 72d84bc8-37a8-4639-8191-830934ad0f5c))
  (gr_line (start 96 130) (end 96 144) (layer "Dwgs.User") (width 0.1) (tstamp 7351f854-d899-48f3-98f9-8df5f18565a7))
  (gr_arc (start 50.5 118.5) (end 50 118.5) (angle -90) (layer "Dwgs.User") (width 0.1) (tstamp 75716eda-3f05-465f-873c-bfc2f223fed0))
  (gr_arc (start 52.5 130.5) (end 52.5 131) (angle -180) (layer "Dwgs.User") (width 0.1) (tstamp 862cae56-6566-4c82-945d-d187de57fff4))
  (gr_line (start 50.5 131) (end 52.5 131) (layer "Dwgs.User") (width 0.1) (tstamp 895dc09a-954b-49d5-bb41-e9369d1bf136))
  (gr_circle (center 62 25) (end 63.75 25) (layer "Dwgs.User") (width 0.1) (tstamp 913c8bc0-8a34-4215-8825-2e8e7de407d1))
  (gr_line (start 95 29) (end 95 15) (layer "Dwgs.User") (width 0.1) (tstamp 91ec47bb-2887-4fd8-b0a5-e2b6f1c6463c))
  (gr_line (start 88 20) (end 89 20) (layer "Dwgs.User") (width 0.1) (tstamp 926622a3-66e6-453c-a315-cd123048bd1c))
  (gr_arc (start 73 139) (end 73 140) (angle -90) (layer "Dwgs.User") (width 0.1) (tstamp 9274ab56-7e4b-46f8-bf54-b2538d246633))
  (gr_line (start 95 130) (end 96 130) (layer "Dwgs.User") (width 0.1) (tstamp 9e6986b3-6dde-4cda-ba92-74be34a597cd))
  (gr_line (start 50 30) (end 39 30) (layer "Dwgs.User") (width 0.1) (tstamp a17d030d-b936-4317-b43a-190726c61f0c))
  (gr_arc (start 52.5 40.5) (end 52.5 41) (angle -180) (layer "Dwgs.User") (width 0.1) (tstamp a3ecd614-60d8-4e17-87ce-d1a236a02eb6))
  (gr_line (start 52.5 130) (end 50 130) (layer "Dwgs.User") (width 0.1) (tstamp a61b7555-6ecc-4d04-aadf-87d3c56daff4))
  (gr_line (start 51 38) (end 55 38) (layer "Dwgs.User") (width 0.1) (tstamp a70fbed1-abae-4d28-ab33-c3189bbb0e97))
  (gr_line (start 51 38) (end 51.5 37.5) (layer "Dwgs.User") (width 0.1) (tstamp b04f33cf-95ea-41d4-9c4f-71ae9dbb8fbd))
  (gr_line (start 52.5 120) (end 50 120) (layer "Dwgs.User") (width 0.1) (tstamp b0a720db-cc94-41c9-84f8-51ad0e080f7c))
  (gr_line (start 20 30) (end 20 40) (layer "Dwgs.User") (width 0.1) (tstamp b13ffa37-b944-4bfa-b598-f9f349c2cf38))
  (gr_line (start 87 25) (end 97 25) (layer "Dwgs.User") (width 0.1) (tstamp b29f6609-1e80-4bdd-a5e4-02bca4bfa742))
  (gr_line (start 84 23.5) (end 87 23.5) (layer "Dwgs.User") (width 0.1) (tstamp b3f69aad-9078-405a-a060-4f682ac7e842))
  (gr_line (start 84 133.5) (end 87 133.5) (layer "Dwgs.User") (width 0.1) (tstamp b708f2d9-0ad8-481f-a390-9b0aede4d524))
  (gr_line (start 51 20) (end 73 20) (layer "Dwgs.User") (width 0.1) (tstamp b7a2901e-2022-4fb7-981a-c9c41cfff59b))
  (gr_line (start 87 133.5) (end 87 136.5) (layer "Dwgs.User") (width 0.1) (tstamp b93bd1d0-8674-4cb6-a727-6d0051574401))
  (gr_poly (pts
 (xy 95 27)
    (xy 89 27)
    (xy 89 23)
    (xy 95 23)) (layer "Dwgs.User") (width 0.1) (tstamp bc7fdb85-cfa9-4889-bcc6-3d211f7c6bcd))
  (gr_arc (start 50.5 28.5) (end 50 28.5) (angle -90) (layer "Dwgs.User") (width 0.1) (tstamp bd98d4b8-4b02-47e7-8ebd-e35b11891fab))
  (gr_line (start 95 144) (end 95 130) (layer "Dwgs.User") (width 0.1) (tstamp c3f17bc8-5621-4c1a-bf7f-18cc8059b80a))
  (gr_line (start 87 135) (end 97 135) (layer "Dwgs.User") (width 0.1) (tstamp c41564c4-e231-472d-b11a-bfa2dc15ab17))
  (gr_line (start 50 120) (end 39 120) (layer "Dwgs.User") (width 0.1) (tstamp c5e376fa-7e25-4236-971b-396db2a1fb04))
  (gr_line (start 20 120) (end 20 130) (layer "Dwgs.User") (width 0.1) (tstamp c6163b69-4335-4d21-a705-c619d6634fb5))
  (gr_line (start 52.5 30) (end 50 30) (layer "Dwgs.User") (width 0.1) (tstamp c75baa54-93f5-4103-ba25-bd30c2e80053))
  (gr_circle (center 43 35) (end 44.6 35) (layer "Dwgs.User") (width 0.1) (tstamp cd8ee17e-9180-40e2-a71a-f99a270143f0))
  (gr_line (start 84 136.5) (end 84 133.5) (layer "Dwgs.User") (width 0.1) (tstamp cdca8d45-5d44-4392-a8b0-72b2e577e01a))
  (gr_line (start 87 26.5) (end 84 26.5) (layer "Dwgs.User") (width 0.1) (tstamp cfb76676-1015-470e-b53c-3bbf2f134ebb))
  (gr_arc (start 73 21) (end 74 21) (angle -90) (layer "Dwgs.User") (width 0.1) (tstamp d02cdce1-cfd5-4e2c-9fab-9327a6adc783))
  (gr_circle (center 43 125) (end 44.6 125) (layer "Dwgs.User") (width 0.1) (tstamp d04d2e2d-52a4-4596-8384-70993d935db1))
  (gr_line (start 39 120) (end 39 130) (layer "Dwgs.User") (width 0.1) (tstamp d54305f8-13bc-4e76-8895-4a4bfd4c84a8))
  (gr_line (start 52.5 40) (end 50 40) (layer "Dwgs.User") (width 0.1) (tstamp d6145a3a-469d-4370-87b0-4b87bd88df1d))
  (gr_line (start 96 15) (end 96 29) (layer "Dwgs.User") (width 0.1) (tstamp d6623fb0-24a9-4bb9-90d0-6f2cf0f15a4e))
  (gr_circle (center 23 125) (end 24.6 125) (layer "Dwgs.User") (width 0.1) (tstamp d82748c1-cb0a-4a95-9154-8d910d544138))
  (gr_line (start 93 138) (end 93.5 137.75) (layer "Dwgs.User") (width 0.1) (tstamp da94335c-fb6b-45ae-a4d9-6352c3e66636))
  (gr_arc (start 52.5 29.5) (end 52.5 30) (angle -180) (layer "Dwgs.User") (width 0.1) (tstamp dabafa2e-dbd7-4c0a-92ba-7d0696a0430b))
  (gr_line (start 87 23.5) (end 87 26.5) (layer "Dwgs.User") (width 0.1) (tstamp e37acf2f-2e51-4d1c-ba6b-c4a9f42c1ccd))
  (gr_line (start 78 135) (end 82 135) (layer "Dwgs.User") (width 0.1) (tstamp ea9fc105-5a66-4cc4-8751-ddefdb80db0c))
  (gr_line (start 50 21) (end 50 28.5) (layer "Dwgs.User") (width 0.1) (tstamp ecc54551-ae4e-4741-8fd9-9d1af4826f98))
  (gr_arc (start 50.5 41.5) (end 50.5 41) (angle -90) (layer "Dwgs.User") (width 0.1) (tstamp ee6971a5-bcb9-4b82-9de9-91a0002baf72))
  (gr_arc (start 51 139) (end 50 139) (angle -90) (layer "Dwgs.User") (width 0.1) (tstamp efa210f2-51fb-404d-9179-4cb84ca6b9fb))
  (gr_line (start 97 139) (end 93 138) (layer "Dwgs.User") (width 0.1) (tstamp efba5e5e-ea7f-432f-8cb1-e60b0ad2f1b1))
  (gr_line (start 39 130) (end 50 130) (layer "Dwgs.User") (width 0.1) (tstamp f5b30b04-7bf4-4382-a0cf-ca464ec39082))
  (gr_line (start 82 135) (end 81 134) (layer "Dwgs.User") (width 0.1) (tstamp f5e95988-1e4f-449c-8ac2-e64058cebf7a))
  (gr_line (start 90 40) (end 115 40) (layer "Edge.Cuts") (width 0.05) (tstamp 1c04f22b-5073-4ffd-936d-cb9fa0851c0a))
  (gr_line (start 115 120) (end 115 40) (layer "Edge.Cuts") (width 0.05) (tstamp 3364bd53-7043-4b69-a8f0-5e081b0b3280))
  (gr_line (start 90 30) (end 250 30) (layer "Edge.Cuts") (width 0.05) (tstamp 39a59f36-b580-47d0-b2cb-0ce53d1883c6))
  (gr_line (start 250 30) (end 250 130) (layer "Edge.Cuts") (width 0.05) (tstamp 489832b1-a180-47f8-82cc-946799015840))
  (gr_line (start 90 130) (end 90 120) (layer "Edge.Cuts") (width 0.05) (tstamp af0a24f2-2ec7-471f-8c8a-5caafe40b031))
  (gr_line (start 250 130) (end 90 130) (layer "Edge.Cuts") (width 0.05) (tstamp c0376fb2-9a2c-4a47-aff7-fa4e7c3a343d))
  (gr_line (start 90 30) (end 90 40) (layer "Edge.Cuts") (width 0.05) (tstamp e2ed1cd8-b843-4ad7-a03d-1a858abf34f7))
  (gr_line (start 90 120) (end 115 120) (layer "Edge.Cuts") (width 0.05) (tstamp f760da12-80ca-48cc-acad-6495b3aad4dd))
  (gr_text "Bend radius" (at 60 38) (layer "Dwgs.User") (tstamp 24f4b936-3c41-4897-8e3b-3ee6bfb00703)
    (effects (font (size 1 1) (thickness 0.15)))
  )
  (gr_text "d=3.2mm" (at 34 125) (layer "Dwgs.User") (tstamp 276c66f7-5a96-4d5f-b2ef-bda90be0253b)
    (effects (font (size 1 1) (thickness 0.15)))
  )
  (gr_text "Captive\npanel\nscrews" (at 80 140) (layer "Dwgs.User") (tstamp 28849a19-c75b-4d85-b98f-7829ae0ee361)
    (effects (font (size 1.5 1.5) (thickness 0.15)))
  )
  (gr_text "optional short cut" (at 37 80 90) (layer "Dwgs.User") (tstamp 54e969cf-066d-4304-a5d1-66631eaab204)
    (effects (font (size 1.5 1.5) (thickness 0.15) italic))
  )
  (gr_text "hole dia 2.5mm\ntap M3x0.5" (at 106 135) (layer "Dwgs.User") (tstamp 9f4151a7-88e2-4118-8559-2ebd11030a14)
    (effects (font (size 1 1) (thickness 0.15)))
  )
  (gr_text "RAF M0171-SS\nor equiv" (at 80 146) (layer "Dwgs.User") (tstamp a248d4a0-fcea-4c08-b387-fe4655b60509)
    (effects (font (size 1 1) (thickness 0.15)))
  )
  (gr_text "d=3.2mm\nno tap" (at 34 35) (layer "Dwgs.User") (tstamp aeb50144-e3e6-4bbf-9fcf-241b67f8a036)
    (effects (font (size 1 1) (thickness 0.15)))
  )
  (gr_text "Full copper fill\nboth sides" (at 105 125) (layer "Dwgs.User") (tstamp b5af5d69-50dd-48a0-9535-97076e3ae376)
    (effects (font (size 1.5 1) (thickness 0.15)))
  )
  (gr_text "Full copper fill\nboth sides" (at 105 35) (layer "Dwgs.User") (tstamp ca7d60c5-8900-4fbd-9487-e45e6969bbcb)
    (effects (font (size 1.5 1) (thickness 0.15)))
  )
  (gr_text "d=3.5mm" (at 62 22) (layer "Dwgs.User") (tstamp ee9a6a0a-a9a6-4f7e-be7a-b3ef2130bf00)
    (effects (font (size 1 1) (thickness 0.15)))
  )
  (gr_text "OPTOINAL WIRING AREA\nmay be used for PCB instead" (at 100 80 90) (layer "Dwgs.User") (tstamp f8d97095-8b4d-47e9-9c5b-2de05fd4ca7f)
    (effects (font (size 2.5 2.5) (thickness 0.2)))
  )
  (gr_text "spacer, 5mm×ID=4mm\nwelded to chassis" (at 106 139) (layer "Dwgs.User") (tstamp f9a99cf9-68f6-4f5d-8886-3d5602b59f2e)
    (effects (font (size 1 1) (thickness 0.15)))
  )
  (gr_text "Chassis" (at 103 143) (layer "Dwgs.User") (tstamp fc142b8d-93cf-4da4-aafd-9ec0fb25773e)
    (effects (font (size 2 2) (thickness 0.15)))
  )
  (dimension 12 (width 0.1) (layer "Dwgs.User") (tstamp 0b42a070-f969-497e-bfb5-d961121a0bff)
    (gr_text "12.000 mm" (at 56 26.25) (layer "Dwgs.User") (tstamp 0b42a070-f969-497e-bfb5-d961121a0bff)
      (effects (font (size 1 1) (thickness 0.15)))
    )
    (feature1 (pts (xy 62 25) (xy 62 25.586421)))
    (feature2 (pts (xy 50 25) (xy 50 25.586421)))
    (crossbar (pts (xy 50 25) (xy 62 25)))
    (arrow1a (pts (xy 62 25) (xy 60.873496 25.586421)))
    (arrow1b (pts (xy 62 25) (xy 60.873496 24.413579)))
    (arrow2a (pts (xy 50 25) (xy 51.126504 25.586421)))
    (arrow2b (pts (xy 50 25) (xy 51.126504 24.413579)))
  )
  (dimension 160 (width 0.1) (layer "Dwgs.User") (tstamp 181589d4-412d-473c-8ed2-fdcba421a4f3)
    (gr_text "160.000 mm" (at 170 132.25) (layer "Dwgs.User") (tstamp 181589d4-412d-473c-8ed2-fdcba421a4f3)
      (effects (font (size 1 1) (thickness 0.15)))
    )
    (feature1 (pts (xy 250 130) (xy 250 131.586421)))
    (feature2 (pts (xy 90 130) (xy 90 131.586421)))
    (crossbar (pts (xy 90 131) (xy 250 131)))
    (arrow1a (pts (xy 250 131) (xy 248.873496 131.586421)))
    (arrow1b (pts (xy 250 131) (xy 248.873496 130.413579)))
    (arrow2a (pts (xy 90 131) (xy 91.126504 131.586421)))
    (arrow2b (pts (xy 90 131) (xy 91.126504 130.413579)))
  )
  (dimension 25 (width 0.1) (layer "Dwgs.User") (tstamp 1bd847d4-6260-431d-a6f2-5d481d1f8fd4)
    (gr_text "25.000 mm" (at 102.5 45.25) (layer "Dwgs.User") (tstamp 1bd847d4-6260-431d-a6f2-5d481d1f8fd4)
      (effects (font (size 1 1) (thickness 0.15)))
    )
    (feature1 (pts (xy 115 40) (xy 115 44.586421)))
    (feature2 (pts (xy 90 40) (xy 90 44.586421)))
    (crossbar (pts (xy 90 44) (xy 115 44)))
    (arrow1a (pts (xy 115 44) (xy 113.873496 44.586421)))
    (arrow1b (pts (xy 115 44) (xy 113.873496 43.413579)))
    (arrow2a (pts (xy 90 44) (xy 91.126504 44.586421)))
    (arrow2b (pts (xy 90 44) (xy 91.126504 43.413579)))
  )
  (dimension 24 (width 0.1) (layer "Dwgs.User") (tstamp 1ceb8b63-4254-4619-9d69-e9a54379b40c)
    (gr_text "24.000 mm" (at 62 15.75) (layer "Dwgs.User") (tstamp 1ceb8b63-4254-4619-9d69-e9a54379b40c)
      (effects (font (size 1 1) (thickness 0.15)))
    )
    (feature1 (pts (xy 74 19) (xy 74 16.413579)))
    (feature2 (pts (xy 50 19) (xy 50 16.413579)))
    (crossbar (pts (xy 50 17) (xy 74 17)))
    (arrow1a (pts (xy 74 17) (xy 72.873496 17.586421)))
    (arrow1b (pts (xy 74 17) (xy 72.873496 16.413579)))
    (arrow2a (pts (xy 50 17) (xy 51.126504 17.586421)))
    (arrow2b (pts (xy 50 17) (xy 51.126504 16.413579)))
  )
  (dimension 10.63 (width 0.1) (layer "Dwgs.User") (tstamp 2113ee34-8a62-4b1f-a12a-02ce290b2cc4)
    (gr_text "10.630 mm" (at 260.25 35.315 270) (layer "Dwgs.User") (tstamp 2113ee34-8a62-4b1f-a12a-02ce290b2cc4)
      (effects (font (size 1 1) (thickness 0.15)))
    )
    (feature1 (pts (xy 253 40.63) (xy 259.586421 40.63)))
    (feature2 (pts (xy 253 30) (xy 259.586421 30)))
    (crossbar (pts (xy 259 30) (xy 259 40.63)))
    (arrow1a (pts (xy 259 40.63) (xy 258.413579 39.503496)))
    (arrow1b (pts (xy 259 40.63) (xy 259.586421 39.503496)))
    (arrow2a (pts (xy 259 30) (xy 258.413579 31.126504)))
    (arrow2b (pts (xy 259 30) (xy 259.586421 31.126504)))
  )
  (dimension 100 (width 0.1) (layer "Dwgs.User") (tstamp 272ffe5d-ee40-41ca-b775-0788fa872c52)
    (gr_text "100.000 mm" (at 264.25 80 270) (layer "Dwgs.User") (tstamp 272ffe5d-ee40-41ca-b775-0788fa872c52)
      (effects (font (size 1 1) (thickness 0.15)))
    )
    (feature1 (pts (xy 250 130) (xy 263.586421 130)))
    (feature2 (pts (xy 250 30) (xy 263.586421 30)))
    (crossbar (pts (xy 263 30) (xy 263 130)))
    (arrow1a (pts (xy 263 130) (xy 262.413579 128.873496)))
    (arrow1b (pts (xy 263 130) (xy 263.586421 128.873496)))
    (arrow2a (pts (xy 263 30) (xy 262.413579 31.126504)))
    (arrow2b (pts (xy 263 30) (xy 263.586421 31.126504)))
  )
  (dimension 5 (width 0.1) (layer "Dwgs.User") (tstamp 2c74e227-6f4f-4056-ad0d-7fa2c3849d47)
    (gr_text "5.000 mm" (at 121.25 32.5 270) (layer "Dwgs.User") (tstamp 2c74e227-6f4f-4056-ad0d-7fa2c3849d47)
      (effects (font (size 1 1) (thickness 0.15)))
    )
    (feature1 (pts (xy 115 35) (xy 120.586421 35)))
    (feature2 (pts (xy 115 30) (xy 120.586421 30)))
    (crossbar (pts (xy 120 30) (xy 120 35)))
    (arrow1a (pts (xy 120 35) (xy 119.413579 33.873496)))
    (arrow1b (pts (xy 120 35) (xy 120.586421 33.873496)))
    (arrow2a (pts (xy 120 30) (xy 119.413579 31.126504)))
    (arrow2b (pts (xy 120 30) (xy 120.586421 31.126504)))
  )
  (dimension 5 (width 0.1) (layer "Dwgs.User") (tstamp 2de64dd1-27a9-4cb4-b11f-27aee655e3ad)
    (gr_text "5.000 mm" (at 92.5 42.25) (layer "Dwgs.User") (tstamp 2de64dd1-27a9-4cb4-b11f-27aee655e3ad)
      (effects (font (size 1 1) (thickness 0.15)))
    )
    (feature1 (pts (xy 95 40) (xy 95 41.586421)))
    (feature2 (pts (xy 90 40) (xy 90 41.586421)))
    (crossbar (pts (xy 90 41) (xy 95 41)))
    (arrow1a (pts (xy 95 41) (xy 93.873496 41.586421)))
    (arrow1b (pts (xy 95 41) (xy 93.873496 40.413579)))
    (arrow2a (pts (xy 90 41) (xy 91.126504 41.586421)))
    (arrow2b (pts (xy 90 41) (xy 91.126504 40.413579)))
  )
  (dimension 20 (width 0.1) (layer "Dwgs.User") (tstamp 5a1953dc-9ada-489b-a08d-c5e5ecd99bda)
    (gr_text "20.000 mm" (at 33 30.750001) (layer "Dwgs.User") (tstamp 5a1953dc-9ada-489b-a08d-c5e5ecd99bda)
      (effects (font (size 1 1) (thickness 0.15)))
    )
    (feature1 (pts (xy 23 35) (xy 23 31.41358)))
    (feature2 (pts (xy 43 35) (xy 43 31.41358)))
    (crossbar (pts (xy 43 32.000001) (xy 23 32.000001)))
    (arrow1a (pts (xy 23 32.000001) (xy 24.126504 31.41358)))
    (arrow1b (pts (xy 23 32.000001) (xy 24.126504 32.586422)))
    (arrow2a (pts (xy 43 32.000001) (xy 41.873496 31.41358)))
    (arrow2b (pts (xy 43 32.000001) (xy 41.873496 32.586422)))
  )
  (dimension 7 (width 0.1) (layer "Dwgs.User") (tstamp 721164bf-f1b9-4997-ae28-bf6c6386aae4)
    (gr_text "7.000 mm" (at 46.5 30.75) (layer "Dwgs.User") (tstamp 721164bf-f1b9-4997-ae28-bf6c6386aae4)
      (effects (font (size 1 1) (thickness 0.15)))
    )
    (feature1 (pts (xy 50 35) (xy 50 31.413579)))
    (feature2 (pts (xy 43 35) (xy 43 31.413579)))
    (crossbar (pts (xy 43 32) (xy 50 32)))
    (arrow1a (pts (xy 50 32) (xy 48.873496 32.586421)))
    (arrow1b (pts (xy 50 32) (xy 48.873496 31.413579)))
    (arrow2a (pts (xy 43 32) (xy 44.126504 32.586421)))
    (arrow2b (pts (xy 43 32) (xy 44.126504 31.413579)))
  )
  (dimension 5 (width 0.1) (layer "Dwgs.User") (tstamp fa38f6bb-a397-455f-8874-218a7257a822)
    (gr_text "5.000 mm" (at 67.25 22.5 270) (layer "Dwgs.User") (tstamp fa38f6bb-a397-455f-8874-218a7257a822)
      (effects (font (size 1 1) (thickness 0.15)))
    )
    (feature1 (pts (xy 62 25) (xy 66.586421 25)))
    (feature2 (pts (xy 62 20) (xy 66.586421 20)))
    (crossbar (pts (xy 66 20) (xy 66 25)))
    (arrow1a (pts (xy 66 25) (xy 65.413579 23.873496)))
    (arrow1b (pts (xy 66 25) (xy 66.586421 23.873496)))
    (arrow2a (pts (xy 66 20) (xy 65.413579 21.126504)))
    (arrow2b (pts (xy 66 20) (xy 66.586421 21.126504)))
  )

)
